%!PS-Adobe-2.0
%%BoundingBox: -20 -20 450  450 
%%DocumentFonts: Helvetica
%%Pages:  7 
%!MadGraph
%
% Feynman Diagrams drawn by MadGraph5_aMC@NLO
%
% Using FEYNMAN DRAW
% A program by David J. Summers to draw
% Feynman diagrams. (c) 1992
% Version 2.7 (c) 1993
%
% Comments and questions to 
%  D.J.Summers@uk.ac.durham
%

/Fnopoints 10 def 
/Fr 2.5 def 
/pi 3.14159265359 def

/Frmod {dup 360 div floor 360 mul sub} def
/Fsign {0 ge {1} {-1} ifelse} def

/Fbasis
{/Fby exch def /Fbx exch def /Fdist Fbx Fbx
mul Fby Fby mul add sqrt def /Fxl Fbx Fdist
div Fr mul def /Fyl Fby Fdist div Fr mul def
/Fxt Fby Fdist div Fr mul def /Fyt Fbx neg
Fdist div Fr mul def } def

/Fstraight 
{/Fshape exch def /Ftype exch def /Fy2 exch
def /Fx2 exch def /Fy1 exch def /Fx1 exch def
Fx2 Fx1 sub Fy2 Fy1 sub Fbasis /Fttype 1
Ftype 2 mod 2 mul abs sub def Ftype 0 ge
{/Fddist Fdist Fr div 2 div def /Fn Fddist round
def Ftype 1 gt {/Fn Fn Fddist Fn sub Fsign
add def} if} {/Fn Fdist Fr div 2 div round 2
mul def} ifelse Fx1 Fy1 moveto 0 1 Fnopoints
Fn mul {/Fi exch def Fshape lineto } for
stroke } def

/Floop
{/Fshape exch def /Fe exch def /Ftype exch
def /Fy2 exch def /Fx2 exch def /Fy1 exch def
/Fx1 exch def /Flam 1 Fe Fe mul sub 2 div Fe
div def /Fxc Fx1 Fx2 Flam Fy2 Fy1 sub mul add
add 2 div def /Fyc Fy1 Fy2 Flam Fx1 Fx2 sub
mul add add 2 div def /Frr Fx1 Fxc sub dup
mul Fy1 Fyc sub dup mul add sqrt def /Fth1
Fy1 Fyc sub Fx1 Fxc sub atan def /Fth2 Fy2
Fyc sub Fx2 Fxc sub atan def Fe 0 lt Fth2
Fth1 lt and {/Fth1 Fth1 360 sub def} if Fe 0
gt Fth2 Fth1 gt and {/Fth2 Fth2 360 sub def}
if /Fdth Fth2 Fth1 sub Fsign def /Fttype 1
Ftype 2 mod abs 2 mul sub def Ftype 0 ge
{/Fddist Fth2 Fth1 sub abs 180 div pi mul Frr
mul Fr div def /Fn Fddist round def Ftype 1
gt {/Fn Fn Fddist Fn sub Fsign add def} if}
{/Fn Fth2 Fth1 sub abs 180 div pi mul Frr mul
Fr div 2 div round 2 mul def} ifelse Fx1 Fy1
moveto 0 1 Fnopoints Fn mul {/Fi exch def
/Fth Fth1 Fth2 Fth1 sub Fi mul Fnopoints div
Fn div add Frmod def Fth sin neg Fdth mul Fth
cos Fdth mul Fbasis Fshape lineto } for
stroke } def

/Farrow
{ moveto Fxt Fxl sub Fyt Fyl sub
rlineto Fxl 2 mul Fxt sub Fyl 2 mul Fyt sub
rlineto Fxl 2 mul Fxt add neg Fyl 2 mul Fyt
add neg rlineto fill } def

/Fphoton
{{ Fx1 Fx2 Fx1 sub Fi mul Fnopoints div Fn
div Fxt Fi 360 mul Fnopoints div Frmod sin
mul Fttype mul 2 div add add Fy1 Fy2 Fy1 sub
Fi mul Fnopoints div Fn div Fyt Fi 360 mul
Fnopoints div Frmod sin mul Fttype mul 2 div
add add } Fstraight } def

/Fphotonr
{{ Fx1 Fx2 Fx1 sub Fi mul Fnopoints div Fn
div Fxt Fi 180 mul Fnopoints div Frmod sin
mul Fttype mul 1 div add add Fy1 Fy2 Fy1 sub
Fi mul Fnopoints div Fn div Fyt Fi 180 mul
Fnopoints div Frmod sin mul Fttype mul 1 div
add add } Fstraight } def

/Fphotond
{{ Fx1 Fx2 Fx1 sub Fi mul Fnopoints div Fn
div Fxt Fi 360 mul Fnopoints div Frmod sin
mul Fttype mul 2 div add add Fy1 Fy2 Fy1 sub
Fi mul Fnopoints div Fn div Fyt Fi 360 mul
Fnopoints div Frmod sin mul Fttype mul 2 div
add add } Fstraight Fx1
Fx2 add 2 div Fy1 Fy2 add 2 div Farrow} def

/Fphotonl
{exch dup 3 1 roll 0 ge {{ Fxc Fth cos Frr
mul Fxt Fi 180 mul Fnopoints div Frmod sin
mul Fttype mul 2 div add add Fyc Fth sin Frr
mul Fyt Fi 180 mul Fnopoints div Frmod sin
mul Fttype mul 2 div add add }} {{ Fxc Fth
cos Frr mul Fxt 1 Fi 180 mul Fnopoints div
Frmod cos sub mul Fttype mul 2 div add add
Fyc Fth sin Frr mul Fyt 1 Fi 180 mul
Fnopoints div Frmod cos sub mul Fttype mul 2
div add add }} ifelse Floop } def

/Fgluon
{2 sub { Fx1 Fx2 Fx1 sub Fi mul Fnopoints div
Fn div Fxt 1 Fi 180 mul Fnopoints div cos sub
mul Fttype mul Fxl Fi 180 mul Fnopoints div
sin mul add add add Fy1 Fy2 Fy1 sub Fi mul
Fnopoints div Fn div Fyt 1 Fi 180 mul
Fnopoints div cos sub mul Fttype mul Fyl Fi
180 mul Fnopoints div sin mul add add add }
Fstraight } def

/Fgluonr
{2 sub { Fx1 Fx2 Fx1 sub Fi mul Fnopoints div
Fn div Fxt 0 Fi 120 mul Fnopoints div cos sub
mul Fttype mul Fxl Fi 120 mul Fnopoints div
sin mul add add add Fy1 Fy2 Fy1 sub Fi mul
Fnopoints div Fn div Fyt 0 Fi 120 mul
Fnopoints div cos sub mul Fttype mul Fyl Fi
120 mul Fnopoints div sin mul add add add }
Fstraight } def


/Fgluonl
{exch 2 sub exch { Fxc Fth cos Frr mul Fxt 1
Fi 180 mul Fnopoints div cos sub mul Fttype
mul Fxl Fi 180 mul Fnopoints div sin mul add
add add Fyc Fth sin Frr mul Fyt 1 Fi 180 mul
Fnopoints div cos sub mul Fttype mul Fyl Fi
180 mul Fnopoints div sin mul add add add }
Floop} def

/Ffermion
{/Fy2 exch def /Fx2 exch def /Fy1 exch def
/Fx1 exch def newpath Fx2 Fx1 sub Fy2 Fy1 sub
Fbasis Fx1 Fy1 moveto Fx2 Fy2 lineto stroke Fx1
Fx2 add 2 div Fy1 Fy2 add 2 div Farrow } def

/Fscalar
{newpath moveto lineto stroke} def

/Ffermionl
{/Fe exch def /Fy2 exch def /Fx2 exch def
/Fy1 exch def /Fx1 exch def newpath /Flam 1 Fe
Fe mul sub 2 div Fe div def /Fxc Fx1 Fx2 Flam Fy2
Fy1 sub mul add add 2 div def /Fyc Fy1 Fy2
Flam Fx1 Fx2 sub mul add add 2 div def /Frr
Fx1 Fxc sub dup mul Fy1 Fyc sub dup mul add
sqrt def /Fth1 Fy1 Fyc sub Fx1 Fxc sub atan
def /Fth2 Fy2 Fyc sub Fx2 Fxc sub atan def Fe
0 lt Fth2 Fth1 lt and {/Fth1 Fth1 360 sub
def} if Fe 0 gt Fth2 Fth1 gt and {/Fth2 Fth2
360 sub def} if /Fthc Fth1 Fth2 add 2 div def
Fxc Fyc Frr Fth1 Fth2 Fe 0 gt {arcn} {arc}
ifelse stroke Fthc sin Fe 0 lt {neg} if Fthc
cos Fe 0 gt {neg} if Fbasis Fxc Fthc cos Frr
mul add Fyc Fthc sin Frr mul add Farrow } def

/Fscalarl
{/Fe exch def /Fy2 exch def /Fx2 exch def
/Fy1 exch def /Fx1 exch def newpath /Flam 1 Fe
Fe mul sub 2 div Fe div def /Fxc Fx1 Fx2 Flam Fy2
Fy1 sub mul add add 2 div def /Fyc Fy1 Fy2
Flam Fx1 Fx2 sub mul add add 2 div def /Frr
Fx1 Fxc sub dup mul Fy1 Fyc sub dup mul add
sqrt def /Fth1 Fy1 Fyc sub Fx1 Fxc sub atan
def /Fth2 Fy2 Fyc sub Fx2 Fxc sub atan def Fe
0 lt Fth2 Fth1 lt and {/Fth1 Fth1 360 sub
def} if Fe 0 gt Fth2 Fth1 gt and {/Fth2 Fth2
360 sub def} if /Fthc Fth1 Fth2 add 2 div def
Fxc Fyc Frr Fth1 Fth2 Fe 0 gt {arcn} {arc}
ifelse stroke } def

/Fblob 
{/Fshade exch def newpath Fr mul 0 360 arc gsave
1 Fshade sub setgray fill grestore stroke} def

/Fhiggs
{/Fy2 exch def /Fx2 exch def /Fy1 exch def
/Fx1 exch def gsave Fx1 Fx2 sub dup mul
Fy1 Fy2 sub dup mul add sqrt dup Fr div
2 div round 2 mul 1 add div /dashln exch def
[dashln dashln] 0 setdash Fx1 Fy1 moveto
Fx2 Fy2 lineto stroke grestore} def


/Fhiggsd
{/Fy2 exch def /Fx2 exch def /Fy1 exch def
/Fx1 exch def gsave Fx1 Fx2 sub dup mul
Fy1 Fy2 sub dup mul add sqrt dup Fr div
2 div round 2 mul 1 add div /dashln exch def
[dashln dashln] 0 setdash Fx1 Fy1 moveto
Fx2 Fy2 lineto stroke grestore Fx1 Fx2 add 2 div
Fy1 Fy2 add 2 div Farrow} def

/Fhiggsl
{/Fe exch def /Fy2 exch def /Fx2 exch def
/Fy1 exch def /Fx1 exch def /Flam gsave 1 Fe
Fe mul sub 2 div Fe div def /Fxc Fx1 Fx2 Flam
Fy2 Fy1 sub mul add add 2 div def /Fyc Fy1
Fy2 Flam Fx1 Fx2 sub mul add add 2 div def
/Frr Fx1 Fxc sub dup mul Fy1 Fyc sub dup mul
add sqrt def /Fth1 Fy1 Fyc sub Fx1 Fxc sub
atan def /Fth2 Fy2 Fyc sub Fx2 Fxc sub atan
def Fe 0 lt Fth2 Fth1 lt and {/Fth1 Fth1 360
sub def} if Fe 0 gt Fth2 Fth1 gt and {/Fth2
Fth2 360 sub def} if /Fthc Fth1 Fth2 add 2
div def Fxc Fyc Frr Fth1 Fth2 Fe 0 gt {arcn}
{arc} ifelse Fth2 Fth1 sub abs 180 div pi mul
Frr mul dup Fr div 2 div round 2 mul 1 add
div /dashln exch def [dashln dashln] 0
setdash stroke grestore} def

/Fghost
{/Fy2 exch def /Fx2 exch def /Fy1 exch def
/Fx1 exch def Fx2 Fx1 sub Fy2 Fy1 sub Fbasis
/Fn Fx1 Fx2 sub dup mul Fy1 Fy2 sub dup mul
add sqrt Fr div round def 0 1 Fn {/Fi exch
def Fx2 Fx1 sub Fi Fn div mul Fx1 add Fy2 Fy1
sub Fi Fn div mul Fy1 add Fr 10 div 0 360 arc
fill} for Fx1 Fx2 add 2 div Fy1 Fy2 add 2 div
Farrow } def

/Fghostl
{/Fe exch def /Fy2 exch def /Fx2 exch def
/Fy1 exch def /Fx1 exch def /Flam 1 Fe Fe mul
sub 2 div Fe div def /Fxc Fx1 Fx2 Flam Fy2
Fy1 sub mul add add 2 div def /Fyc Fy1 Fy2
Flam Fx1 Fx2 sub mul add add 2 div def /Frr
Fx1 Fxc sub dup mul Fy1 Fyc sub dup mul add
sqrt def /Fth1 Fy1 Fyc sub Fx1 Fxc sub atan
def /Fth2 Fy2 Fyc sub Fx2 Fxc sub atan def Fe
0 lt Fth2 Fth1 lt and {/Fth1 Fth1 360 sub
def} if Fe 0 gt Fth2 Fth1 gt and {/Fth2 Fth2
360 sub def} if /Fthc Fth1 Fth2 add 2 div def
/Fn Fth2 Fth1 sub abs 180 div pi mul Frr mul
Fr div round def 0 1 Fn {/Fi exch def Fth2
Fth1 sub Fi Fn div mul Fth1 add dup cos Frr
mul Fxc add exch sin Frr mul Fyc add Fr 10
div 0 360 arc fill} for Fthc sin Fe 0 lt
{neg} if Fthc cos Fe 0 gt {neg} if Fbasis Fxc
Fthc cos Frr mul add Fyc Fthc sin Frr mul add
Farrow } def

/Fproton
{/Fy2 exch def /Fx2 exch def /Fy1 exch def
/Fx1 exch def Fx2 Fx1 sub Fy2 Fy1 sub Fbasis
Fx1 Fxt 2 div add Fy1 Fyt 2 div add moveto
Fx2 Fxt 2 div add Fy2 Fyt 2 div add lineto
Fx1 Fxt 2 div sub Fy1 Fyt 2 div sub moveto
Fx2 Fxt 2 div sub Fy2 Fyt 2 div sub lineto
Fx1 Fx2 add 2 div Fxt Fxl sub add Fy1 Fy2 add
2 div Fyt Fyl sub add moveto Fx1 Fx2 add Fxl
add 2 div Fy1 Fy2 add Fyl add 2 div lineto
Fx1 Fx2 add 2 div Fxt Fxl add sub Fy1 Fy2 add
2 div Fyt Fyl add sub lineto stroke} def

/Fmax {2 copy lt {exch} if pop} def
/Fstart {gsave currentpoint
translate 0 0 moveto 0 rm Fr 4 mul
scalefont setfont} def
/Fsubspt {gsave currentpoint Fcharheight 5 div
sub translate 0.6 0.6 scale 0 0 moveto 0} def
/Fsupspt {gsave currentpoint Fcharheight 0.6 mul
add translate 0.6 0.6 scale 0 0 moveto 0} def
/Feend {currentpoint pop Fmax 0.6 mul
grestore currentpoint pop add Fmax} def
/Fendd {pop grestore} def
/Fshow {exch 0 moveto show currentpoint pop} def
/Fcharheight
{gsave (X) true charpath flattenpath pathbbox
3 1 roll pop sub exch pop grestore} def

/Foverline
{exch 0 moveto gsave dup true charpath
flattenpath pathbbox Fcharheight 10 div dup
2 div setlinewidth add dup 4
1 roll newpath moveto pop lineto stroke
grestore show currentpoint pop} def

/Funderline 
{exch 0 moveto gsave dup true charpath
flattenpath pathbbox pop exch Fcharheight
10 div dup 2 div setlinewidth
sub dup 3 1 roll newpath moveto lineto stroke
grestore show currentpoint pop} def

/rm /Times-Roman findfont def
/it /Times-Italic findfont def
/sy /Symbol findfont def

/wedge 
/{ /ystop exch def /xstop exch def /ystart exch def
/xstart exch def /delx xstop xstart sub def /dely 
ystop ystart sub def /dist delx dup mul dely dup 
mul add sqrt def /halfdist dist 2 div def
/angle dely delx atan def xstart ystart moveto 
angle rotate 0 halfdist rlineto dist halfdist
neg rlineto dist neg halfdist neg rlineto 
0 halfdist rlineto }def

/ch_photon
{/ystop exch def /xstop exch def /ystart exch def
/xstart exch def /xmid xstart xstop add 2 div def
/ymid ystart ystop add 2 div def
/dx xstop xstart sub def /dy ystop ystart sub def
/length dx dup mul dy dup mul add sqrt def
/xunit dx length div def /yunit dy length div def
/x1 xmid xunit -4.8 mul add def
/y1 ymid yunit -4.8 mul add def
/x2 xmid xunit 4.8 mul add def
/y2 ymid yunit 4.8 mul add def
/y2 ymid yunit 4.8 mul add def
xstart ystart x1 y1 1 Fphoton 
x2 y2 xstop ystop 1 Fphoton
/x1 xmid xunit -5.2 mul add def 
/y1 ymid yunit -5.2 mul add def
/x2 xmid xunit 5.2 mul add def 
/y2 ymid yunit 5.2 mul add def
gsave x1 y1 x2 y2 wedge fill grestore} def

/ch_higgs 
{ /ystop exch def /xstop exch def /ystart exch def
/xstart exch def 
/xmid xstart xstop add 2 div def
/ymid ystart ystop add 2 div def
/dx xstop xstart sub def /dy ystop ystart sub def
/length dx dup mul dy dup mul add sqrt def
/xunit dx length div def /yunit dy length div def
/x1 xmid xunit -4.8 mul add def 
/y1 ymid yunit -4.8 mul add def
/x2 xmid xunit 4.8 mul add def 
/y2 ymid yunit 4.8 mul add def
xstart ystart x1 y1 Fhiggs 
x2 y2 xstop ystop Fhiggs
/x1 xmid xunit -5.2 mul add def
/y1 ymid yunit -5.2 mul add def
/x2 xmid xunit 5.2 mul add def
/y2 ymid yunit 5.2 mul add def
gsave x1 y1 x2 y2 wedge fill grestore} def
% End of the header

%%Page:       1       1
%%PageBoundingBox:-20 -20 600 800
%%PageFonts: Helvetica

/Helvetica findfont 9 scalefont setfont
 50         770  moveto
 () show
 525         770  moveto
 (page 1/7) show
 260         50  moveto
 (Diagrams made by MadGraph5_aMC@NLO) show
 75 710 115.0 635.0 Ffermion 
 97.0  675.5 moveto 
(e-)   show
 67.0  710 moveto 
(2)   show
 115.0 635.0 75 560 Ffermion 
 83.0  603.5 moveto 
(e+)   show
 67.0  560 moveto 
(1)   show
 155.0 635.0 115.0 635.0 0 Fphoton 
 133.0  638.75 moveto 
(a)   show
 201.093276776 606.191702015 155.0 635.0 Ffermion 
 180.046638388  623.595851008 moveto 
(ta+)   show
 209.093276776  601.191702015 moveto 
(5)   show
 155.0 635.0 195.0 672.5 Ffermion 
 157.0  662.75 moveto 
(ta-)   show
 275.0 660.0 235.0 685.0 Ffermion 
 257.0  675.5 moveto 
(e+)   show
 283.0  655.0 moveto 
(3)   show
 235.0 685.0 275.0 710 Ffermion 
 243.0  703.5 moveto 
(e-)   show
 283.0  715.0 moveto 
(4)   show
 195.0 672.5 235.0 685.0 0 Fphoton 
 209.0  681.75 moveto 
(a)   show
 195.0 672.5 236.551909691 640.037570554 Ffermion 
 217.775954846  659.268785277 moveto 
(ta-)   show
 244.551909691  633.787570554 moveto 
(6)   show
 115.0  534.5 moveto 
( diagram 1 )   show
 195.0  534.5 moveto 
 (QCD=0, QED=4)   show
 350 710 390.0 635.0 Ffermion 
 372.0  675.5 moveto 
(e-)   show
 342.0  710 moveto 
(2)   show
 390.0 635.0 350 560 Ffermion 
 358.0  603.5 moveto 
(e+)   show
 342.0  560 moveto 
(1)   show
 430.0 635.0 390.0 635.0 0 Fphoton 
 408.0  638.75 moveto 
(a)   show
 430.0 635.0 476.093276776 606.191702015 Ffermion 
 455.046638388  623.595851008 moveto 
(ta-)   show
 484.093276776  601.191702015 moveto 
(6)   show
 470.0 672.5 430.0 635.0 Ffermion 
 432.0  662.75 moveto 
(ta+)   show
 550.0 660.0 510.0 685.0 Ffermion 
 532.0  675.5 moveto 
(e+)   show
 558.0  655.0 moveto 
(3)   show
 510.0 685.0 550.0 710 Ffermion 
 518.0  703.5 moveto 
(e-)   show
 558.0  715.0 moveto 
(4)   show
 470.0 672.5 510.0 685.0 0 Fphoton 
 484.0  681.75 moveto 
(a)   show
 511.551909691 640.037570554 470.0 672.5 Ffermion 
 492.775954846  659.268785277 moveto 
(ta+)   show
 519.551909691  633.787570554 moveto 
(5)   show
 390.0  534.5 moveto 
( diagram 2 )   show
 470.0  534.5 moveto 
 (QCD=0, QED=4)   show
 75 490 115.0 415.0 Ffermion 
 97.0  455.5 moveto 
(e-)   show
 67.0  490 moveto 
(2)   show
 115.0 415.0 75 340 Ffermion 
 83.0  383.5 moveto 
(e+)   show
 67.0  340 moveto 
(1)   show
 155.0 415.0 115.0 415.0 0 Fphoton 
 133.0  418.75 moveto 
(a)   show
 201.093276776 386.191702015 155.0 415.0 Ffermion 
 180.046638388  403.595851008 moveto 
(ta+)   show
 209.093276776  381.191702015 moveto 
(5)   show
 155.0 415.0 195.0 452.5 Ffermion 
 157.0  442.75 moveto 
(ta-)   show
 275.0 440.0 235.0 465.0 Ffermion 
 257.0  455.5 moveto 
(e+)   show
 283.0  435.0 moveto 
(3)   show
 235.0 465.0 275.0 490 Ffermion 
 243.0  483.5 moveto 
(e-)   show
 283.0  495.0 moveto 
(4)   show
 195.0 452.5 235.0 465.0 0 Fphoton 
 209.0  461.75 moveto 
(z)   show
 195.0 452.5 236.551909691 420.037570554 Ffermion 
 217.775954846  439.268785277 moveto 
(ta-)   show
 244.551909691  413.787570554 moveto 
(6)   show
 115.0  314.5 moveto 
( diagram 3 )   show
 195.0  314.5 moveto 
 (QCD=0, QED=4)   show
 350 490 390.0 415.0 Ffermion 
 372.0  455.5 moveto 
(e-)   show
 342.0  490 moveto 
(2)   show
 390.0 415.0 350 340 Ffermion 
 358.0  383.5 moveto 
(e+)   show
 342.0  340 moveto 
(1)   show
 430.0 415.0 390.0 415.0 0 Fphoton 
 408.0  418.75 moveto 
(a)   show
 430.0 415.0 476.093276776 386.191702015 Ffermion 
 455.046638388  403.595851008 moveto 
(ta-)   show
 484.093276776  381.191702015 moveto 
(6)   show
 470.0 452.5 430.0 415.0 Ffermion 
 432.0  442.75 moveto 
(ta+)   show
 550.0 440.0 510.0 465.0 Ffermion 
 532.0  455.5 moveto 
(e+)   show
 558.0  435.0 moveto 
(3)   show
 510.0 465.0 550.0 490 Ffermion 
 518.0  483.5 moveto 
(e-)   show
 558.0  495.0 moveto 
(4)   show
 470.0 452.5 510.0 465.0 0 Fphoton 
 484.0  461.75 moveto 
(z)   show
 511.551909691 420.037570554 470.0 452.5 Ffermion 
 492.775954846  439.268785277 moveto 
(ta+)   show
 519.551909691  413.787570554 moveto 
(5)   show
 390.0  314.5 moveto 
( diagram 4 )   show
 470.0  314.5 moveto 
 (QCD=0, QED=4)   show
 75 270 115.0 195.0 Ffermion 
 97.0  235.5 moveto 
(e-)   show
 67.0  270 moveto 
(2)   show
 115.0 195.0 75 120 Ffermion 
 83.0  163.5 moveto 
(e+)   show
 67.0  120 moveto 
(1)   show
 155.0 195.0 115.0 195.0 0 Fphoton 
 133.0  198.75 moveto 
(z)   show
 201.093276776 166.191702015 155.0 195.0 Ffermion 
 180.046638388  183.595851008 moveto 
(ta+)   show
 209.093276776  161.191702015 moveto 
(5)   show
 155.0 195.0 195.0 232.5 Ffermion 
 157.0  222.75 moveto 
(ta-)   show
 275.0 220.0 235.0 245.0 Ffermion 
 257.0  235.5 moveto 
(e+)   show
 283.0  215.0 moveto 
(3)   show
 235.0 245.0 275.0 270 Ffermion 
 243.0  263.5 moveto 
(e-)   show
 283.0  275.0 moveto 
(4)   show
 195.0 232.5 235.0 245.0 0 Fphoton 
 209.0  241.75 moveto 
(a)   show
 195.0 232.5 236.551909691 200.037570554 Ffermion 
 217.775954846  219.268785277 moveto 
(ta-)   show
 244.551909691  193.787570554 moveto 
(6)   show
 115.0  94.5 moveto 
( diagram 5 )   show
 195.0  94.5 moveto 
 (QCD=0, QED=4)   show
 350 270 390.0 195.0 Ffermion 
 372.0  235.5 moveto 
(e-)   show
 342.0  270 moveto 
(2)   show
 390.0 195.0 350 120 Ffermion 
 358.0  163.5 moveto 
(e+)   show
 342.0  120 moveto 
(1)   show
 430.0 195.0 390.0 195.0 0 Fphoton 
 408.0  198.75 moveto 
(z)   show
 430.0 195.0 476.093276776 166.191702015 Ffermion 
 455.046638388  183.595851008 moveto 
(ta-)   show
 484.093276776  161.191702015 moveto 
(6)   show
 470.0 232.5 430.0 195.0 Ffermion 
 432.0  222.75 moveto 
(ta+)   show
 550.0 220.0 510.0 245.0 Ffermion 
 532.0  235.5 moveto 
(e+)   show
 558.0  215.0 moveto 
(3)   show
 510.0 245.0 550.0 270 Ffermion 
 518.0  263.5 moveto 
(e-)   show
 558.0  275.0 moveto 
(4)   show
 470.0 232.5 510.0 245.0 0 Fphoton 
 484.0  241.75 moveto 
(a)   show
 511.551909691 200.037570554 470.0 232.5 Ffermion 
 492.775954846  219.268785277 moveto 
(ta+)   show
 519.551909691  193.787570554 moveto 
(5)   show
 390.0  94.5 moveto 
( diagram 6 )   show
 470.0  94.5 moveto 
 (QCD=0, QED=4)   show
showpage
%%Page: 2 2 
%%PageBoundingBox:-20 -20 600 800
%%PageFonts: Helvetica
/Helvetica findfont 9 scalefont setfont
 50         770  moveto
 () show
 525         770  moveto
 (page 2/7) show
 260         40  moveto
 (Diagrams made by MadGraph5_aMC@NLO) show
 75 710 115.0 635.0 Ffermion 
 97.0  675.5 moveto 
(e-)   show
 67.0  710 moveto 
(2)   show
 115.0 635.0 75 560 Ffermion 
 83.0  603.5 moveto 
(e+)   show
 67.0  560 moveto 
(1)   show
 155.0 635.0 115.0 635.0 0 Fphoton 
 133.0  638.75 moveto 
(z)   show
 201.093276776 606.191702015 155.0 635.0 Ffermion 
 180.046638388  623.595851008 moveto 
(ta+)   show
 209.093276776  601.191702015 moveto 
(5)   show
 155.0 635.0 195.0 672.5 Ffermion 
 157.0  662.75 moveto 
(ta-)   show
 275.0 660.0 235.0 685.0 Ffermion 
 257.0  675.5 moveto 
(e+)   show
 283.0  655.0 moveto 
(3)   show
 235.0 685.0 275.0 710 Ffermion 
 243.0  703.5 moveto 
(e-)   show
 283.0  715.0 moveto 
(4)   show
 195.0 672.5 235.0 685.0 0 Fphoton 
 209.0  681.75 moveto 
(z)   show
 195.0 672.5 236.551909691 640.037570554 Ffermion 
 217.775954846  659.268785277 moveto 
(ta-)   show
 244.551909691  633.787570554 moveto 
(6)   show
 115.0  534.5 moveto 
( diagram 7 )   show
 195.0  534.5 moveto 
 (QCD=0, QED=4)   show
 350 710 390.0 635.0 Ffermion 
 372.0  675.5 moveto 
(e-)   show
 342.0  710 moveto 
(2)   show
 390.0 635.0 350 560 Ffermion 
 358.0  603.5 moveto 
(e+)   show
 342.0  560 moveto 
(1)   show
 430.0 635.0 390.0 635.0 0 Fphoton 
 408.0  638.75 moveto 
(z)   show
 430.0 635.0 476.093276776 606.191702015 Ffermion 
 455.046638388  623.595851008 moveto 
(ta-)   show
 484.093276776  601.191702015 moveto 
(6)   show
 470.0 672.5 430.0 635.0 Ffermion 
 432.0  662.75 moveto 
(ta+)   show
 550.0 660.0 510.0 685.0 Ffermion 
 532.0  675.5 moveto 
(e+)   show
 558.0  655.0 moveto 
(3)   show
 510.0 685.0 550.0 710 Ffermion 
 518.0  703.5 moveto 
(e-)   show
 558.0  715.0 moveto 
(4)   show
 470.0 672.5 510.0 685.0 0 Fphoton 
 484.0  681.75 moveto 
(z)   show
 511.551909691 640.037570554 470.0 672.5 Ffermion 
 492.775954846  659.268785277 moveto 
(ta+)   show
 519.551909691  633.787570554 moveto 
(5)   show
 390.0  534.5 moveto 
( diagram 8 )   show
 470.0  534.5 moveto 
 (QCD=0, QED=4)   show
 75 490 125.0 415.0 Ffermion 
 102.0  455.5 moveto 
(e-)   show
 67.0  490 moveto 
(2)   show
 125.0 415.0 75 340 Ffermion 
 88.0  383.5 moveto 
(e+)   show
 67.0  340 moveto 
(1)   show
 175.0 415.0 125.0 415.0 0 Fphoton 
 148.0  418.75 moveto 
(z)   show
 275.0 340 225.0 377.5 Ffermion 
 252.0  361.75 moveto 
(e+)   show
 283.0  334.0 moveto 
(3)   show
 225.0 377.5 275.0 390.0 Ffermion 
 238.0  389.75 moveto 
(e-)   show
 283.0  392.0 moveto 
(4)   show
 175.0 415.0 225.0 377.5 0 Fphoton 
 202.0  399.25 moveto 
(z)   show
 275.0 440.0 225.0 452.5 Ffermion 
 252.0  449.25 moveto 
(ta+)   show
 283.0  438.0 moveto 
(5)   show
 225.0 452.5 275.0 490 Ffermion 
 232.0  480.25 moveto 
(ta-)   show
 283.0  496.0 moveto 
(6)   show
 175.0 415.0 225.0 452.5 Fhiggs 
 194.0  436.75 moveto 
(h)   show
 115.0  314.5 moveto 
( diagram 9 )   show
 195.0  314.5 moveto 
 (QCD=0, QED=4)   show
 350 490 390.0 415.0 Ffermion 
 372.0  455.5 moveto 
(e-)   show
 342.0  490 moveto 
(2)   show
 390.0 415.0 350 340 Ffermion 
 358.0  383.5 moveto 
(e+)   show
 342.0  340 moveto 
(1)   show
 430.0 415.0 390.0 415.0 0 Fphoton 
 408.0  418.75 moveto 
(a)   show
 476.093276776 386.191702015 430.0 415.0 Ffermion 
 455.046638388  403.595851008 moveto 
(e+)   show
 484.093276776  381.191702015 moveto 
(3)   show
 430.0 415.0 470.0 452.5 Ffermion 
 438.0  439.75 moveto 
(e-)   show
 550.0 440.0 510.0 465.0 Ffermion 
 532.0  455.5 moveto 
(ta+)   show
 558.0  435.0 moveto 
(5)   show
 510.0 465.0 550.0 490 Ffermion 
 512.0  486.5 moveto 
(ta-)   show
 558.0  495.0 moveto 
(6)   show
 470.0 452.5 510.0 465.0 0 Fphoton 
 484.0  461.75 moveto 
(a)   show
 470.0 452.5 511.551909691 420.037570554 Ffermion 
 492.775954846  439.268785277 moveto 
(e-)   show
 519.551909691  413.787570554 moveto 
(4)   show
 390.0  314.5 moveto 
( diagram 10 )   show
 470.0  314.5 moveto 
 (QCD=0, QED=4)   show
 75 270 115.0 195.0 Ffermion 
 97.0  235.5 moveto 
(e-)   show
 67.0  270 moveto 
(2)   show
 115.0 195.0 75 120 Ffermion 
 83.0  163.5 moveto 
(e+)   show
 67.0  120 moveto 
(1)   show
 155.0 195.0 115.0 195.0 0 Fphoton 
 133.0  198.75 moveto 
(a)   show
 155.0 195.0 201.093276776 166.191702015 Ffermion 
 180.046638388  183.595851008 moveto 
(e-)   show
 209.093276776  161.191702015 moveto 
(4)   show
 195.0 232.5 155.0 195.0 Ffermion 
 163.0  219.75 moveto 
(e+)   show
 275.0 220.0 235.0 245.0 Ffermion 
 257.0  235.5 moveto 
(ta+)   show
 283.0  215.0 moveto 
(5)   show
 235.0 245.0 275.0 270 Ffermion 
 237.0  266.5 moveto 
(ta-)   show
 283.0  275.0 moveto 
(6)   show
 195.0 232.5 235.0 245.0 0 Fphoton 
 209.0  241.75 moveto 
(a)   show
 236.551909691 200.037570554 195.0 232.5 Ffermion 
 217.775954846  219.268785277 moveto 
(e+)   show
 244.551909691  193.787570554 moveto 
(3)   show
 115.0  94.5 moveto 
( diagram 11 )   show
 195.0  94.5 moveto 
 (QCD=0, QED=4)   show
 350 270 390.0 195.0 Ffermion 
 372.0  235.5 moveto 
(e-)   show
 342.0  270 moveto 
(2)   show
 390.0 195.0 350 120 Ffermion 
 358.0  163.5 moveto 
(e+)   show
 342.0  120 moveto 
(1)   show
 430.0 195.0 390.0 195.0 0 Fphoton 
 408.0  198.75 moveto 
(a)   show
 476.093276776 166.191702015 430.0 195.0 Ffermion 
 455.046638388  183.595851008 moveto 
(e+)   show
 484.093276776  161.191702015 moveto 
(3)   show
 430.0 195.0 470.0 232.5 Ffermion 
 438.0  219.75 moveto 
(e-)   show
 550.0 220.0 510.0 245.0 Ffermion 
 532.0  235.5 moveto 
(ta+)   show
 558.0  215.0 moveto 
(5)   show
 510.0 245.0 550.0 270 Ffermion 
 512.0  266.5 moveto 
(ta-)   show
 558.0  275.0 moveto 
(6)   show
 470.0 232.5 510.0 245.0 0 Fphoton 
 484.0  241.75 moveto 
(z)   show
 470.0 232.5 511.551909691 200.037570554 Ffermion 
 492.775954846  219.268785277 moveto 
(e-)   show
 519.551909691  193.787570554 moveto 
(4)   show
 390.0  94.5 moveto 
( diagram 12 )   show
 470.0  94.5 moveto 
 (QCD=0, QED=4)   show
showpage
%%Page: 3 3 
%%PageBoundingBox:-20 -20 600 800
%%PageFonts: Helvetica
/Helvetica findfont 9 scalefont setfont
 50         770  moveto
 () show
 525         770  moveto
 (page 3/7) show
 260         40  moveto
 (Diagrams made by MadGraph5_aMC@NLO) show
 75 710 115.0 635.0 Ffermion 
 97.0  675.5 moveto 
(e-)   show
 67.0  710 moveto 
(2)   show
 115.0 635.0 75 560 Ffermion 
 83.0  603.5 moveto 
(e+)   show
 67.0  560 moveto 
(1)   show
 155.0 635.0 115.0 635.0 0 Fphoton 
 133.0  638.75 moveto 
(a)   show
 155.0 635.0 201.093276776 606.191702015 Ffermion 
 180.046638388  623.595851008 moveto 
(e-)   show
 209.093276776  601.191702015 moveto 
(4)   show
 195.0 672.5 155.0 635.0 Ffermion 
 163.0  659.75 moveto 
(e+)   show
 275.0 660.0 235.0 685.0 Ffermion 
 257.0  675.5 moveto 
(ta+)   show
 283.0  655.0 moveto 
(5)   show
 235.0 685.0 275.0 710 Ffermion 
 237.0  706.5 moveto 
(ta-)   show
 283.0  715.0 moveto 
(6)   show
 195.0 672.5 235.0 685.0 0 Fphoton 
 209.0  681.75 moveto 
(z)   show
 236.551909691 640.037570554 195.0 672.5 Ffermion 
 217.775954846  659.268785277 moveto 
(e+)   show
 244.551909691  633.787570554 moveto 
(3)   show
 115.0  534.5 moveto 
( diagram 13 )   show
 195.0  534.5 moveto 
 (QCD=0, QED=4)   show
 350 710 390.0 635.0 Ffermion 
 372.0  675.5 moveto 
(e-)   show
 342.0  710 moveto 
(2)   show
 390.0 635.0 350 560 Ffermion 
 358.0  603.5 moveto 
(e+)   show
 342.0  560 moveto 
(1)   show
 430.0 635.0 390.0 635.0 0 Fphoton 
 408.0  638.75 moveto 
(z)   show
 476.093276776 606.191702015 430.0 635.0 Ffermion 
 455.046638388  623.595851008 moveto 
(e+)   show
 484.093276776  601.191702015 moveto 
(3)   show
 430.0 635.0 470.0 672.5 Ffermion 
 438.0  659.75 moveto 
(e-)   show
 550.0 660.0 510.0 685.0 Ffermion 
 532.0  675.5 moveto 
(ta+)   show
 558.0  655.0 moveto 
(5)   show
 510.0 685.0 550.0 710 Ffermion 
 512.0  706.5 moveto 
(ta-)   show
 558.0  715.0 moveto 
(6)   show
 470.0 672.5 510.0 685.0 0 Fphoton 
 484.0  681.75 moveto 
(a)   show
 470.0 672.5 511.551909691 640.037570554 Ffermion 
 492.775954846  659.268785277 moveto 
(e-)   show
 519.551909691  633.787570554 moveto 
(4)   show
 390.0  534.5 moveto 
( diagram 14 )   show
 470.0  534.5 moveto 
 (QCD=0, QED=4)   show
 75 490 115.0 415.0 Ffermion 
 97.0  455.5 moveto 
(e-)   show
 67.0  490 moveto 
(2)   show
 115.0 415.0 75 340 Ffermion 
 83.0  383.5 moveto 
(e+)   show
 67.0  340 moveto 
(1)   show
 155.0 415.0 115.0 415.0 0 Fphoton 
 133.0  418.75 moveto 
(z)   show
 155.0 415.0 201.093276776 386.191702015 Ffermion 
 180.046638388  403.595851008 moveto 
(e-)   show
 209.093276776  381.191702015 moveto 
(4)   show
 195.0 452.5 155.0 415.0 Ffermion 
 163.0  439.75 moveto 
(e+)   show
 275.0 440.0 235.0 465.0 Ffermion 
 257.0  455.5 moveto 
(ta+)   show
 283.0  435.0 moveto 
(5)   show
 235.0 465.0 275.0 490 Ffermion 
 237.0  486.5 moveto 
(ta-)   show
 283.0  495.0 moveto 
(6)   show
 195.0 452.5 235.0 465.0 0 Fphoton 
 209.0  461.75 moveto 
(a)   show
 236.551909691 420.037570554 195.0 452.5 Ffermion 
 217.775954846  439.268785277 moveto 
(e+)   show
 244.551909691  413.787570554 moveto 
(3)   show
 115.0  314.5 moveto 
( diagram 15 )   show
 195.0  314.5 moveto 
 (QCD=0, QED=4)   show
 350 490 390.0 415.0 Ffermion 
 372.0  455.5 moveto 
(e-)   show
 342.0  490 moveto 
(2)   show
 390.0 415.0 350 340 Ffermion 
 358.0  383.5 moveto 
(e+)   show
 342.0  340 moveto 
(1)   show
 430.0 415.0 390.0 415.0 0 Fphoton 
 408.0  418.75 moveto 
(z)   show
 476.093276776 386.191702015 430.0 415.0 Ffermion 
 455.046638388  403.595851008 moveto 
(e+)   show
 484.093276776  381.191702015 moveto 
(3)   show
 430.0 415.0 470.0 452.5 Ffermion 
 438.0  439.75 moveto 
(e-)   show
 550.0 440.0 510.0 465.0 Ffermion 
 532.0  455.5 moveto 
(ta+)   show
 558.0  435.0 moveto 
(5)   show
 510.0 465.0 550.0 490 Ffermion 
 512.0  486.5 moveto 
(ta-)   show
 558.0  495.0 moveto 
(6)   show
 470.0 452.5 510.0 465.0 0 Fphoton 
 484.0  461.75 moveto 
(z)   show
 470.0 452.5 511.551909691 420.037570554 Ffermion 
 492.775954846  439.268785277 moveto 
(e-)   show
 519.551909691  413.787570554 moveto 
(4)   show
 390.0  314.5 moveto 
( diagram 16 )   show
 470.0  314.5 moveto 
 (QCD=0, QED=4)   show
 75 270 115.0 195.0 Ffermion 
 97.0  235.5 moveto 
(e-)   show
 67.0  270 moveto 
(2)   show
 115.0 195.0 75 120 Ffermion 
 83.0  163.5 moveto 
(e+)   show
 67.0  120 moveto 
(1)   show
 155.0 195.0 115.0 195.0 0 Fphoton 
 133.0  198.75 moveto 
(z)   show
 155.0 195.0 201.093276776 166.191702015 Ffermion 
 180.046638388  183.595851008 moveto 
(e-)   show
 209.093276776  161.191702015 moveto 
(4)   show
 195.0 232.5 155.0 195.0 Ffermion 
 163.0  219.75 moveto 
(e+)   show
 275.0 220.0 235.0 245.0 Ffermion 
 257.0  235.5 moveto 
(ta+)   show
 283.0  215.0 moveto 
(5)   show
 235.0 245.0 275.0 270 Ffermion 
 237.0  266.5 moveto 
(ta-)   show
 283.0  275.0 moveto 
(6)   show
 195.0 232.5 235.0 245.0 0 Fphoton 
 209.0  241.75 moveto 
(z)   show
 236.551909691 200.037570554 195.0 232.5 Ffermion 
 217.775954846  219.268785277 moveto 
(e+)   show
 244.551909691  193.787570554 moveto 
(3)   show
 115.0  94.5 moveto 
( diagram 17 )   show
 195.0  94.5 moveto 
 (QCD=0, QED=4)   show
 550.0 120 450.0 138.75 Ffermion 
 502.0  132.375 moveto 
(e+)   show
 558.0  118.5 moveto 
(3)   show
 450.0 138.75 350 120 Ffermion 
 388.0  135.375 moveto 
(e+)   show
 342.0  120 moveto 
(1)   show
 450.0 138.75 450.0 176.25 0 Fphoton 
 453.0  156.0 moveto 
(a)   show
 550.0 170.0 450.0 176.25 Ffermion 
 502.0  176.125 moveto 
(ta+)   show
 558.0  169.5 moveto 
(5)   show
 450.0 176.25 450.0 213.75 Ffermion 
 453.0  193.5 moveto 
(ta-)   show
 350 270 450.0 251.25 Ffermion 
 402.0  263.625 moveto 
(e-)   show
 342.0  270 moveto 
(2)   show
 450.0 251.25 550.0 270 Ffermion 
 488.0  266.625 moveto 
(e-)   show
 558.0  271.5 moveto 
(4)   show
 450.0 213.75 450.0 251.25 0 Fphoton 
 453.0  231.0 moveto 
(a)   show
 450.0 213.75 550.0 220.0 Ffermion 
 482.0  225.875 moveto 
(ta-)   show
 558.0  220.5 moveto 
(6)   show
 390.0  94.5 moveto 
( diagram 18 )   show
 470.0  94.5 moveto 
 (QCD=0, QED=4)   show
showpage
%%Page: 4 4 
%%PageBoundingBox:-20 -20 600 800
%%PageFonts: Helvetica
/Helvetica findfont 9 scalefont setfont
 50         770  moveto
 () show
 525         770  moveto
 (page 4/7) show
 260         40  moveto
 (Diagrams made by MadGraph5_aMC@NLO) show
 275.0 560 175.0 578.75 Ffermion 
 227.0  572.375 moveto 
(e+)   show
 283.0  558.5 moveto 
(3)   show
 175.0 578.75 75 560 Ffermion 
 113.0  575.375 moveto 
(e+)   show
 67.0  560 moveto 
(1)   show
 175.0 578.75 175.0 616.25 0 Fphoton 
 178.0  596.0 moveto 
(a)   show
 175.0 616.25 275.0 610.0 Ffermion 
 227.0  616.125 moveto 
(ta-)   show
 283.0  609.5 moveto 
(6)   show
 175.0 653.75 175.0 616.25 Ffermion 
 178.0  633.5 moveto 
(ta+)   show
 75 710 175.0 691.25 Ffermion 
 127.0  703.625 moveto 
(e-)   show
 67.0  710 moveto 
(2)   show
 175.0 691.25 275.0 710 Ffermion 
 213.0  706.625 moveto 
(e-)   show
 283.0  711.5 moveto 
(4)   show
 175.0 653.75 175.0 691.25 0 Fphoton 
 178.0  671.0 moveto 
(a)   show
 275.0 660.0 175.0 653.75 Ffermion 
 207.0  665.875 moveto 
(ta+)   show
 283.0  660.5 moveto 
(5)   show
 115.0  534.5 moveto 
( diagram 19 )   show
 195.0  534.5 moveto 
 (QCD=0, QED=4)   show
 550.0 560 450.0 578.75 Ffermion 
 502.0  572.375 moveto 
(e+)   show
 558.0  558.5 moveto 
(3)   show
 450.0 578.75 350 560 Ffermion 
 388.0  575.375 moveto 
(e+)   show
 342.0  560 moveto 
(1)   show
 450.0 578.75 450.0 616.25 0 Fphoton 
 453.0  596.0 moveto 
(a)   show
 550.0 610.0 450.0 616.25 Ffermion 
 502.0  616.125 moveto 
(ta+)   show
 558.0  609.5 moveto 
(5)   show
 450.0 616.25 450.0 653.75 Ffermion 
 453.0  633.5 moveto 
(ta-)   show
 350 710 450.0 691.25 Ffermion 
 402.0  703.625 moveto 
(e-)   show
 342.0  710 moveto 
(2)   show
 450.0 691.25 550.0 710 Ffermion 
 488.0  706.625 moveto 
(e-)   show
 558.0  711.5 moveto 
(4)   show
 450.0 653.75 450.0 691.25 0 Fphoton 
 453.0  671.0 moveto 
(z)   show
 450.0 653.75 550.0 660.0 Ffermion 
 482.0  665.875 moveto 
(ta-)   show
 558.0  660.5 moveto 
(6)   show
 390.0  534.5 moveto 
( diagram 20 )   show
 470.0  534.5 moveto 
 (QCD=0, QED=4)   show
 275.0 340 175.0 358.75 Ffermion 
 227.0  352.375 moveto 
(e+)   show
 283.0  338.5 moveto 
(3)   show
 175.0 358.75 75 340 Ffermion 
 113.0  355.375 moveto 
(e+)   show
 67.0  340 moveto 
(1)   show
 175.0 358.75 175.0 396.25 0 Fphoton 
 178.0  376.0 moveto 
(a)   show
 175.0 396.25 275.0 390.0 Ffermion 
 227.0  396.125 moveto 
(ta-)   show
 283.0  389.5 moveto 
(6)   show
 175.0 433.75 175.0 396.25 Ffermion 
 178.0  413.5 moveto 
(ta+)   show
 75 490 175.0 471.25 Ffermion 
 127.0  483.625 moveto 
(e-)   show
 67.0  490 moveto 
(2)   show
 175.0 471.25 275.0 490 Ffermion 
 213.0  486.625 moveto 
(e-)   show
 283.0  491.5 moveto 
(4)   show
 175.0 433.75 175.0 471.25 0 Fphoton 
 178.0  451.0 moveto 
(z)   show
 275.0 440.0 175.0 433.75 Ffermion 
 207.0  445.875 moveto 
(ta+)   show
 283.0  440.5 moveto 
(5)   show
 115.0  314.5 moveto 
( diagram 21 )   show
 195.0  314.5 moveto 
 (QCD=0, QED=4)   show
 550.0 340 450.0 358.75 Ffermion 
 502.0  352.375 moveto 
(e+)   show
 558.0  338.5 moveto 
(3)   show
 450.0 358.75 350 340 Ffermion 
 388.0  355.375 moveto 
(e+)   show
 342.0  340 moveto 
(1)   show
 450.0 358.75 450.0 396.25 0 Fphoton 
 453.0  376.0 moveto 
(z)   show
 550.0 390.0 450.0 396.25 Ffermion 
 502.0  396.125 moveto 
(ta+)   show
 558.0  389.5 moveto 
(5)   show
 450.0 396.25 450.0 433.75 Ffermion 
 453.0  413.5 moveto 
(ta-)   show
 350 490 450.0 471.25 Ffermion 
 402.0  483.625 moveto 
(e-)   show
 342.0  490 moveto 
(2)   show
 450.0 471.25 550.0 490 Ffermion 
 488.0  486.625 moveto 
(e-)   show
 558.0  491.5 moveto 
(4)   show
 450.0 433.75 450.0 471.25 0 Fphoton 
 453.0  451.0 moveto 
(a)   show
 450.0 433.75 550.0 440.0 Ffermion 
 482.0  445.875 moveto 
(ta-)   show
 558.0  440.5 moveto 
(6)   show
 390.0  314.5 moveto 
( diagram 22 )   show
 470.0  314.5 moveto 
 (QCD=0, QED=4)   show
 275.0 120 175.0 138.75 Ffermion 
 227.0  132.375 moveto 
(e+)   show
 283.0  118.5 moveto 
(3)   show
 175.0 138.75 75 120 Ffermion 
 113.0  135.375 moveto 
(e+)   show
 67.0  120 moveto 
(1)   show
 175.0 138.75 175.0 176.25 0 Fphoton 
 178.0  156.0 moveto 
(z)   show
 175.0 176.25 275.0 170.0 Ffermion 
 227.0  176.125 moveto 
(ta-)   show
 283.0  169.5 moveto 
(6)   show
 175.0 213.75 175.0 176.25 Ffermion 
 178.0  193.5 moveto 
(ta+)   show
 75 270 175.0 251.25 Ffermion 
 127.0  263.625 moveto 
(e-)   show
 67.0  270 moveto 
(2)   show
 175.0 251.25 275.0 270 Ffermion 
 213.0  266.625 moveto 
(e-)   show
 283.0  271.5 moveto 
(4)   show
 175.0 213.75 175.0 251.25 0 Fphoton 
 178.0  231.0 moveto 
(a)   show
 275.0 220.0 175.0 213.75 Ffermion 
 207.0  225.875 moveto 
(ta+)   show
 283.0  220.5 moveto 
(5)   show
 115.0  94.5 moveto 
( diagram 23 )   show
 195.0  94.5 moveto 
 (QCD=0, QED=4)   show
 550.0 120 450.0 138.75 Ffermion 
 502.0  132.375 moveto 
(e+)   show
 558.0  118.5 moveto 
(3)   show
 450.0 138.75 350 120 Ffermion 
 388.0  135.375 moveto 
(e+)   show
 342.0  120 moveto 
(1)   show
 450.0 138.75 450.0 176.25 0 Fphoton 
 453.0  156.0 moveto 
(z)   show
 550.0 170.0 450.0 176.25 Ffermion 
 502.0  176.125 moveto 
(ta+)   show
 558.0  169.5 moveto 
(5)   show
 450.0 176.25 450.0 213.75 Ffermion 
 453.0  193.5 moveto 
(ta-)   show
 350 270 450.0 251.25 Ffermion 
 402.0  263.625 moveto 
(e-)   show
 342.0  270 moveto 
(2)   show
 450.0 251.25 550.0 270 Ffermion 
 488.0  266.625 moveto 
(e-)   show
 558.0  271.5 moveto 
(4)   show
 450.0 213.75 450.0 251.25 0 Fphoton 
 453.0  231.0 moveto 
(z)   show
 450.0 213.75 550.0 220.0 Ffermion 
 482.0  225.875 moveto 
(ta-)   show
 558.0  220.5 moveto 
(6)   show
 390.0  94.5 moveto 
( diagram 24 )   show
 470.0  94.5 moveto 
 (QCD=0, QED=4)   show
showpage
%%Page: 5 5 
%%PageBoundingBox:-20 -20 600 800
%%PageFonts: Helvetica
/Helvetica findfont 9 scalefont setfont
 50         770  moveto
 () show
 525         770  moveto
 (page 5/7) show
 260         40  moveto
 (Diagrams made by MadGraph5_aMC@NLO) show
 275.0 560 175.0 578.75 Ffermion 
 227.0  572.375 moveto 
(e+)   show
 283.0  558.5 moveto 
(3)   show
 175.0 578.75 75 560 Ffermion 
 113.0  575.375 moveto 
(e+)   show
 67.0  560 moveto 
(1)   show
 175.0 578.75 175.0 616.25 0 Fphoton 
 178.0  596.0 moveto 
(z)   show
 175.0 616.25 275.0 610.0 Ffermion 
 227.0  616.125 moveto 
(ta-)   show
 283.0  609.5 moveto 
(6)   show
 175.0 653.75 175.0 616.25 Ffermion 
 178.0  633.5 moveto 
(ta+)   show
 75 710 175.0 691.25 Ffermion 
 127.0  703.625 moveto 
(e-)   show
 67.0  710 moveto 
(2)   show
 175.0 691.25 275.0 710 Ffermion 
 213.0  706.625 moveto 
(e-)   show
 283.0  711.5 moveto 
(4)   show
 175.0 653.75 175.0 691.25 0 Fphoton 
 178.0  671.0 moveto 
(z)   show
 275.0 660.0 175.0 653.75 Ffermion 
 207.0  665.875 moveto 
(ta+)   show
 283.0  660.5 moveto 
(5)   show
 115.0  534.5 moveto 
( diagram 25 )   show
 195.0  534.5 moveto 
 (QCD=0, QED=4)   show
 513.680916681 566.809828122 416.666666667 585.0 Ffermion 
 467.173791674  578.904914061 moveto 
(e+)   show
 521.680916681  565.309828122 moveto 
(3)   show
 416.666666667 585.0 350 560 Ffermion 
 371.333333333  578.5 moveto 
(e+)   show
 342.0  560 moveto 
(1)   show
 416.666666667 585.0 416.666666667 635.0 0 Fphoton 
 419.666666667  608.5 moveto 
(z)   show
 350 710 416.666666667 685.0 Ffermion 
 385.333333333  700.5 moveto 
(e-)   show
 342.0  710 moveto 
(2)   show
 416.666666667 685.0 513.680916681 703.190171878 Ffermion 
 453.173791674  700.095085939 moveto 
(e-)   show
 521.680916681  704.690171878 moveto 
(4)   show
 416.666666667 635.0 416.666666667 685.0 0 Fphoton 
 419.666666667  658.5 moveto 
(z)   show
 550.0 610.0 483.333333333 635.0 Ffermion 
 518.666666667  625.5 moveto 
(ta+)   show
 558.0  607.0 moveto 
(5)   show
 483.333333333 635.0 550.0 660.0 Ffermion 
 498.666666667  656.5 moveto 
(ta-)   show
 558.0  663.0 moveto 
(6)   show
 416.666666667 635.0 483.333333333 635.0 Fhiggs 
 448.0  638.75 moveto 
(h)   show
 390.0  534.5 moveto 
( diagram 26 )   show
 470.0  534.5 moveto 
 (QCD=0, QED=4)   show
 196.151247354 359.712188162 125.0 377.5 Ffermion 
 162.575623677  371.606094081 moveto 
(e+)   show
 204.151247354  357.712188162 moveto 
(3)   show
 125.0 377.5 75 340 Ffermion 
 88.0  364.75 moveto 
(e+)   show
 67.0  340 moveto 
(1)   show
 125.0 377.5 125.0 452.5 0 Fphoton 
 128.0  413.5 moveto 
(a)   show
 75 490 125.0 452.5 Ffermion 
 102.0  474.25 moveto 
(e-)   show
 67.0  490 moveto 
(2)   show
 125.0 452.5 175.0 452.5 Ffermion 
 148.0  456.25 moveto 
(e-)   show
 275.0 440.0 225.0 465.0 Ffermion 
 252.0  455.5 moveto 
(ta+)   show
 283.0  436.0 moveto 
(5)   show
 225.0 465.0 275.0 490 Ffermion 
 232.0  486.5 moveto 
(ta-)   show
 283.0  494.0 moveto 
(6)   show
 175.0 452.5 225.0 465.0 0 Fphoton 
 194.0  461.75 moveto 
(a)   show
 175.0 452.5 232.61659597 416.489627519 Ffermion 
 205.808297985  437.494813759 moveto 
(e-)   show
 240.61659597  411.489627519 moveto 
(4)   show
 115.0  314.5 moveto 
( diagram 27 )   show
 195.0  314.5 moveto 
 (QCD=0, QED=4)   show
 513.680916681 346.809828122 416.666666667 365.0 Ffermion 
 467.173791674  358.904914061 moveto 
(e+)   show
 521.680916681  345.309828122 moveto 
(3)   show
 416.666666667 365.0 350 340 Ffermion 
 371.333333333  358.5 moveto 
(e+)   show
 342.0  340 moveto 
(1)   show
 416.666666667 365.0 416.666666667 415.0 0 Fphoton 
 419.666666667  388.5 moveto 
(a)   show
 416.666666667 415.0 513.680916681 396.809828122 Ffermion 
 467.173791674  408.904914061 moveto 
(e-)   show
 521.680916681  395.309828122 moveto 
(4)   show
 416.666666667 465.0 416.666666667 415.0 Ffermion 
 419.666666667  438.5 moveto 
(e+)   show
 550.0 440.0 483.333333333 465.0 Ffermion 
 518.666666667  455.5 moveto 
(ta+)   show
 558.0  437.0 moveto 
(5)   show
 483.333333333 465.0 550.0 490 Ffermion 
 498.666666667  486.5 moveto 
(ta-)   show
 558.0  493.0 moveto 
(6)   show
 416.666666667 465.0 483.333333333 465.0 0 Fphoton 
 448.0  468.75 moveto 
(a)   show
 350 490 416.666666667 465.0 Ffermion 
 385.333333333  480.5 moveto 
(e-)   show
 342.0  490 moveto 
(2)   show
 390.0  314.5 moveto 
( diagram 28 )   show
 470.0  314.5 moveto 
 (QCD=0, QED=4)   show
 196.151247354 139.712188162 125.0 157.5 Ffermion 
 162.575623677  151.606094081 moveto 
(e+)   show
 204.151247354  137.712188162 moveto 
(3)   show
 125.0 157.5 75 120 Ffermion 
 88.0  144.75 moveto 
(e+)   show
 67.0  120 moveto 
(1)   show
 125.0 157.5 125.0 232.5 0 Fphoton 
 128.0  193.5 moveto 
(a)   show
 75 270 125.0 232.5 Ffermion 
 102.0  254.25 moveto 
(e-)   show
 67.0  270 moveto 
(2)   show
 125.0 232.5 175.0 232.5 Ffermion 
 148.0  236.25 moveto 
(e-)   show
 275.0 220.0 225.0 245.0 Ffermion 
 252.0  235.5 moveto 
(ta+)   show
 283.0  216.0 moveto 
(5)   show
 225.0 245.0 275.0 270 Ffermion 
 232.0  266.5 moveto 
(ta-)   show
 283.0  274.0 moveto 
(6)   show
 175.0 232.5 225.0 245.0 0 Fphoton 
 194.0  241.75 moveto 
(z)   show
 175.0 232.5 232.61659597 196.489627519 Ffermion 
 205.808297985  217.494813759 moveto 
(e-)   show
 240.61659597  191.489627519 moveto 
(4)   show
 115.0  94.5 moveto 
( diagram 29 )   show
 195.0  94.5 moveto 
 (QCD=0, QED=4)   show
 513.680916681 126.809828122 416.666666667 145.0 Ffermion 
 467.173791674  138.904914061 moveto 
(e+)   show
 521.680916681  125.309828122 moveto 
(3)   show
 416.666666667 145.0 350 120 Ffermion 
 371.333333333  138.5 moveto 
(e+)   show
 342.0  120 moveto 
(1)   show
 416.666666667 145.0 416.666666667 195.0 0 Fphoton 
 419.666666667  168.5 moveto 
(a)   show
 416.666666667 195.0 513.680916681 176.809828122 Ffermion 
 467.173791674  188.904914061 moveto 
(e-)   show
 521.680916681  175.309828122 moveto 
(4)   show
 416.666666667 245.0 416.666666667 195.0 Ffermion 
 419.666666667  218.5 moveto 
(e+)   show
 550.0 220.0 483.333333333 245.0 Ffermion 
 518.666666667  235.5 moveto 
(ta+)   show
 558.0  217.0 moveto 
(5)   show
 483.333333333 245.0 550.0 270 Ffermion 
 498.666666667  266.5 moveto 
(ta-)   show
 558.0  273.0 moveto 
(6)   show
 416.666666667 245.0 483.333333333 245.0 0 Fphoton 
 448.0  248.75 moveto 
(z)   show
 350 270 416.666666667 245.0 Ffermion 
 385.333333333  260.5 moveto 
(e-)   show
 342.0  270 moveto 
(2)   show
 390.0  94.5 moveto 
( diagram 30 )   show
 470.0  94.5 moveto 
 (QCD=0, QED=4)   show
showpage
%%Page: 6 6 
%%PageBoundingBox:-20 -20 600 800
%%PageFonts: Helvetica
/Helvetica findfont 6 scalefont setfont
 50         770  moveto
 () show
 525         770  moveto
 (page 6/7) show
 260         40  moveto
 (Diagrams made by MadGraph5_aMC@NLO) show
 130.863435515 633.141458774 77.5 645.0 Ffermion 
 105.681717758  641.070729387 moveto 
(e+)   show
 136.863435515  631.808125441 moveto 
(3)   show
 77.5 645.0 40 620 Ffermion 
 49.75  636.5 moveto 
(e+)   show
 34.0  620 moveto 
(1)   show
 77.5 645.0 77.5 695.0 0 Fphoton 
 79.75  669.0 moveto 
(z)   show
 40 720 77.5 695.0 Ffermion 
 60.25  709.5 moveto 
(e-)   show
 34.0  720 moveto 
(2)   show
 77.5 695.0 115.0 695.0 Ffermion 
 94.75  697.5 moveto 
(e-)   show
 190.0 686.666666667 152.5 703.333333333 Ffermion 
 172.75  697.0 moveto 
(ta+)   show
 196.0  684.0 moveto 
(5)   show
 152.5 703.333333333 190.0 720 Ffermion 
 157.75  717.666666667 moveto 
(ta-)   show
 196.0  722.666666667 moveto 
(6)   show
 115.0 695.0 152.5 703.333333333 0 Fphoton 
 129.25  701.166666667 moveto 
(a)   show
 115.0 695.0 158.212446977 670.993085013 Ffermion 
 138.106223489  684.996542506 moveto 
(e-)   show
 164.212446977  667.659751679 moveto 
(4)   show
 70.0  603.0 moveto 
( diagram 31 )   show
 130.0  603.0 moveto 
 (QCD=0, QED=4)   show
 354.760687511 624.539885415 282.0 636.666666667 Ffermion 
 319.880343755  632.603276041 moveto 
(e+)   show
 360.760687511  623.539885415 moveto 
(3)   show
 282.0 636.666666667 232 620 Ffermion 
 248.0  632.333333333 moveto 
(e+)   show
 226.0  620 moveto 
(1)   show
 282.0 636.666666667 282.0 670.0 0 Fphoton 
 284.25  652.333333333 moveto 
(z)   show
 282.0 670.0 354.760687511 657.873218748 Ffermion 
 319.880343755  665.936609374 moveto 
(e-)   show
 360.760687511  656.873218748 moveto 
(4)   show
 282.0 703.333333333 282.0 670.0 Ffermion 
 284.25  685.666666667 moveto 
(e+)   show
 382.0 686.666666667 332.0 703.333333333 Ffermion 
 358.5  697.0 moveto 
(ta+)   show
 388.0  684.666666667 moveto 
(5)   show
 332.0 703.333333333 382.0 720 Ffermion 
 343.5  717.666666667 moveto 
(ta-)   show
 388.0  722.0 moveto 
(6)   show
 282.0 703.333333333 332.0 703.333333333 0 Fphoton 
 305.5  705.833333333 moveto 
(a)   show
 232 720 282.0 703.333333333 Ffermion 
 258.5  713.666666667 moveto 
(e-)   show
 226.0  720 moveto 
(2)   show
 262.0  603.0 moveto 
( diagram 32 )   show
 322.0  603.0 moveto 
 (QCD=0, QED=4)   show
 514.863435515 633.141458774 461.5 645.0 Ffermion 
 489.681717758  641.070729387 moveto 
(e+)   show
 520.863435515  631.808125441 moveto 
(3)   show
 461.5 645.0 424 620 Ffermion 
 433.75  636.5 moveto 
(e+)   show
 418.0  620 moveto 
(1)   show
 461.5 645.0 461.5 695.0 0 Fphoton 
 463.75  669.0 moveto 
(z)   show
 424 720 461.5 695.0 Ffermion 
 444.25  709.5 moveto 
(e-)   show
 418.0  720 moveto 
(2)   show
 461.5 695.0 499.0 695.0 Ffermion 
 478.75  697.5 moveto 
(e-)   show
 574.0 686.666666667 536.5 703.333333333 Ffermion 
 556.75  697.0 moveto 
(ta+)   show
 580.0  684.0 moveto 
(5)   show
 536.5 703.333333333 574.0 720 Ffermion 
 541.75  717.666666667 moveto 
(ta-)   show
 580.0  722.666666667 moveto 
(6)   show
 499.0 695.0 536.5 703.333333333 0 Fphoton 
 513.25  701.166666667 moveto 
(z)   show
 499.0 695.0 542.212446977 670.993085013 Ffermion 
 522.106223489  684.996542506 moveto 
(e-)   show
 548.212446977  667.659751679 moveto 
(4)   show
 454.0  603.0 moveto 
( diagram 33 )   show
 514.0  603.0 moveto 
 (QCD=0, QED=4)   show
 162.760687511 494.539885415 90.0 506.666666667 Ffermion 
 127.880343755  502.603276041 moveto 
(e+)   show
 168.760687511  493.539885415 moveto 
(3)   show
 90.0 506.666666667 40 490 Ffermion 
 56.0  502.333333333 moveto 
(e+)   show
 34.0  490 moveto 
(1)   show
 90.0 506.666666667 90.0 540.0 0 Fphoton 
 92.25  522.333333333 moveto 
(z)   show
 90.0 540.0 162.760687511 527.873218748 Ffermion 
 127.880343755  535.936609374 moveto 
(e-)   show
 168.760687511  526.873218748 moveto 
(4)   show
 90.0 573.333333333 90.0 540.0 Ffermion 
 92.25  555.666666667 moveto 
(e+)   show
 190.0 556.666666667 140.0 573.333333333 Ffermion 
 166.5  567.0 moveto 
(ta+)   show
 196.0  554.666666667 moveto 
(5)   show
 140.0 573.333333333 190.0 590 Ffermion 
 151.5  587.666666667 moveto 
(ta-)   show
 196.0  592.0 moveto 
(6)   show
 90.0 573.333333333 140.0 573.333333333 0 Fphoton 
 113.5  575.833333333 moveto 
(z)   show
 40 590 90.0 573.333333333 Ffermion 
 66.5  583.666666667 moveto 
(e-)   show
 34.0  590 moveto 
(2)   show
 70.0  473.0 moveto 
( diagram 34 )   show
 130.0  473.0 moveto 
 (QCD=0, QED=4)   show
 232 590 269.5 565.0 Ffermion 
 252.25  579.5 moveto 
(e-)   show
 226.0  590 moveto 
(2)   show
 269.5 565.0 322.863435515 576.858541226 Ffermion 
 287.181717758  574.929270613 moveto 
(e-)   show
 328.863435515  578.191874559 moveto 
(4)   show
 269.5 515.0 269.5 565.0 0 Fphoton 
 271.75  539.0 moveto 
(a)   show
 269.5 515.0 232 490 Ffermion 
 241.75  506.5 moveto 
(e+)   show
 226.0  490 moveto 
(1)   show
 307.0 515.0 269.5 515.0 Ffermion 
 286.75  517.5 moveto 
(e+)   show
 382.0 523.333333333 344.5 540.0 Ffermion 
 364.75  533.666666667 moveto 
(ta+)   show
 388.0  520.666666667 moveto 
(5)   show
 344.5 540.0 382.0 556.666666667 Ffermion 
 349.75  554.333333333 moveto 
(ta-)   show
 388.0  559.333333333 moveto 
(6)   show
 307.0 515.0 344.5 540.0 0 Fphoton 
 321.25  529.5 moveto 
(a)   show
 357.311529494 498.229490169 307.0 515.0 Ffermion 
 333.655764747  508.614745084 moveto 
(e+)   show
 363.311529494  496.229490169 moveto 
(3)   show
 262.0  473.0 moveto 
( diagram 35 )   show
 322.0  473.0 moveto 
 (QCD=0, QED=4)   show
 574.0 490 524.0 506.666666667 Ffermion 
 550.5  500.333333333 moveto 
(ta+)   show
 580.0  488.0 moveto 
(5)   show
 524.0 506.666666667 574.0 523.333333333 Ffermion 
 535.5  521.0 moveto 
(ta-)   show
 580.0  525.333333333 moveto 
(6)   show
 474.0 506.666666667 524.0 506.666666667 0 Fphoton 
 497.5  509.166666667 moveto 
(a)   show
 474.0 506.666666667 424 490 Ffermion 
 440.0  502.333333333 moveto 
(e+)   show
 418.0  490 moveto 
(1)   show
 474.0 540.0 474.0 506.666666667 Ffermion 
 476.25  522.333333333 moveto 
(e+)   show
 424 590 474.0 573.333333333 Ffermion 
 450.5  583.666666667 moveto 
(e-)   show
 418.0  590 moveto 
(2)   show
 474.0 573.333333333 546.760687511 585.460114585 Ffermion 
 501.380343755  583.396723959 moveto 
(e-)   show
 552.760687511  586.460114585 moveto 
(4)   show
 474.0 540.0 474.0 573.333333333 0 Fphoton 
 476.25  555.666666667 moveto 
(a)   show
 546.760687511 552.126781252 474.0 540.0 Ffermion 
 501.380343755  550.063390626 moveto 
(e+)   show
 552.760687511  553.126781252 moveto 
(3)   show
 454.0  473.0 moveto 
( diagram 36 )   show
 514.0  473.0 moveto 
 (QCD=0, QED=4)   show
 40 460 77.5 435.0 Ffermion 
 60.25  449.5 moveto 
(e-)   show
 34.0  460 moveto 
(2)   show
 77.5 435.0 130.863435515 446.858541226 Ffermion 
 95.1817177577  444.929270613 moveto 
(e-)   show
 136.863435515  448.191874559 moveto 
(4)   show
 77.5 385.0 77.5 435.0 0 Fphoton 
 79.75  409.0 moveto 
(a)   show
 77.5 385.0 40 360 Ffermion 
 49.75  376.5 moveto 
(e+)   show
 34.0  360 moveto 
(1)   show
 115.0 385.0 77.5 385.0 Ffermion 
 94.75  387.5 moveto 
(e+)   show
 190.0 393.333333333 152.5 410.0 Ffermion 
 172.75  403.666666667 moveto 
(ta+)   show
 196.0  390.666666667 moveto 
(5)   show
 152.5 410.0 190.0 426.666666667 Ffermion 
 157.75  424.333333333 moveto 
(ta-)   show
 196.0  429.333333333 moveto 
(6)   show
 115.0 385.0 152.5 410.0 0 Fphoton 
 129.25  399.5 moveto 
(z)   show
 165.311529494 368.229490169 115.0 385.0 Ffermion 
 141.655764747  378.614745084 moveto 
(e+)   show
 171.311529494  366.229490169 moveto 
(3)   show
 70.0  343.0 moveto 
( diagram 37 )   show
 130.0  343.0 moveto 
 (QCD=0, QED=4)   show
 382.0 360 332.0 376.666666667 Ffermion 
 358.5  370.333333333 moveto 
(ta+)   show
 388.0  358.0 moveto 
(5)   show
 332.0 376.666666667 382.0 393.333333333 Ffermion 
 343.5  391.0 moveto 
(ta-)   show
 388.0  395.333333333 moveto 
(6)   show
 282.0 376.666666667 332.0 376.666666667 0 Fphoton 
 305.5  379.166666667 moveto 
(z)   show
 282.0 376.666666667 232 360 Ffermion 
 248.0  372.333333333 moveto 
(e+)   show
 226.0  360 moveto 
(1)   show
 282.0 410.0 282.0 376.666666667 Ffermion 
 284.25  392.333333333 moveto 
(e+)   show
 232 460 282.0 443.333333333 Ffermion 
 258.5  453.666666667 moveto 
(e-)   show
 226.0  460 moveto 
(2)   show
 282.0 443.333333333 354.760687511 455.460114585 Ffermion 
 309.380343755  453.396723959 moveto 
(e-)   show
 360.760687511  456.460114585 moveto 
(4)   show
 282.0 410.0 282.0 443.333333333 0 Fphoton 
 284.25  425.666666667 moveto 
(a)   show
 354.760687511 422.126781252 282.0 410.0 Ffermion 
 309.380343755  420.063390626 moveto 
(e+)   show
 360.760687511  423.126781252 moveto 
(3)   show
 262.0  343.0 moveto 
( diagram 38 )   show
 322.0  343.0 moveto 
 (QCD=0, QED=4)   show
 424 460 461.5 435.0 Ffermion 
 444.25  449.5 moveto 
(e-)   show
 418.0  460 moveto 
(2)   show
 461.5 435.0 514.863435515 446.858541226 Ffermion 
 479.181717758  444.929270613 moveto 
(e-)   show
 520.863435515  448.191874559 moveto 
(4)   show
 461.5 385.0 461.5 435.0 0 Fphoton 
 463.75  409.0 moveto 
(z)   show
 461.5 385.0 424 360 Ffermion 
 433.75  376.5 moveto 
(e+)   show
 418.0  360 moveto 
(1)   show
 499.0 385.0 461.5 385.0 Ffermion 
 478.75  387.5 moveto 
(e+)   show
 574.0 393.333333333 536.5 410.0 Ffermion 
 556.75  403.666666667 moveto 
(ta+)   show
 580.0  390.666666667 moveto 
(5)   show
 536.5 410.0 574.0 426.666666667 Ffermion 
 541.75  424.333333333 moveto 
(ta-)   show
 580.0  429.333333333 moveto 
(6)   show
 499.0 385.0 536.5 410.0 0 Fphoton 
 513.25  399.5 moveto 
(a)   show
 549.311529494 368.229490169 499.0 385.0 Ffermion 
 525.655764747  378.614745084 moveto 
(e+)   show
 555.311529494  366.229490169 moveto 
(3)   show
 454.0  343.0 moveto 
( diagram 39 )   show
 514.0  343.0 moveto 
 (QCD=0, QED=4)   show
 190.0 230 140.0 246.666666667 Ffermion 
 166.5  240.333333333 moveto 
(ta+)   show
 196.0  228.0 moveto 
(5)   show
 140.0 246.666666667 190.0 263.333333333 Ffermion 
 151.5  261.0 moveto 
(ta-)   show
 196.0  265.333333333 moveto 
(6)   show
 90.0 246.666666667 140.0 246.666666667 0 Fphoton 
 113.5  249.166666667 moveto 
(a)   show
 90.0 246.666666667 40 230 Ffermion 
 56.0  242.333333333 moveto 
(e+)   show
 34.0  230 moveto 
(1)   show
 90.0 280.0 90.0 246.666666667 Ffermion 
 92.25  262.333333333 moveto 
(e+)   show
 40 330 90.0 313.333333333 Ffermion 
 66.5  323.666666667 moveto 
(e-)   show
 34.0  330 moveto 
(2)   show
 90.0 313.333333333 162.760687511 325.460114585 Ffermion 
 117.380343755  323.396723959 moveto 
(e-)   show
 168.760687511  326.460114585 moveto 
(4)   show
 90.0 280.0 90.0 313.333333333 0 Fphoton 
 92.25  295.666666667 moveto 
(z)   show
 162.760687511 292.126781252 90.0 280.0 Ffermion 
 117.380343755  290.063390626 moveto 
(e+)   show
 168.760687511  293.126781252 moveto 
(3)   show
 70.0  213.0 moveto 
( diagram 40 )   show
 130.0  213.0 moveto 
 (QCD=0, QED=4)   show
 232 330 269.5 305.0 Ffermion 
 252.25  319.5 moveto 
(e-)   show
 226.0  330 moveto 
(2)   show
 269.5 305.0 322.863435515 316.858541226 Ffermion 
 287.181717758  314.929270613 moveto 
(e-)   show
 328.863435515  318.191874559 moveto 
(4)   show
 269.5 255.0 269.5 305.0 0 Fphoton 
 271.75  279.0 moveto 
(z)   show
 269.5 255.0 232 230 Ffermion 
 241.75  246.5 moveto 
(e+)   show
 226.0  230 moveto 
(1)   show
 307.0 255.0 269.5 255.0 Ffermion 
 286.75  257.5 moveto 
(e+)   show
 382.0 263.333333333 344.5 280.0 Ffermion 
 364.75  273.666666667 moveto 
(ta+)   show
 388.0  260.666666667 moveto 
(5)   show
 344.5 280.0 382.0 296.666666667 Ffermion 
 349.75  294.333333333 moveto 
(ta-)   show
 388.0  299.333333333 moveto 
(6)   show
 307.0 255.0 344.5 280.0 0 Fphoton 
 321.25  269.5 moveto 
(z)   show
 357.311529494 238.229490169 307.0 255.0 Ffermion 
 333.655764747  248.614745084 moveto 
(e+)   show
 363.311529494  236.229490169 moveto 
(3)   show
 262.0  213.0 moveto 
( diagram 41 )   show
 322.0  213.0 moveto 
 (QCD=0, QED=4)   show
 574.0 230 524.0 246.666666667 Ffermion 
 550.5  240.333333333 moveto 
(ta+)   show
 580.0  228.0 moveto 
(5)   show
 524.0 246.666666667 574.0 263.333333333 Ffermion 
 535.5  261.0 moveto 
(ta-)   show
 580.0  265.333333333 moveto 
(6)   show
 474.0 246.666666667 524.0 246.666666667 0 Fphoton 
 497.5  249.166666667 moveto 
(z)   show
 474.0 246.666666667 424 230 Ffermion 
 440.0  242.333333333 moveto 
(e+)   show
 418.0  230 moveto 
(1)   show
 474.0 280.0 474.0 246.666666667 Ffermion 
 476.25  262.333333333 moveto 
(e+)   show
 424 330 474.0 313.333333333 Ffermion 
 450.5  323.666666667 moveto 
(e-)   show
 418.0  330 moveto 
(2)   show
 474.0 313.333333333 546.760687511 325.460114585 Ffermion 
 501.380343755  323.396723959 moveto 
(e-)   show
 552.760687511  326.460114585 moveto 
(4)   show
 474.0 280.0 474.0 313.333333333 0 Fphoton 
 476.25  295.666666667 moveto 
(z)   show
 546.760687511 292.126781252 474.0 280.0 Ffermion 
 501.380343755  290.063390626 moveto 
(e+)   show
 552.760687511  293.126781252 moveto 
(3)   show
 454.0  213.0 moveto 
( diagram 42 )   show
 514.0  213.0 moveto 
 (QCD=0, QED=4)   show
 190.0 100 140.0 125.0 Ffermion 
 166.5  114.5 moveto 
(e+)   show
 196.0  97.0 moveto 
(3)   show
 140.0 125.0 190.0 133.333333333 Ffermion 
 156.0  133.166666667 moveto 
(e-)   show
 196.0  134.333333333 moveto 
(4)   show
 90.0 125.0 140.0 125.0 0 Fphoton 
 113.5  127.5 moveto 
(a)   show
 90.0 125.0 40 100 Ffermion 
 56.0  116.5 moveto 
(e+)   show
 34.0  100 moveto 
(1)   show
 90.0 175.0 90.0 125.0 Ffermion 
 92.25  149.0 moveto 
(e+)   show
 190.0 166.666666667 140.0 175.0 Ffermion 
 166.5  172.833333333 moveto 
(ta+)   show
 196.0  165.666666667 moveto 
(5)   show
 140.0 175.0 190.0 200 Ffermion 
 151.5  193.5 moveto 
(ta-)   show
 196.0  203.0 moveto 
(6)   show
 90.0 175.0 140.0 175.0 0 Fphoton 
 113.5  177.5 moveto 
(a)   show
 40 200 90.0 175.0 Ffermion 
 66.5  189.5 moveto 
(e-)   show
 34.0  200 moveto 
(2)   show
 70.0  83.0 moveto 
( diagram 43 )   show
 130.0  83.0 moveto 
 (QCD=0, QED=4)   show
 382.0 100 332.0 125.0 Ffermion 
 358.5  114.5 moveto 
(ta+)   show
 388.0  97.0 moveto 
(5)   show
 332.0 125.0 382.0 133.333333333 Ffermion 
 343.5  135.166666667 moveto 
(ta-)   show
 388.0  134.333333333 moveto 
(6)   show
 282.0 125.0 332.0 125.0 0 Fphoton 
 305.5  127.5 moveto 
(a)   show
 282.0 125.0 232 100 Ffermion 
 248.0  116.5 moveto 
(e+)   show
 226.0  100 moveto 
(1)   show
 282.0 175.0 282.0 125.0 Ffermion 
 284.25  149.0 moveto 
(e+)   show
 382.0 166.666666667 332.0 175.0 Ffermion 
 358.5  172.833333333 moveto 
(e+)   show
 388.0  165.666666667 moveto 
(3)   show
 332.0 175.0 382.0 200 Ffermion 
 348.0  191.5 moveto 
(e-)   show
 388.0  203.0 moveto 
(4)   show
 282.0 175.0 332.0 175.0 0 Fphoton 
 305.5  177.5 moveto 
(a)   show
 232 200 282.0 175.0 Ffermion 
 258.5  189.5 moveto 
(e-)   show
 226.0  200 moveto 
(2)   show
 262.0  83.0 moveto 
( diagram 44 )   show
 322.0  83.0 moveto 
 (QCD=0, QED=4)   show
 574.0 100 524.0 125.0 Ffermion 
 550.5  114.5 moveto 
(e+)   show
 580.0  97.0 moveto 
(3)   show
 524.0 125.0 574.0 133.333333333 Ffermion 
 540.0  133.166666667 moveto 
(e-)   show
 580.0  134.333333333 moveto 
(4)   show
 474.0 125.0 524.0 125.0 0 Fphoton 
 497.5  127.5 moveto 
(a)   show
 474.0 125.0 424 100 Ffermion 
 440.0  116.5 moveto 
(e+)   show
 418.0  100 moveto 
(1)   show
 474.0 175.0 474.0 125.0 Ffermion 
 476.25  149.0 moveto 
(e+)   show
 574.0 166.666666667 524.0 175.0 Ffermion 
 550.5  172.833333333 moveto 
(ta+)   show
 580.0  165.666666667 moveto 
(5)   show
 524.0 175.0 574.0 200 Ffermion 
 535.5  193.5 moveto 
(ta-)   show
 580.0  203.0 moveto 
(6)   show
 474.0 175.0 524.0 175.0 0 Fphoton 
 497.5  177.5 moveto 
(z)   show
 424 200 474.0 175.0 Ffermion 
 450.5  189.5 moveto 
(e-)   show
 418.0  200 moveto 
(2)   show
 454.0  83.0 moveto 
( diagram 45 )   show
 514.0  83.0 moveto 
 (QCD=0, QED=4)   show
showpage
%%Page: 7 7 
%%PageBoundingBox:-20 -20 600 800
%%PageFonts: Helvetica
/Helvetica findfont 6 scalefont setfont
 50         770  moveto
 () show
 525         770  moveto
 (page 7/7) show
 260         40  moveto
 (Diagrams made by MadGraph5_aMC@NLO) show
 190.0 620 140.0 645.0 Ffermion 
 166.5  634.5 moveto 
(ta+)   show
 196.0  617.0 moveto 
(5)   show
 140.0 645.0 190.0 653.333333333 Ffermion 
 151.5  655.166666667 moveto 
(ta-)   show
 196.0  654.333333333 moveto 
(6)   show
 90.0 645.0 140.0 645.0 0 Fphoton 
 113.5  647.5 moveto 
(z)   show
 90.0 645.0 40 620 Ffermion 
 56.0  636.5 moveto 
(e+)   show
 34.0  620 moveto 
(1)   show
 90.0 695.0 90.0 645.0 Ffermion 
 92.25  669.0 moveto 
(e+)   show
 190.0 686.666666667 140.0 695.0 Ffermion 
 166.5  692.833333333 moveto 
(e+)   show
 196.0  685.666666667 moveto 
(3)   show
 140.0 695.0 190.0 720 Ffermion 
 156.0  711.5 moveto 
(e-)   show
 196.0  723.0 moveto 
(4)   show
 90.0 695.0 140.0 695.0 0 Fphoton 
 113.5  697.5 moveto 
(a)   show
 40 720 90.0 695.0 Ffermion 
 66.5  709.5 moveto 
(e-)   show
 34.0  720 moveto 
(2)   show
 70.0  603.0 moveto 
( diagram 46 )   show
 130.0  603.0 moveto 
 (QCD=0, QED=4)   show
 382.0 620 332.0 645.0 Ffermion 
 358.5  634.5 moveto 
(e+)   show
 388.0  617.0 moveto 
(3)   show
 332.0 645.0 382.0 653.333333333 Ffermion 
 348.0  653.166666667 moveto 
(e-)   show
 388.0  654.333333333 moveto 
(4)   show
 282.0 645.0 332.0 645.0 0 Fphoton 
 305.5  647.5 moveto 
(z)   show
 282.0 645.0 232 620 Ffermion 
 248.0  636.5 moveto 
(e+)   show
 226.0  620 moveto 
(1)   show
 282.0 695.0 282.0 645.0 Ffermion 
 284.25  669.0 moveto 
(e+)   show
 382.0 686.666666667 332.0 695.0 Ffermion 
 358.5  692.833333333 moveto 
(ta+)   show
 388.0  685.666666667 moveto 
(5)   show
 332.0 695.0 382.0 720 Ffermion 
 343.5  713.5 moveto 
(ta-)   show
 388.0  723.0 moveto 
(6)   show
 282.0 695.0 332.0 695.0 0 Fphoton 
 305.5  697.5 moveto 
(a)   show
 232 720 282.0 695.0 Ffermion 
 258.5  709.5 moveto 
(e-)   show
 226.0  720 moveto 
(2)   show
 262.0  603.0 moveto 
( diagram 47 )   show
 322.0  603.0 moveto 
 (QCD=0, QED=4)   show
 574.0 620 524.0 645.0 Ffermion 
 550.5  634.5 moveto 
(ta+)   show
 580.0  617.0 moveto 
(5)   show
 524.0 645.0 574.0 653.333333333 Ffermion 
 535.5  655.166666667 moveto 
(ta-)   show
 580.0  654.333333333 moveto 
(6)   show
 474.0 645.0 524.0 645.0 0 Fphoton 
 497.5  647.5 moveto 
(a)   show
 474.0 645.0 424 620 Ffermion 
 440.0  636.5 moveto 
(e+)   show
 418.0  620 moveto 
(1)   show
 474.0 695.0 474.0 645.0 Ffermion 
 476.25  669.0 moveto 
(e+)   show
 574.0 686.666666667 524.0 695.0 Ffermion 
 550.5  692.833333333 moveto 
(e+)   show
 580.0  685.666666667 moveto 
(3)   show
 524.0 695.0 574.0 720 Ffermion 
 540.0  711.5 moveto 
(e-)   show
 580.0  723.0 moveto 
(4)   show
 474.0 695.0 524.0 695.0 0 Fphoton 
 497.5  697.5 moveto 
(z)   show
 424 720 474.0 695.0 Ffermion 
 450.5  709.5 moveto 
(e-)   show
 418.0  720 moveto 
(2)   show
 454.0  603.0 moveto 
( diagram 48 )   show
 514.0  603.0 moveto 
 (QCD=0, QED=4)   show
 190.0 490 140.0 515.0 Ffermion 
 166.5  504.5 moveto 
(e+)   show
 196.0  487.0 moveto 
(3)   show
 140.0 515.0 190.0 523.333333333 Ffermion 
 156.0  523.166666667 moveto 
(e-)   show
 196.0  524.333333333 moveto 
(4)   show
 90.0 515.0 140.0 515.0 0 Fphoton 
 113.5  517.5 moveto 
(z)   show
 90.0 515.0 40 490 Ffermion 
 56.0  506.5 moveto 
(e+)   show
 34.0  490 moveto 
(1)   show
 90.0 565.0 90.0 515.0 Ffermion 
 92.25  539.0 moveto 
(e+)   show
 190.0 556.666666667 140.0 565.0 Ffermion 
 166.5  562.833333333 moveto 
(ta+)   show
 196.0  555.666666667 moveto 
(5)   show
 140.0 565.0 190.0 590 Ffermion 
 151.5  583.5 moveto 
(ta-)   show
 196.0  593.0 moveto 
(6)   show
 90.0 565.0 140.0 565.0 0 Fphoton 
 113.5  567.5 moveto 
(z)   show
 40 590 90.0 565.0 Ffermion 
 66.5  579.5 moveto 
(e-)   show
 34.0  590 moveto 
(2)   show
 70.0  473.0 moveto 
( diagram 49 )   show
 130.0  473.0 moveto 
 (QCD=0, QED=4)   show
 382.0 490 332.0 515.0 Ffermion 
 358.5  504.5 moveto 
(ta+)   show
 388.0  487.0 moveto 
(5)   show
 332.0 515.0 382.0 523.333333333 Ffermion 
 343.5  525.166666667 moveto 
(ta-)   show
 388.0  524.333333333 moveto 
(6)   show
 282.0 515.0 332.0 515.0 0 Fphoton 
 305.5  517.5 moveto 
(z)   show
 282.0 515.0 232 490 Ffermion 
 248.0  506.5 moveto 
(e+)   show
 226.0  490 moveto 
(1)   show
 282.0 565.0 282.0 515.0 Ffermion 
 284.25  539.0 moveto 
(e+)   show
 382.0 556.666666667 332.0 565.0 Ffermion 
 358.5  562.833333333 moveto 
(e+)   show
 388.0  555.666666667 moveto 
(3)   show
 332.0 565.0 382.0 590 Ffermion 
 348.0  581.5 moveto 
(e-)   show
 388.0  593.0 moveto 
(4)   show
 282.0 565.0 332.0 565.0 0 Fphoton 
 305.5  567.5 moveto 
(z)   show
 232 590 282.0 565.0 Ffermion 
 258.5  579.5 moveto 
(e-)   show
 226.0  590 moveto 
(2)   show
 262.0  473.0 moveto 
( diagram 50 )   show
 322.0  473.0 moveto 
 (QCD=0, QED=4)   show
showpage
%%trailer

