%!PS-Adobe-2.0 EPSF-2.0
%%BoundingBox: 0 0 482 482
%%Title: ggtt.eps
%%Creator: HIGZ Version 1.28/07
%%CreationDate: 2004/01/16   17.25
%%EndComments
%%BeginProlog
80 dict begin
/s {stroke} def /l {lineto} def /m {moveto} def /t {translate} def
/sw {stringwidth} def /r {rotate} def /rl {roll}  def /R {repeat} def
/d {rlineto} def /rm {rmoveto} def /gr {grestore} def /f {eofill} def
/c {setrgbcolor} def /lw {setlinewidth} def /sd {setdash} def
/cl {closepath} def /sf {scalefont setfont} def /black {0 setgray} def
/box {m dup 0 exch d exch 0 d 0 exch neg d cl} def
/NC{systemdict begin initclip end}def/C{NC box clip newpath}def
/bl {box s} def /bf {box f} def /Y { 0 exch d} def /X { 0 d} def 
/mp {newpath /y exch def /x exch def} def
/side {[w .77 mul w .23 mul] .385 w mul sd w 0 l currentpoint t -144 r} def
/mr {mp x y w2 0 360 arc} def /m24 {mr s} def /m20 {mr f} def
/mb {mp x y w2 add m w2 neg 0 d 0 w neg d w 0 d 0 w d cl} def
/mt {mp x y w2 add m w2 neg w neg d w 0 d cl} def
/m21 {mb f} def /m25 {mb s} def /m22 {mt f} def /m26  {mt s} def
/m23 {mp x y w2 sub m w2 w d w neg 0 d cl f} def
/m27 {mp x y w2 add m w3 neg w2 neg d w3 w2 neg d w3  w2 d cl s} def
/m28 {mp x w2 sub y w2 sub w3 add m w3 0 d 0 w3 neg d w3 0 d 0 w3 d w3 0 d
 0 w3 d w3 neg 0 d 0 w3 d w3 neg 0 d
 0 w3 neg d w3 neg 0 d cl s } def
/m29 {mp gsave x w2 sub y w2 add w3 sub m currentpoint t
 4 {side} repeat cl fill gr} def
/m30 {mp gsave x w2 sub y w2 add w3 sub m currentpoint t
 5 {side} repeat s gr} def
/m31 {mp x y w2 sub m 0 w d x w2 sub y m w 0 d
 x w2 sub y w2 add m w w neg d x w2 sub y w2
 sub m w w d s} def
/m2 {mp x y w2 sub m 0 w d x w2 sub y m w 0 d s} def
/m5 {mp x w2 sub y w2 sub m w w d x w2 sub y w2 add m w w neg d s} def
/reencdict 24 dict def /ReEncode {reencdict begin /nco&na exch def
/nfnam exch def /basefontname exch def /basefontdict basefontname findfont def
/newfont basefontdict maxlength dict def basefontdict {exch dup /FID ne
{dup /Encoding eq {exch dup length array copy newfont 3 1 roll put} {exch
newfont 3 1 roll put} ifelse} {pop pop} ifelse } forall newfont
/FontName nfnam put nco&na aload pop nco&na length 2 idiv {newfont
/Encoding get 3 1 roll put} repeat nfnam newfont definefont pop end } def
/accvec [ 176 /agrave 181 /Agrave 190 /acircumflex 192 /Acircumflex
201 /adieresis 204 /Adieresis 209 /ccedilla 210 /Ccedilla 211 /eacute
212 /Eacute 213 /egrave 214 /Egrave 215 /ecircumflex 216 /Ecircumflex
217 /edieresis 218 /Edieresis 219 /icircumflex 220 /Icircumflex
221 /idieresis 222 /Idieresis 223 /ntilde 224 /Ntilde 226 /ocircumflex
228 /Ocircumflex 229 /odieresis 230 /Odieresis 231 /ucircumflex 236 /Ucircumflex
237 /udieresis 238 /Udieresis 239 /aring 242 /Aring 243 /ydieresis
244 /Ydieresis 246 /aacute 247 /Aacute 252 /ugrave 253 /Ugrave] def
/Times-Roman /Times-Roman accvec ReEncode
/Times-Italic /Times-Italic accvec ReEncode
/Times-Bold /Times-Bold accvec ReEncode
/Times-BoldItalic /Times-BoldItalic accvec ReEncode
/Helvetica /Helvetica accvec ReEncode
/Helvetica-Oblique /Helvetica-Oblique accvec ReEncode
/Helvetica-Bold /Helvetica-Bold accvec ReEncode
/Helvetica-BoldOblique /Helvetica-BoldOblique  accvec ReEncode
/Courier /Courier accvec ReEncode
/Courier-Oblique /Courier-Oblique accvec ReEncode
/Courier-Bold /Courier-Bold accvec ReEncode
/Courier-BoldOblique /Courier-BoldOblique accvec ReEncode
/oshow {gsave [] 0 sd true charpath stroke gr} def
/stwn { /fs exch def /fn exch def /text exch def fn findfont fs sf
 text sw pop xs add /xs exch def} def
/stwb { /fs exch def /fn exch def /nbas exch def /textf exch def
textf length /tlen exch def nbas tlen gt {/nbas tlen  def} if
fn findfont fs sf textf dup length nbas sub nbas getinterval sw
pop neg xs add /xs exch def} def
/accspe [ 65 /plusminus 66 /bar 67 /existential 68 /universal
69 /exclam 70 /numbersign 71 /greater 72 /question 73 /integral
74 /colon 75 /semicolon 76 /less 77 /bracketleft 78 /bracketright
79 /greaterequal 80 /braceleft 81 /braceright 82 /radical
83 /spade 84 /heart 85 /diamond 86 /club 87 /lessequal
88 /multiply 89 /percent 90 /infinity 48 /circlemultiply 49 /circleplus
50 /emptyset 51 /lozenge 52 /bullet 53 /arrowright 54 /arrowup
55 /arrowleft 56 /arrowdown 57 /arrowboth 48 /degree 44 /comma 43 /plus
 45 /angle 42 /angleleft 47 /divide 61 /notequal 40 /equivalence 41 /second
 97 /approxequal 98 /congruent 99 /perpendicular 100 /partialdiff 101 /florin
 102 /intersection 103 /union 104 /propersuperset 105 /reflexsuperset
 106 /notsubset 107 /propersubset 108 /reflexsubset 109 /element 110 /notelement
 111 /gradient 112 /logicaland 113 /logicalor 114 /arrowdblboth
 115 /arrowdblleft 116 /arrowdblup 117 /arrowdblright 118 /arrowdbldown
 119 /ampersand 120 /omega1 121 /similar 122 /aleph ] def
/Symbol /Special accspe ReEncode
%%EndProlog
newpath  gsave  .25 .25 scale  gsave 0 0 t black [] 0 sd 1 lw 1383 1474 318 227
 bl 1383 1474 318 227 C 1928 1928 0 0 C
 /xs 0 def 
(DELPHI)
 /Times-Italic     86 stwn 
 gsave  964 1758
 t   0 r  xs 2 div neg 0 t 0 0 m
 /Times-Italic findfont   86 sf 0    0 m 
(DELPHI)
 show 
 gr  1383 1474 318 227 C NC 318 227 m 1474 Y s 352 227 m -34 X s 335 276 m -17 X
 s 335 325 m -17 X s 335 374 m -17 X s 335 423 m -17 X s 352 473 m -34 X s 335
 522 m -17 X s 335 571 m -17 X s 335 620 m -17 X s 335 669 m -17 X s 352 718 m
 -34 X s 335 767 m -17 X s 335 817 m -17 X s 335 866 m -17 X s 335 915 m -17 X s
 352 964 m -34 X s 335 1013 m -17 X s 335 1062 m -17 X s 335 1111 m -17 X s 335
 1161 m -17 X s 352 1210 m -34 X s 335 1259 m -17 X s 335 1308 m -17 X s 335
 1357 m -17 X s 335 1406 m -17 X s 352 1455 m -34 X s 335 1505 m -17 X s 335
 1554 m -17 X s 335 1603 m -17 X s 335 1652 m -17 X s 352 1701 m -34 X s
 /xs 0 def 
(300)
 /Times-Italic     69 stwn 
 gsave  306 204
 t   0 r  xs neg 0 t 0 0 m
 /Times-Italic findfont   69 sf 0    0 m 
(300)
 show 
 gr 
 /xs 0 def 
(350)
 /Times-Italic     69 stwn 
 gsave  306 450
 t   0 r  xs neg 0 t 0 0 m
 /Times-Italic findfont   69 sf 0    0 m 
(350)
 show 
 gr 
 /xs 0 def 
(400)
 /Times-Italic     69 stwn 
 gsave  306 696
 t   0 r  xs neg 0 t 0 0 m
 /Times-Italic findfont   69 sf 0    0 m 
(400)
 show 
 gr 
 /xs 0 def 
(450)
 /Times-Italic     69 stwn 
 gsave  306 941
 t   0 r  xs neg 0 t 0 0 m
 /Times-Italic findfont   69 sf 0    0 m 
(450)
 show 
 gr 
 /xs 0 def 
(500)
 /Times-Italic     69 stwn 
 gsave  306 1187
 t   0 r  xs neg 0 t 0 0 m
 /Times-Italic findfont   69 sf 0    0 m 
(500)
 show 
 gr 
 /xs 0 def 
(550)
 /Times-Italic     69 stwn 
 gsave  306 1433
 t   0 r  xs neg 0 t 0 0 m
 /Times-Italic findfont   69 sf 0    0 m 
(550)
 show 
 gr 
 /xs 0 def 
(600)
 /Times-Italic     69 stwn 
 gsave  306 1678
 t   0 r  xs neg 0 t 0 0 m
 /Times-Italic findfont   69 sf 0    0 m 
(600)
 show 
 gr  318 227 m 1383 X s 318 261 m -34 Y s 345 244 m -17 Y s 373 244 m -17 Y s
 401 244 m -17 Y s 428 244 m -17 Y s 456 261 m -34 Y s 484 244 m -17 Y s 511 244
 m -17 Y s 539 244 m -17 Y s 567 244 m -17 Y s 594 261 m -34 Y s 622 244 m -17 Y
 s 650 244 m -17 Y s 677 244 m -17 Y s 705 244 m -17 Y s 733 261 m -34 Y s 760
 244 m -17 Y s 788 244 m -17 Y s 816 244 m -17 Y s 843 244 m -17 Y s 871 261 m
 -34 Y s 899 244 m -17 Y s 926 244 m -17 Y s 954 244 m -17 Y s 982 244 m -17 Y s
 1009 261 m -34 Y s 1037 244 m -17 Y s 1065 244 m -17 Y s 1092 244 m -17 Y s
 1120 244 m -17 Y s 1148 261 m -34 Y s 1175 244 m -17 Y s 1203 244 m -17 Y s
 1231 244 m -17 Y s 1258 244 m -17 Y s 1286 261 m -34 Y s 1314 244 m -17 Y s
 1341 244 m -17 Y s 1369 244 m -17 Y s 1397 244 m -17 Y s 1424 261 m -34 Y s
 1452 244 m -17 Y s 1480 244 m -17 Y s 1507 244 m -17 Y s 1535 244 m -17 Y s
 1563 261 m -34 Y s 1590 244 m -17 Y s 1618 244 m -17 Y s 1646 244 m -17 Y s
 1674 244 m -17 Y s 1701 261 m -34 Y s
 /xs 0 def 
(170)
 /Times-Italic     69 stwn 
 gsave  318 159
 t   0 r  xs 2 div neg 0 t 0 0 m
 /Times-Italic findfont   69 sf 0    0 m 
(170)
 show 
 gr 
 /xs 0 def 
(175)
 /Times-Italic     69 stwn 
 gsave  456 159
 t   0 r  xs 2 div neg 0 t 0 0 m
 /Times-Italic findfont   69 sf 0    0 m 
(175)
 show 
 gr 
 /xs 0 def 
(180)
 /Times-Italic     69 stwn 
 gsave  594 159
 t   0 r  xs 2 div neg 0 t 0 0 m
 /Times-Italic findfont   69 sf 0    0 m 
(180)
 show 
 gr 
 /xs 0 def 
(185)
 /Times-Italic     69 stwn 
 gsave  733 159
 t   0 r  xs 2 div neg 0 t 0 0 m
 /Times-Italic findfont   69 sf 0    0 m 
(185)
 show 
 gr 
 /xs 0 def 
(190)
 /Times-Italic     69 stwn 
 gsave  871 159
 t   0 r  xs 2 div neg 0 t 0 0 m
 /Times-Italic findfont   69 sf 0    0 m 
(190)
 show 
 gr 
 /xs 0 def 
(195)
 /Times-Italic     69 stwn 
 gsave  1009 159
 t   0 r  xs 2 div neg 0 t 0 0 m
 /Times-Italic findfont   69 sf 0    0 m 
(195)
 show 
 gr 
 /xs 0 def 
(200)
 /Times-Italic     69 stwn 
 gsave  1148 159
 t   0 r  xs 2 div neg 0 t 0 0 m
 /Times-Italic findfont   69 sf 0    0 m 
(200)
 show 
 gr 
 /xs 0 def 
(205)
 /Times-Italic     69 stwn 
 gsave  1286 159
 t   0 r  xs 2 div neg 0 t 0 0 m
 /Times-Italic findfont   69 sf 0    0 m 
(205)
 show 
 gr 
 /xs 0 def 
(210)
 /Times-Italic     69 stwn 
 gsave  1424 159
 t   0 r  xs 2 div neg 0 t 0 0 m
 /Times-Italic findfont   69 sf 0    0 m 
(210)
 show 
 gr 
 /xs 0 def 
(215)
 /Times-Italic     69 stwn 
 gsave  1563 159
 t   0 r  xs 2 div neg 0 t 0 0 m
 /Times-Italic findfont   69 sf 0    0 m 
(215)
 show 
 gr 
 /xs 0 def 
(220)
 /Times-Italic     69 stwn 
 gsave  1701 159
 t   0 r  xs 2 div neg 0 t 0 0 m
 /Times-Italic findfont   69 sf 0    0 m 
(220)
 show 
 gr  1383 1474 318 227 C [4 8] 0 sd 324 549 m 14 5 d 14 5 d 14 5 d 14 5 d 14 5 d
 13 4 d 14 5 d 14 5 d 14 4 d 14 5 d 14 4 d 14 5 d 13 4 d 14 5 d 14 4 d 14 4 d 14
 5 d 14 4 d 13 4 d 14 4 d 14 5 d 14 4 d 14 4 d 14 4 d 13 4 d 14 4 d 14 4 d 14 4
 d 14 3 d 14 4 d 13 4 d 14 4 d 14 3 d 14 4 d 14 4 d 14 3 d 13 4 d 14 3 d 14 4 d
 14 3 d 14 4 d 14 3 d 13 3 d 14 3 d 14 4 d 14 3 d 14 3 d 14 3 d 13 3 d s 1002
 745 m 14 3 d 14 3 d 14 3 d 14 3 d 14 3 d 13 3 d 14 3 d 14 3 d 14 2 d 14 3 d 14
 3 d 13 2 d 14 3 d 14 2 d 14 3 d 14 2 d 14 3 d 13 2 d 14 3 d 14 2 d 14 2 d 14 2
 d 14 3 d 14 2 d 13 2 d 14 2 d 14 2 d 14 2 d 14 2 d 14 2 d 13 2 d 14 2 d 14 2 d
 14 1 d 14 2 d 14 2 d 13 1 d 14 2 d 14 2 d 14 1 d 14 2 d 14 1 d 13 2 d 14 1 d 14
 1 d 14 2 d 14 1 d 14 1 d 13 2 d s 1680 850 m 14 1 d s 1928 1928 0 0 C [] 0 sd
 331 552 m -2 -3 d s 331 577 m -13 -14 d s 331 601 m -13 -14 d s 331 626 m -13
 -14 d s 331 650 m -13 -13 d s 331 675 m -13 -14 d s 331 699 m -13 -13 d s 331
 724 m -13 -14 d s 331 749 m -13 -14 d s 331 773 m -13 -14 d s 331 798 m -13 -14
 d s 331 822 m -13 -14 d s 328 843 m -10 -10 d s 1383 1474 318 227 C 318 549 m
 294 Y 13 X s 1928 1928 0 0 C 345 566 m -11 -12 d s 345 591 m -14 -14 d s 345
 615 m -14 -14 d s 345 640 m -14 -14 d s 345 664 m -14 -14 d s 345 689 m -14 -14
 d s 345 713 m -14 -14 d s 345 738 m -14 -14 d s 345 762 m -14 -13 d s 345 787 m
 -14 -14 d s 345 811 m -14 -13 d s 345 836 m -14 -14 d s 333 849 m -2 -2 d s
 1383 1474 318 227 C 331 843 m 6 Y 14 X s 1928 1928 0 0 C 359 580 m -14 -14 d s
 359 604 m -14 -13 d s 359 629 m -14 -14 d s 359 654 m -14 -14 d s 359 678 m -14
 -14 d s 359 703 m -14 -14 d s 359 727 m -14 -14 d s 359 752 m -14 -14 d s 359
 776 m -14 -14 d s 359 801 m -14 -14 d s 359 825 m -14 -14 d s 359 850 m -14 -14
 d s 1383 1474 318 227 C 345 849 m 5 Y 14 X s 1928 1928 0 0 C 373 569 m -5 -5 d
 s 373 594 m -14 -14 d s 373 618 m -14 -14 d s 373 643 m -14 -14 d s 373 667 m
 -14 -13 d s 373 692 m -14 -14 d s 373 716 m -14 -13 d s 373 741 m -14 -14 d s
 373 766 m -14 -14 d s 373 790 m -14 -14 d s 373 815 m -14 -14 d s 373 839 m -14
 -14 d s 369 859 m -10 -9 d s 1383 1474 318 227 C 359 854 m 5 Y 14 X s 1928 1928
 0 0 C 387 583 m -14 -14 d s 387 608 m -14 -14 d s 387 632 m -14 -14 d s 387 657
 m -14 -14 d s 387 681 m -14 -14 d s 387 706 m -14 -14 d s 387 730 m -14 -14 d s
 387 755 m -14 -14 d s 387 779 m -14 -13 d s 387 804 m -14 -14 d s 387 828 m -14
 -13 d s 387 853 m -14 -14 d s 374 865 m -1 -1 d s 1383 1474 318 227 C 373 859 m
 6 Y 14 X s 1928 1928 0 0 C 401 597 m -14 -14 d s 401 621 m -14 -13 d s 401 646
 m -14 -14 d s 401 671 m -14 -14 d s 401 695 m -14 -14 d s 401 720 m -14 -14 d s
 401 744 m -14 -14 d s 401 769 m -14 -14 d s 401 793 m -14 -14 d s 401 818 m -14
 -14 d s 401 842 m -14 -14 d s 401 867 m -14 -14 d s 1383 1474 318 227 C 387 865
 m 5 Y 14 X s 1928 1928 0 0 C 414 586 m -7 -8 d s 414 611 m -13 -14 d s 414 635
 m -13 -14 d s 414 660 m -13 -14 d s 414 684 m -13 -13 d s 414 709 m -13 -14 d s
 414 733 m -13 -13 d s 414 758 m -13 -14 d s 414 782 m -13 -13 d s 414 807 m -13
 -14 d s 414 832 m -13 -14 d s 414 856 m -13 -14 d s 409 875 m -8 -8 d s 1383
 1474 318 227 C 401 870 m 5 Y 13 X s 1928 1928 0 0 C 428 600 m -14 -14 d s 428
 625 m -14 -14 d s 428 649 m -14 -14 d s 428 674 m -14 -14 d s 428 698 m -14 -14
 d s 428 723 m -14 -14 d s 428 747 m -14 -14 d s 428 772 m -14 -14 d s 428 796 m
 -14 -14 d s 428 821 m -14 -14 d s 428 845 m -14 -13 d s 428 870 m -14 -14 d s
 1383 1474 318 227 C 414 875 m 5 Y 14 X s 1928 1928 0 0 C 442 589 m -2 -1 d s
 442 614 m -14 -14 d s 442 638 m -14 -13 d s 442 663 m -14 -14 d s 442 687 m -14
 -13 d s 442 712 m -14 -14 d s 442 737 m -14 -14 d s 442 761 m -14 -14 d s 442
 786 m -14 -14 d s 442 810 m -14 -14 d s 442 835 m -14 -14 d s 442 859 m -14 -14
 d s 442 884 m -14 -14 d s 1383 1474 318 227 C 428 880 m 5 Y 14 X s 1928 1928 0
 0 C 456 603 m -11 -11 d s 456 628 m -14 -14 d s 456 652 m -14 -14 d s 456 677 m
 -14 -14 d s 456 701 m -14 -14 d s 456 726 m -14 -14 d s 456 750 m -14 -13 d s
 456 775 m -14 -14 d s 456 799 m -14 -13 d s 456 824 m -14 -14 d s 456 849 m -14
 -14 d s 456 873 m -14 -14 d s 449 890 m -7 -6 d s 1383 1474 318 227 C 442 885 m
 5 Y 14 X s 1928 1928 0 0 C 470 617 m -14 -14 d s 470 642 m -14 -14 d s 470 666
 m -14 -14 d s 470 691 m -14 -14 d s 470 715 m -14 -14 d s 470 740 m -14 -14 d s
 470 764 m -14 -14 d s 470 789 m -14 -14 d s 470 813 m -14 -14 d s 470 838 m -14
 -14 d s 470 862 m -14 -13 d s 470 887 m -14 -14 d s 1383 1474 318 227 C 456 890
 m 5 Y 14 X s 1928 1928 0 0 C 484 606 m -5 -5 d s 484 631 m -14 -14 d s 484 655
 m -14 -13 d s 484 680 m -14 -14 d s 484 704 m -14 -13 d s 484 729 m -14 -14 d s
 484 754 m -14 -14 d s 484 778 m -14 -14 d s 484 803 m -14 -14 d s 484 827 m -14
 -14 d s 484 852 m -14 -14 d s 484 876 m -14 -14 d s 483 900 m -13 -13 d s 1383
 1474 318 227 C 470 895 m 5 Y 14 X s 1928 1928 0 0 C 497 620 m -13 -14 d s 497
 645 m -13 -14 d s 497 669 m -13 -14 d s 497 694 m -13 -14 d s 497 718 m -13 -14
 d s 497 743 m -13 -14 d s 497 767 m -13 -13 d s 497 792 m -13 -14 d s 497 816 m
 -13 -13 d s 497 841 m -13 -14 d s 497 866 m -13 -14 d s 497 890 m -13 -14 d s
 488 905 m -4 -4 d s 1383 1474 318 227 C 484 900 m 5 Y 13 X s 1928 1928 0 0 C
 511 634 m -14 -14 d s 511 658 m -14 -13 d s 511 683 m -14 -14 d s 511 708 m -14
 -14 d s 511 732 m -14 -14 d s 511 757 m -14 -14 d s 511 781 m -14 -14 d s 511
 806 m -14 -14 d s 511 830 m -14 -14 d s 511 855 m -14 -14 d s 511 879 m -14 -13
 d s 511 904 m -14 -14 d s 1383 1474 318 227 C 497 905 m 5 Y 14 X s 1928 1928 0
 0 C 525 623 m -8 -8 d s 525 648 m -14 -14 d s 525 672 m -14 -14 d s 525 697 m
 -14 -14 d s 525 721 m -14 -13 d s 525 746 m -14 -14 d s 525 770 m -14 -13 d s
 525 795 m -14 -14 d s 525 820 m -14 -14 d s 525 844 m -14 -14 d s 525 869 m -14
 -14 d s 525 893 m -14 -14 d s 523 915 m -12 -11 d s 1383 1474 318 227 C 511 910
 m 5 Y 14 X s 1928 1928 0 0 C 539 637 m -14 -14 d s 539 662 m -14 -14 d s 539
 686 m -14 -14 d s 539 711 m -14 -14 d s 539 735 m -14 -14 d s 539 760 m -14 -14
 d s 539 784 m -14 -14 d s 539 809 m -14 -14 d s 539 833 m -14 -13 d s 539 858 m
 -14 -14 d s 539 882 m -14 -13 d s 539 907 m -14 -14 d s 527 920 m -2 -2 d s
 1383 1474 318 227 C 525 915 m 5 Y 14 X s 1928 1928 0 0 C 553 626 m -3 -3 d s
 553 651 m -14 -14 d s 553 675 m -14 -13 d s 553 700 m -14 -14 d s 553 725 m -14
 -14 d s 553 749 m -14 -14 d s 553 774 m -14 -14 d s 553 798 m -14 -14 d s 553
 823 m -14 -14 d s 553 847 m -14 -14 d s 553 872 m -14 -14 d s 553 896 m -14 -14
 d s 553 921 m -14 -14 d s 1383 1474 318 227 C 539 920 m 5 Y 14 X s 1928 1928 0
 0 C 567 640 m -13 -12 d s 567 665 m -14 -14 d s 567 689 m -14 -14 d s 567 714 m
 -14 -14 d s 567 738 m -14 -13 d s 567 763 m -14 -14 d s 567 787 m -14 -13 d s
 567 812 m -14 -14 d s 567 837 m -14 -14 d s 567 861 m -14 -14 d s 567 886 m -14
 -14 d s 567 910 m -14 -14 d s 562 930 m -9 -9 d s 1383 1474 318 227 C 553 925 m
 5 Y 14 X s 1928 1928 0 0 C 580 654 m -13 -14 d s 580 679 m -13 -14 d s 580 703
 m -13 -14 d s 580 728 m -13 -14 d s 580 752 m -13 -14 d s 580 777 m -13 -14 d s
 580 801 m -13 -14 d s 580 826 m -13 -14 d s 580 850 m -13 -13 d s 580 875 m -13
 -14 d s 580 899 m -13 -13 d s 580 924 m -13 -14 d s 1383 1474 318 227 C 567 930
 m 4 Y 13 X s 1928 1928 0 0 C 594 643 m -7 -7 d s 594 668 m -14 -14 d s 594 692
 m -14 -13 d s 594 717 m -14 -14 d s 594 742 m -14 -14 d s 594 766 m -14 -14 d s
 594 791 m -14 -14 d s 594 815 m -14 -14 d s 594 840 m -14 -14 d s 594 864 m -14
 -14 d s 594 889 m -14 -14 d s 594 913 m -14 -14 d s 594 938 m -14 -14 d s 1383
 1474 318 227 C 580 934 m 5 Y 14 X s 1928 1928 0 0 C 608 657 m -14 -14 d s 608
 682 m -14 -14 d s 608 706 m -14 -14 d s 608 731 m -14 -14 d s 608 755 m -14 -13
 d s 608 780 m -14 -14 d s 608 804 m -14 -13 d s 608 829 m -14 -14 d s 608 854 m
 -14 -14 d s 608 878 m -14 -14 d s 608 903 m -14 -14 d s 608 927 m -14 -14 d s
 600 944 m -6 -6 d s 1383 1474 318 227 C 594 939 m 5 Y 14 X s 1928 1928 0 0 C
 622 646 m -2 -1 d s 622 671 m -14 -14 d s 622 696 m -14 -14 d s 622 720 m -14
 -14 d s 622 745 m -14 -14 d s 622 769 m -14 -14 d s 622 794 m -14 -14 d s 622
 818 m -14 -14 d s 622 843 m -14 -14 d s 622 867 m -14 -13 d s 622 892 m -14 -14
 d s 622 916 m -14 -13 d s 622 941 m -14 -14 d s 1383 1474 318 227 C 608 944 m 4
 Y 14 X s 1928 1928 0 0 C 636 660 m -12 -11 d s 636 685 m -14 -14 d s 636 709 m
 -14 -13 d s 636 734 m -14 -14 d s 636 758 m -14 -13 d s 636 783 m -14 -14 d s
 636 808 m -14 -14 d s 636 832 m -14 -14 d s 636 857 m -14 -14 d s 636 881 m -14
 -14 d s 636 906 m -14 -14 d s 636 930 m -14 -14 d s 634 953 m -12 -12 d s 1383
 1474 318 227 C 622 948 m 5 Y 14 X s 1928 1928 0 0 C 650 674 m -14 -14 d s 650
 699 m -14 -14 d s 650 723 m -14 -14 d s 650 748 m -14 -14 d s 650 772 m -14 -14
 d s 650 797 m -14 -14 d s 650 821 m -14 -13 d s 650 846 m -14 -14 d s 650 870 m
 -14 -13 d s 650 895 m -14 -14 d s 650 920 m -14 -14 d s 650 944 m -14 -14 d s
 638 957 m -2 -2 d s 1383 1474 318 227 C 636 953 m 4 Y 14 X s 1928 1928 0 0 C
 663 663 m -6 -6 d s 663 688 m -13 -14 d s 663 713 m -13 -14 d s 663 737 m -13
 -14 d s 663 762 m -13 -14 d s 663 786 m -13 -14 d s 663 811 m -13 -14 d s 663
 835 m -13 -14 d s 663 860 m -13 -14 d s 663 884 m -13 -14 d s 663 909 m -13 -14
 d s 663 933 m -13 -13 d s 663 958 m -13 -14 d s 1383 1474 318 227 C 650 957 m 5
 Y 13 X s 1928 1928 0 0 C 677 677 m -14 -14 d s 677 702 m -14 -14 d s 677 726 m
 -14 -13 d s 677 751 m -14 -14 d s 677 775 m -14 -13 d s 677 800 m -14 -14 d s
 677 825 m -14 -14 d s 677 849 m -14 -14 d s 677 874 m -14 -14 d s 677 898 m -14
 -14 d s 677 923 m -14 -14 d s 677 947 m -14 -14 d s 672 966 m -9 -8 d s 1383
 1474 318 227 C 663 962 m 4 Y 14 X s 1928 1928 0 0 C 691 667 m -2 -2 d s 691 691
 m -14 -14 d s 691 716 m -14 -14 d s 691 740 m -14 -14 d s 691 765 m -14 -14 d s
 691 789 m -14 -14 d s 691 814 m -14 -14 d s 691 838 m -14 -13 d s 691 863 m -14
 -14 d s 691 887 m -14 -13 d s 691 912 m -14 -14 d s 691 937 m -14 -14 d s 691
 961 m -14 -14 d s 1383 1474 318 227 C 677 966 m 5 Y 14 X s 1928 1928 0 0 C 705
 680 m -12 -11 d s 705 705 m -14 -14 d s 705 730 m -14 -14 d s 705 754 m -14 -14
 d s 705 779 m -14 -14 d s 705 803 m -14 -14 d s 705 828 m -14 -14 d s 705 852 m
 -14 -14 d s 705 877 m -14 -14 d s 705 901 m -14 -14 d s 705 926 m -14 -14 d s
 705 950 m -14 -13 d s 705 975 m -14 -14 d s 1383 1474 318 227 C 691 971 m 4 Y
 14 X s 1928 1928 0 0 C 719 694 m -14 -14 d s 719 719 m -14 -14 d s 719 743 m
 -14 -13 d s 719 768 m -14 -14 d s 719 792 m -14 -13 d s 719 817 m -14 -14 d s
 719 842 m -14 -14 d s 719 866 m -14 -14 d s 719 891 m -14 -14 d s 719 915 m -14
 -14 d s 719 940 m -14 -14 d s 719 964 m -14 -14 d s 709 979 m -4 -4 d s 1383
 1474 318 227 C 705 975 m 4 Y 14 X s 1928 1928 0 0 C 733 684 m -8 -8 d s 733 708
 m -14 -14 d s 733 733 m -14 -14 d s 733 757 m -14 -14 d s 733 782 m -14 -14 d s
 733 806 m -14 -14 d s 733 831 m -14 -14 d s 733 855 m -14 -13 d s 733 880 m -14
 -14 d s 733 904 m -14 -13 d s 733 929 m -14 -14 d s 733 953 m -14 -13 d s 733
 978 m -14 -14 d s 1383 1474 318 227 C 719 979 m 5 Y 14 X s 1928 1928 0 0 C 746
 697 m -13 -13 d s 746 722 m -13 -14 d s 746 746 m -13 -13 d s 746 771 m -13 -14
 d s 746 796 m -13 -14 d s 746 820 m -13 -14 d s 746 845 m -13 -14 d s 746 869 m
 -13 -14 d s 746 894 m -13 -14 d s 746 918 m -13 -14 d s 746 943 m -13 -14 d s
 746 967 m -13 -14 d s 742 988 m -9 -10 d s 1383 1474 318 227 C 733 984 m 4 Y 13
 X s 1928 1928 0 0 C 760 687 m -2 -3 d s 760 711 m -14 -14 d s 760 736 m -14 -14
 d s 760 760 m -14 -14 d s 760 785 m -14 -14 d s 760 809 m -14 -13 d s 760 834 m
 -14 -14 d s 760 858 m -14 -13 d s 760 883 m -14 -14 d s 760 908 m -14 -14 d s
 760 932 m -14 -14 d s 760 957 m -14 -14 d s 760 981 m -14 -14 d s 747 992 m -1
 X s 1383 1474 318 227 C 746 988 m 4 Y 14 X s 1928 1928 0 0 C 774 701 m -13 -13
 d s 774 725 m -14 -14 d s 774 750 m -14 -14 d s 774 774 m -14 -14 d s 774 799 m
 -14 -14 d s 774 823 m -14 -14 d s 774 848 m -14 -14 d s 774 872 m -14 -14 d s
 774 897 m -14 -14 d s 774 921 m -14 -13 d s 774 946 m -14 -14 d s 774 970 m -14
 -13 d s 774 995 m -14 -14 d s 1383 1474 318 227 C 760 992 m 4 Y 14 X s 1928
 1928 0 0 C 788 714 m -14 -13 d s 788 739 m -14 -14 d s 788 763 m -14 -13 d s
 788 788 m -14 -14 d s 788 813 m -14 -14 d s 788 837 m -14 -14 d s 788 862 m -14
 -14 d s 788 886 m -14 -14 d s 788 911 m -14 -14 d s 788 935 m -14 -14 d s 788
 960 m -14 -14 d s 788 984 m -14 -14 d s 780 1000 m -6 -5 d s 1383 1474 318 227
 C 774 996 m 4 Y 14 X s 1928 1928 0 0 C 802 704 m -9 -9 d s 802 728 m -14 -14 d
 s 802 753 m -14 -14 d s 802 777 m -14 -14 d s 802 802 m -14 -14 d s 802 826 m
 -14 -13 d s 802 851 m -14 -14 d s 802 875 m -14 -13 d s 802 900 m -14 -14 d s
 802 925 m -14 -14 d s 802 949 m -14 -14 d s 802 974 m -14 -14 d s 802 998 m -14
 -14 d s 1383 1474 318 227 C 788 1000 m 4 Y 14 X s 1928 1928 0 0 C 816 717 m -14
 -13 d s 816 742 m -14 -14 d s 816 767 m -14 -14 d s 816 791 m -14 -14 d s 816
 816 m -14 -14 d s 816 840 m -14 -14 d s 816 865 m -14 -14 d s 816 889 m -14 -14
 d s 816 914 m -14 -14 d s 816 938 m -14 -13 d s 816 963 m -14 -14 d s 816 987 m
 -14 -13 d s 812 1009 m -10 -11 d s 1383 1474 318 227 C 802 1004 m 5 Y 14 X s
 1928 1928 0 0 C 829 707 m -4 -5 d s 829 731 m -13 -14 d s 829 756 m -13 -14 d s
 829 780 m -13 -13 d s 829 805 m -13 -14 d s 829 829 m -13 -13 d s 829 854 m -13
 -14 d s 829 879 m -13 -14 d s 829 903 m -13 -14 d s 829 928 m -13 -14 d s 829
 952 m -13 -14 d s 829 977 m -13 -14 d s 829 1001 m -13 -14 d s 816 1013 m -1 Y
 s 1383 1474 318 227 C 816 1009 m 4 Y 13 X s 1928 1928 0 0 C 843 721 m -14 -14 d
 s 843 745 m -14 -14 d s 843 770 m -14 -14 d s 843 794 m -14 -14 d s 843 819 m
 -14 -14 d s 843 843 m -14 -14 d s 843 868 m -14 -14 d s 843 892 m -14 -13 d s
 843 917 m -14 -14 d s 843 941 m -14 -13 d s 843 966 m -14 -14 d s 843 991 m -14
 -14 d s 843 1015 m -14 -14 d s 1383 1474 318 227 C 829 1013 m 4 Y 14 X s 1928
 1928 0 0 C 857 710 m -1 Y s 857 734 m -14 -13 d s 857 759 m -14 -14 d s 857 784
 m -14 -14 d s 857 808 m -14 -14 d s 857 833 m -14 -14 d s 857 857 m -14 -14 d s
 857 882 m -14 -14 d s 857 906 m -14 -14 d s 857 931 m -14 -14 d s 857 955 m -14
 -14 d s 857 980 m -14 -14 d s 857 1004 m -14 -13 d s 849 1020 m -6 -5 d s 1383
 1474 318 227 C 843 1017 m 3 Y 14 X s 1928 1928 0 0 C 871 724 m -11 -11 d s 871
 748 m -14 -14 d s 871 773 m -14 -14 d s 871 797 m -14 -13 d s 871 822 m -14 -14
 d s 871 846 m -14 -13 d s 871 871 m -14 -14 d s 871 896 m -14 -14 d s 871 920 m
 -14 -14 d s 871 945 m -14 -14 d s 871 969 m -14 -14 d s 871 994 m -14 -14 d s
 871 1018 m -14 -14 d s 1383 1474 318 227 C 857 1020 m 4 Y 14 X s 1928 1928 0 0
 C 885 738 m -14 -14 d s 885 762 m -14 -14 d s 885 787 m -14 -14 d s 885 811 m
 -14 -14 d s 885 836 m -14 -14 d s 885 860 m -14 -14 d s 885 885 m -14 -14 d s
 885 909 m -14 -13 d s 885 934 m -14 -14 d s 885 958 m -14 -13 d s 885 983 m -14
 -14 d s 885 1008 m -14 -14 d s 881 1028 m -10 -10 d s 1383 1474 318 227 C 871
 1024 m 4 Y 14 X s 1928 1928 0 0 C 899 727 m -8 -7 d s 899 751 m -14 -13 d s 899
 776 m -14 -14 d s 899 801 m -14 -14 d s 899 825 m -14 -14 d s 899 850 m -14 -14
 d s 899 874 m -14 -14 d s 899 899 m -14 -14 d s 899 923 m -14 -14 d s 899 948 m
 -14 -14 d s 899 972 m -14 -14 d s 899 997 m -14 -14 d s 899 1021 m -14 -13 d s
 1383 1474 318 227 C 885 1028 m 4 Y 14 X s 1928 1928 0 0 C 913 741 m -14 -14 d s
 913 765 m -14 -14 d s 913 790 m -14 -14 d s 913 814 m -14 -13 d s 913 839 m -14
 -14 d s 913 863 m -14 -13 d s 913 888 m -14 -14 d s 913 913 m -14 -14 d s 913
 937 m -14 -14 d s 913 962 m -14 -14 d s 913 986 m -14 -14 d s 913 1011 m -14
 -14 d s 913 1035 m -14 -14 d s 1383 1474 318 227 C 899 1032 m 4 Y 14 X s 1928
 1928 0 0 C 926 730 m -3 -4 d s 926 755 m -13 -14 d s 926 779 m -13 -14 d s 926
 804 m -13 -14 d s 926 828 m -13 -14 d s 926 853 m -13 -14 d s 926 877 m -13 -14
 d s 926 902 m -13 -14 d s 926 926 m -13 -13 d s 926 951 m -13 -14 d s 926 975 m
 -13 -13 d s 926 1000 m -13 -14 d s 926 1025 m -13 -14 d s 917 1040 m -4 -5 d s
 1383 1474 318 227 C 913 1036 m 4 Y 13 X s 1928 1928 0 0 C 940 744 m -14 -14 d s
 940 768 m -14 -13 d s 940 793 m -14 -14 d s 940 817 m -14 -13 d s 940 842 m -14
 -14 d s 940 867 m -14 -14 d s 940 891 m -14 -14 d s 940 916 m -14 -14 d s 940
 940 m -14 -14 d s 940 965 m -14 -14 d s 940 989 m -14 -14 d s 940 1014 m -14
 -14 d s 940 1038 m -14 -13 d s 1383 1474 318 227 C 926 1040 m 3 Y 14 X s 1928
 1928 0 0 C 954 733 m s 954 758 m -14 -14 d s 954 782 m -14 -14 d s 954 807 m
 -14 -14 d s 954 831 m -14 -14 d s 954 856 m -14 -14 d s 954 880 m -14 -13 d s
 954 905 m -14 -14 d s 954 929 m -14 -13 d s 954 954 m -14 -14 d s 954 979 m -14
 -14 d s 954 1003 m -14 -14 d s 954 1028 m -14 -14 d s 949 1047 m -9 -9 d s 1383
 1474 318 227 C 940 1043 m 4 Y 14 X s 1928 1928 0 0 C 968 747 m -11 -11 d s 968
 772 m -14 -14 d s 968 796 m -14 -14 d s 968 821 m -14 -14 d s 968 845 m -14 -14
 d s 968 870 m -14 -14 d s 968 894 m -14 -14 d s 968 919 m -14 -14 d s 968 943 m
 -14 -14 d s 968 968 m -14 -14 d s 968 992 m -14 -13 d s 968 1017 m -14 -14 d s
 968 1041 m -14 -13 d s 1383 1474 318 227 C 954 1047 m 4 Y 14 X s 1928 1928 0 0
 C 982 761 m -14 -14 d s 982 785 m -14 -13 d s 982 810 m -14 -14 d s 982 834 m
 -14 -13 d s 982 859 m -14 -14 d s 982 884 m -14 -14 d s 982 908 m -14 -14 d s
 982 933 m -14 -14 d s 982 957 m -14 -14 d s 982 982 m -14 -14 d s 982 1006 m
 -14 -14 d s 982 1031 m -14 -14 d s 981 1054 m -13 -13 d s 1383 1474 318 227 C
 968 1051 m 3 Y 14 X s 1928 1928 0 0 C 996 750 m -8 -8 d s 996 775 m -14 -14 d s
 996 799 m -14 -14 d s 996 824 m -14 -14 d s 996 848 m -14 -14 d s 996 873 m -14
 -14 d s 996 897 m -14 -13 d s 996 922 m -14 -14 d s 996 946 m -14 -13 d s 996
 971 m -14 -14 d s 996 996 m -14 -14 d s 996 1020 m -14 -14 d s 996 1045 m -14
 -14 d s 984 1058 m -2 -3 d s 1383 1474 318 227 C 982 1054 m 4 Y 14 X s 1928
 1928 0 0 C 1009 764 m -13 -14 d s 1009 789 m -13 -14 d s 1009 813 m -13 -14 d s
 1009 838 m -13 -14 d s 1009 862 m -13 -14 d s 1009 887 m -13 -14 d s 1009 911 m
 -13 -14 d s 1009 936 m -13 -14 d s 1009 960 m -13 -14 d s 1009 985 m -13 -14 d
 s 1009 1009 m -13 -13 d s 1009 1034 m -13 -14 d s 1009 1058 m -13 -13 d s 1383
 1474 318 227 C 996 1058 m 3 Y 13 X s 1928 1928 0 0 C 1023 753 m -5 -5 d s 1023
 778 m -14 -14 d s 1023 802 m -14 -13 d s 1023 827 m -14 -14 d s 1023 851 m -14
 -13 d s 1023 876 m -14 -14 d s 1023 901 m -14 -14 d s 1023 925 m -14 -14 d s
 1023 950 m -14 -14 d s 1023 974 m -14 -14 d s 1023 999 m -14 -14 d s 1023 1023
 m -14 -14 d s 1023 1048 m -14 -14 d s 1016 1065 m -7 -7 d s 1383 1474 318 227 C
 1009 1061 m 4 Y 14 X s 1928 1928 0 0 C 1037 767 m -14 -14 d s 1037 792 m -14
 -14 d s 1037 816 m -14 -14 d s 1037 841 m -14 -14 d s 1037 865 m -14 -14 d s
 1037 890 m -14 -14 d s 1037 914 m -14 -13 d s 1037 939 m -14 -14 d s 1037 963 m
 -14 -13 d s 1037 988 m -14 -14 d s 1037 1012 m -14 -13 d s 1037 1037 m -14 -14
 d s 1037 1062 m -14 -14 d s 1383 1474 318 227 C 1023 1065 m 3 Y 14 X s 1928
 1928 0 0 C 1051 756 m -2 -2 d s 1051 781 m -14 -14 d s 1051 805 m -14 -13 d s
 1051 830 m -14 -14 d s 1051 855 m -14 -14 d s 1051 879 m -14 -14 d s 1051 904 m
 -14 -14 d s 1051 928 m -14 -14 d s 1051 953 m -14 -14 d s 1051 977 m -14 -14 d
 s 1051 1002 m -14 -14 d s 1051 1026 m -14 -14 d s 1051 1051 m -14 -14 d s 1047
 1071 m -10 -9 d s 1383 1474 318 227 C 1037 1068 m 3 Y 14 X s 1928 1928 0 0 C
 1065 770 m -13 -13 d s 1065 795 m -14 -14 d s 1065 819 m -14 -14 d s 1065 844 m
 -14 -14 d s 1065 868 m -14 -13 d s 1065 893 m -14 -14 d s 1065 917 m -14 -13 d
 s 1065 942 m -14 -14 d s 1065 967 m -14 -14 d s 1065 991 m -14 -14 d s 1065
 1016 m -14 -14 d s 1065 1040 m -14 -14 d s 1065 1065 m -14 -14 d s 1383 1474
 318 227 C 1051 1071 m 4 Y 14 X s 1928 1928 0 0 C 1079 784 m -14 -14 d s 1079
 809 m -14 -14 d s 1079 833 m -14 -14 d s 1079 858 m -14 -14 d s 1079 882 m -14
 -14 d s 1079 907 m -14 -14 d s 1079 931 m -14 -14 d s 1079 956 m -14 -14 d s
 1079 980 m -14 -13 d s 1079 1005 m -14 -14 d s 1079 1029 m -14 -13 d s 1079
 1054 m -14 -14 d s 1078 1078 m -13 -13 d s 1383 1474 318 227 C 1065 1075 m 3 Y
 14 X s 1928 1928 0 0 C 1092 773 m -10 -10 d s 1092 798 m -13 -14 d s 1092 822 m
 -13 -13 d s 1092 847 m -13 -14 d s 1092 872 m -13 -14 d s 1092 896 m -13 -14 d
 s 1092 921 m -13 -14 d s 1092 945 m -13 -14 d s 1092 970 m -13 -14 d s 1092 994
 m -13 -14 d s 1092 1019 m -13 -14 d s 1092 1043 m -13 -14 d s 1092 1068 m -13
 -14 d s 1081 1081 m -2 -2 d s 1383 1474 318 227 C 1079 1078 m 3 Y 13 X s 1928
 1928 0 0 C 1106 787 m -14 -14 d s 1106 812 m -14 -14 d s 1106 836 m -14 -14 d s
 1106 861 m -14 -14 d s 1106 885 m -14 -13 d s 1106 910 m -14 -14 d s 1106 934 m
 -14 -13 d s 1106 959 m -14 -14 d s 1106 984 m -14 -14 d s 1106 1008 m -14 -14 d
 s 1106 1033 m -14 -14 d s 1106 1057 m -14 -14 d s 1106 1082 m -14 -14 d s 1383
 1474 318 227 C 1092 1081 m 4 Y 14 X s 1928 1928 0 0 C 1120 777 m -8 -8 d s 1120
 801 m -14 -14 d s 1120 826 m -14 -14 d s 1120 850 m -14 -14 d s 1120 875 m -14
 -14 d s 1120 899 m -14 -14 d s 1120 924 m -14 -14 d s 1120 948 m -14 -14 d s
 1120 973 m -14 -14 d s 1120 997 m -14 -13 d s 1120 1022 m -14 -14 d s 1120 1046
 m -14 -13 d s 1120 1071 m -14 -14 d s 1112 1088 m -6 -6 d s 1383 1474 318 227 C
 1106 1085 m 3 Y 14 X s 1928 1928 0 0 C 1134 790 m -14 -13 d s 1134 815 m -14
 -14 d s 1134 839 m -14 -13 d s 1134 864 m -14 -14 d s 1134 888 m -14 -13 d s
 1134 913 m -14 -14 d s 1134 938 m -14 -14 d s 1134 962 m -14 -14 d s 1134 987 m
 -14 -14 d s 1134 1011 m -14 -14 d s 1134 1036 m -14 -14 d s 1134 1060 m -14 -14
 d s 1134 1085 m -14 -14 d s 1383 1474 318 227 C 1120 1088 m 3 Y 14 X s 1928
 1928 0 0 C 1148 780 m -6 -6 d s 1148 804 m -14 -14 d s 1148 829 m -14 -14 d s
 1148 853 m -14 -14 d s 1148 878 m -14 -14 d s 1148 902 m -14 -14 d s 1148 927 m
 -14 -14 d s 1148 951 m -14 -13 d s 1148 976 m -14 -14 d s 1148 1000 m -14 -13 d
 s 1148 1025 m -14 -14 d s 1148 1050 m -14 -14 d s 1148 1074 m -14 -14 d s 1143
 1094 m -9 -9 d s 1383 1474 318 227 C 1134 1091 m 3 Y 14 X s 1928 1928 0 0 C
 1162 793 m -14 -13 d s 1162 818 m -14 -14 d s 1162 843 m -14 -14 d s 1162 867 m
 -14 -14 d s 1162 892 m -14 -14 d s 1162 916 m -14 -14 d s 1162 941 m -14 -14 d
 s 1162 965 m -14 -14 d s 1162 990 m -14 -14 d s 1162 1014 m -14 -14 d s 1162
 1039 m -14 -14 d s 1162 1063 m -14 -13 d s 1162 1088 m -14 -14 d s 1383 1474
 318 227 C 1148 1094 m 3 Y 14 X s 1928 1928 0 0 C 1175 783 m -3 -4 d s 1175 807
 m -13 -14 d s 1175 832 m -13 -14 d s 1175 856 m -13 -13 d s 1175 881 m -13 -14
 d s 1175 905 m -13 -13 d s 1175 930 m -13 -14 d s 1175 955 m -13 -14 d s 1175
 979 m -13 -14 d s 1175 1004 m -13 -14 d s 1175 1028 m -13 -14 d s 1175 1053 m
 -13 -14 d s 1175 1077 m -13 -14 d s 1174 1100 m -12 -12 d s 1383 1474 318 227 C
 1162 1097 m 3 Y 13 X s 1928 1928 0 0 C 1189 797 m -14 -14 d s 1189 821 m -14
 -14 d s 1189 846 m -14 -14 d s 1189 870 m -14 -14 d s 1189 895 m -14 -14 d s
 1189 919 m -14 -14 d s 1189 944 m -14 -14 d s 1189 968 m -14 -13 d s 1189 993 m
 -14 -14 d s 1189 1017 m -14 -13 d s 1189 1042 m -14 -14 d s 1189 1067 m -14 -14
 d s 1189 1091 m -14 -14 d s 1177 1103 m -2 -1 d s 1383 1474 318 227 C 1175 1100
 m 3 Y 14 X s 1928 1928 0 0 C 1203 786 m -1 -2 d s 1203 810 m -14 -13 d s 1203
 835 m -14 -14 d s 1203 860 m -14 -14 d s 1203 884 m -14 -14 d s 1203 909 m -14
 -14 d s 1203 933 m -14 -14 d s 1203 958 m -14 -14 d s 1203 982 m -14 -14 d s
 1203 1007 m -14 -14 d s 1203 1031 m -14 -14 d s 1203 1056 m -14 -14 d s 1203
 1080 m -14 -13 d s 1203 1105 m -14 -14 d s 1383 1474 318 227 C 1189 1103 m 3 Y
 14 X s 1928 1928 0 0 C 1217 800 m -13 -13 d s 1217 824 m -14 -14 d s 1217 849 m
 -14 -14 d s 1217 873 m -14 -13 d s 1217 898 m -14 -14 d s 1217 922 m -14 -13 d
 s 1217 947 m -14 -14 d s 1217 972 m -14 -14 d s 1217 996 m -14 -14 d s 1217
 1021 m -14 -14 d s 1217 1045 m -14 -14 d s 1217 1070 m -14 -14 d s 1217 1094 m
 -14 -14 d s 1207 1109 m -4 -4 d s 1383 1474 318 227 C 1203 1106 m 3 Y 14 X s
 1928 1928 0 0 C 1231 814 m -14 -14 d s 1231 838 m -14 -14 d s 1231 863 m -14
 -14 d s 1231 887 m -14 -14 d s 1231 912 m -14 -14 d s 1231 936 m -14 -14 d s
 1231 961 m -14 -14 d s 1231 985 m -14 -13 d s 1231 1010 m -14 -14 d s 1231 1034
 m -14 -13 d s 1231 1059 m -14 -14 d s 1231 1084 m -14 -14 d s 1231 1108 m -14
 -14 d s 1383 1474 318 227 C 1217 1109 m 3 Y 14 X s 1928 1928 0 0 C 1245 803 m
 -11 -11 d s 1245 827 m -14 -13 d s 1245 852 m -14 -14 d s 1245 876 m -14 -13 d
 s 1245 901 m -14 -14 d s 1245 926 m -14 -14 d s 1245 950 m -14 -14 d s 1245 975
 m -14 -14 d s 1245 999 m -14 -14 d s 1245 1024 m -14 -14 d s 1245 1048 m -14
 -14 d s 1245 1073 m -14 -14 d s 1245 1097 m -14 -13 d s 1238 1115 m -7 -7 d s
 1383 1474 318 227 C 1231 1112 m 3 Y 14 X s 1928 1928 0 0 C 1258 817 m -13 -14 d
 s 1258 841 m -13 -14 d s 1258 866 m -13 -14 d s 1258 890 m -13 -14 d s 1258 915
 m -13 -14 d s 1258 939 m -13 -13 d s 1258 964 m -13 -14 d s 1258 988 m -13 -13
 d s 1258 1013 m -13 -14 d s 1258 1038 m -13 -14 d s 1258 1062 m -13 -14 d s
 1258 1087 m -13 -14 d s 1258 1111 m -13 -14 d s 1383 1474 318 227 C 1245 1115 m
 3 Y 13 X s 1928 1928 0 0 C 1272 806 m -9 -9 d s 1272 831 m -14 -14 d s 1272 855
 m -14 -14 d s 1272 880 m -14 -14 d s 1272 904 m -14 -14 d s 1272 929 m -14 -14
 d s 1272 953 m -14 -14 d s 1272 978 m -14 -14 d s 1272 1002 m -14 -14 d s 1272
 1027 m -14 -14 d s 1272 1051 m -14 -13 d s 1272 1076 m -14 -14 d s 1272 1100 m
 -14 -13 d s 1268 1120 m -10 -9 d s 1383 1474 318 227 C 1258 1118 m 2 Y 14 X s
 1928 1928 0 0 C 1286 820 m -14 -14 d s 1286 844 m -14 -13 d s 1286 869 m -14
 -14 d s 1286 893 m -14 -13 d s 1286 918 m -14 -14 d s 1286 943 m -14 -14 d s
 1286 967 m -14 -14 d s 1286 992 m -14 -14 d s 1286 1016 m -14 -14 d s 1286 1041
 m -14 -14 d s 1286 1065 m -14 -14 d s 1286 1090 m -14 -14 d s 1286 1114 m -14
 -14 d s 1383 1474 318 227 C 1272 1120 m 3 Y 14 X s 1928 1928 0 0 C 1300 809 m
 -8 -8 d s 1300 834 m -14 -14 d s 1300 858 m -14 -14 d s 1300 883 m -14 -14 d s
 1300 907 m -14 -14 d s 1300 932 m -14 -14 d s 1300 956 m -14 -13 d s 1300 981 m
 -14 -14 d s 1300 1005 m -14 -13 d s 1300 1030 m -14 -14 d s 1300 1055 m -14 -14
 d s 1300 1079 m -14 -14 d s 1300 1104 m -14 -14 d s 1298 1126 m -12 -12 d s
 1383 1474 318 227 C 1286 1123 m 3 Y 14 X s 1928 1928 0 0 C 1314 823 m -14 -14 d
 s 1314 848 m -14 -14 d s 1314 872 m -14 -14 d s 1314 897 m -14 -14 d s 1314 921
 m -14 -14 d s 1314 946 m -14 -14 d s 1314 970 m -14 -14 d s 1314 995 m -14 -14
 d s 1314 1019 m -14 -14 d s 1314 1044 m -14 -14 d s 1314 1068 m -14 -13 d s
 1314 1093 m -14 -14 d s 1314 1117 m -14 -13 d s 1300 1128 m s 1383 1474 318 227
 C 1300 1126 m 2 Y 14 X s 1928 1928 0 0 C 1328 812 m -7 -6 d s 1328 837 m -14
 -14 d s 1328 861 m -14 -13 d s 1328 886 m -14 -14 d s 1328 910 m -14 -13 d s
 1328 935 m -14 -14 d s 1328 960 m -14 -14 d s 1328 984 m -14 -14 d s 1328 1009
 m -14 -14 d s 1328 1033 m -14 -14 d s 1328 1058 m -14 -14 d s 1328 1082 m -14
 -14 d s 1328 1107 m -14 -14 d s 1327 1131 m -13 -14 d s 1383 1474 318 227 C
 1314 1128 m 3 Y 14 X s 1928 1928 0 0 C 1341 826 m -13 -14 d s 1341 851 m -13
 -14 d s 1341 875 m -13 -14 d s 1341 900 m -13 -14 d s 1341 924 m -13 -14 d s
 1341 949 m -13 -14 d s 1341 973 m -13 -13 d s 1341 998 m -13 -14 d s 1341 1022
 m -13 -13 d s 1341 1047 m -13 -14 d s 1341 1072 m -13 -14 d s 1341 1096 m -13
 -14 d s 1341 1121 m -13 -14 d s 1330 1134 m -2 -3 d s 1383 1474 318 227 C 1328
 1131 m 3 Y 13 X s 1928 1928 0 0 C 1355 815 m -5 -5 d s 1355 840 m -14 -14 d s
 1355 864 m -14 -13 d s 1355 889 m -14 -14 d s 1355 914 m -14 -14 d s 1355 938 m
 -14 -14 d s 1355 963 m -14 -14 d s 1355 987 m -14 -14 d s 1355 1012 m -14 -14 d
 s 1355 1036 m -14 -14 d s 1355 1061 m -14 -14 d s 1355 1085 m -14 -13 d s 1355
 1110 m -14 -14 d s 1355 1134 m -14 -13 d s 1383 1474 318 227 C 1341 1134 m 2 Y
 14 X s 1928 1928 0 0 C 1369 829 m -14 -14 d s 1369 854 m -14 -14 d s 1369 878 m
 -14 -14 d s 1369 903 m -14 -14 d s 1369 927 m -14 -13 d s 1369 952 m -14 -14 d
 s 1369 976 m -14 -13 d s 1369 1001 m -14 -14 d s 1369 1026 m -14 -14 d s 1369
 1050 m -14 -14 d s 1369 1075 m -14 -14 d s 1369 1099 m -14 -14 d s 1369 1124 m
 -14 -14 d s 1360 1139 m -5 -5 d s 1383 1474 318 227 C 1355 1136 m 3 Y 14 X s
 1928 1928 0 0 C 1383 819 m -5 -5 d s 1383 843 m -14 -14 d s 1383 868 m -14 -14
 d s 1383 892 m -14 -14 d s 1383 917 m -14 -14 d s 1383 941 m -14 -14 d s 1383
 966 m -14 -14 d s 1383 990 m -14 -14 d s 1383 1015 m -14 -14 d s 1383 1039 m
 -14 -13 d s 1383 1064 m -14 -14 d s 1383 1088 m -14 -13 d s 1383 1113 m -14 -14
 d s 1383 1138 m -14 -14 d s 1383 1474 318 227 C 1369 1139 m 2 Y 14 X s 1928
 1928 0 0 C 1397 832 m -14 -13 d s 1397 857 m -14 -14 d s 1397 881 m -14 -13 d s
 1397 906 m -14 -14 d s 1397 931 m -14 -14 d s 1397 955 m -14 -14 d s 1397 980 m
 -14 -14 d s 1397 1004 m -14 -14 d s 1397 1029 m -14 -14 d s 1397 1053 m -14 -14
 d s 1397 1078 m -14 -14 d s 1397 1102 m -14 -14 d s 1397 1127 m -14 -14 d s
 1389 1144 m -6 -6 d s 1383 1474 318 227 C 1383 1141 m 3 Y 14 X s 1928 1928 0 0
 C 1411 822 m -4 -4 d s 1411 846 m -14 -14 d s 1411 871 m -14 -14 d s 1411 895 m
 -14 -14 d s 1411 920 m -14 -14 d s 1411 944 m -14 -13 d s 1411 969 m -14 -14 d
 s 1411 993 m -14 -13 d s 1411 1018 m -14 -14 d s 1411 1043 m -14 -14 d s 1411
 1067 m -14 -14 d s 1411 1092 m -14 -14 d s 1411 1116 m -14 -14 d s 1411 1141 m
 -14 -14 d s 1383 1474 318 227 C 1397 1144 m 2 Y 14 X s 1928 1928 0 0 C 1424 836
 m -13 -14 d s 1424 860 m -13 -14 d s 1424 885 m -13 -14 d s 1424 909 m -13 -14
 d s 1424 934 m -13 -14 d s 1424 958 m -13 -14 d s 1424 983 m -13 -14 d s 1424
 1007 m -13 -14 d s 1424 1032 m -13 -14 d s 1424 1056 m -13 -13 d s 1424 1081 m
 -13 -14 d s 1424 1105 m -13 -13 d s 1424 1130 m -13 -14 d s 1418 1148 m -7 -7 d
 s 1383 1474 318 227 C 1411 1146 m 2 Y 13 X s 1928 1928 0 0 C 1438 825 m -3 -3 d
 s 1438 849 m -14 -13 d s 1438 874 m -14 -14 d s 1438 898 m -14 -13 d s 1438 923
 m -14 -14 d s 1438 947 m -14 -13 d s 1438 972 m -14 -14 d s 1438 997 m -14 -14
 d s 1438 1021 m -14 -14 d s 1438 1046 m -14 -14 d s 1438 1070 m -14 -14 d s
 1438 1095 m -14 -14 d s 1438 1119 m -14 -14 d s 1438 1144 m -14 -14 d s 1383
 1474 318 227 C 1424 1148 m 3 Y 14 X s 1928 1928 0 0 C 1452 839 m -14 -14 d s
 1452 863 m -14 -14 d s 1452 888 m -14 -14 d s 1452 912 m -14 -14 d s 1452 937 m
 -14 -14 d s 1452 961 m -14 -14 d s 1452 986 m -14 -14 d s 1452 1010 m -14 -13 d
 s 1452 1035 m -14 -14 d s 1452 1059 m -14 -13 d s 1452 1084 m -14 -14 d s 1452
 1109 m -14 -14 d s 1452 1133 m -14 -14 d s 1447 1153 m -9 -9 d s 1383 1474 318
 227 C 1438 1151 m 2 Y 14 X s 1928 1928 0 0 C 1466 828 m -2 -2 d s 1466 852 m
 -14 -13 d s 1466 877 m -14 -14 d s 1466 902 m -14 -14 d s 1466 926 m -14 -14 d
 s 1466 951 m -14 -14 d s 1466 975 m -14 -14 d s 1466 1000 m -14 -14 d s 1466
 1024 m -14 -14 d s 1466 1049 m -14 -14 d s 1466 1073 m -14 -14 d s 1466 1098 m
 -14 -14 d s 1466 1122 m -14 -13 d s 1466 1147 m -14 -14 d s 1383 1474 318 227 C
 1452 1153 m 2 Y 14 X s 1928 1928 0 0 C 1480 842 m -14 -14 d s 1480 866 m -14
 -14 d s 1480 891 m -14 -14 d s 1480 915 m -14 -13 d s 1480 940 m -14 -14 d s
 1480 964 m -14 -13 d s 1480 989 m -14 -14 d s 1480 1014 m -14 -14 d s 1480 1038
 m -14 -14 d s 1480 1063 m -14 -14 d s 1480 1087 m -14 -14 d s 1480 1112 m -14
 -14 d s 1480 1136 m -14 -14 d s 1476 1157 m -10 -10 d s 1383 1474 318 227 C
 1466 1155 m 2 Y 14 X s 1928 1928 0 0 C 1494 831 m -2 -2 d s 1494 856 m -14 -14
 d s 1494 880 m -14 -14 d s 1494 905 m -14 -14 d s 1494 929 m -14 -14 d s 1494
 954 m -14 -14 d s 1494 978 m -14 -14 d s 1494 1003 m -14 -14 d s 1494 1027 m
 -14 -13 d s 1494 1052 m -14 -14 d s 1494 1076 m -14 -13 d s 1494 1101 m -14 -14
 d s 1494 1126 m -14 -14 d s 1494 1150 m -14 -14 d s 1383 1474 318 227 C 1480
 1157 m 2 Y 14 X s 1928 1928 0 0 C 1507 845 m -13 -14 d s 1507 869 m -13 -13 d s
 1507 894 m -13 -14 d s 1507 919 m -13 -14 d s 1507 943 m -13 -14 d s 1507 968 m
 -13 -14 d s 1507 992 m -13 -14 d s 1507 1017 m -13 -14 d s 1507 1041 m -13 -14
 d s 1507 1066 m -13 -14 d s 1507 1090 m -13 -14 d s 1507 1115 m -13 -14 d s
 1507 1139 m -13 -13 d s 1505 1161 m -11 -11 d s 1383 1474 318 227 C 1494 1159 m
 2 Y 13 X s 1928 1928 0 0 C 1521 834 m -1 -2 d s 1521 859 m -14 -14 d s 1521 883
 m -14 -14 d s 1521 908 m -14 -14 d s 1521 932 m -14 -13 d s 1521 957 m -14 -14
 d s 1521 981 m -14 -13 d s 1521 1006 m -14 -14 d s 1521 1031 m -14 -14 d s 1521
 1055 m -14 -14 d s 1521 1080 m -14 -14 d s 1521 1104 m -14 -14 d s 1521 1129 m
 -14 -14 d s 1521 1153 m -14 -14 d s 1383 1474 318 227 C 1507 1161 m 3 Y 14 X s
 1928 1928 0 0 C 1535 848 m -14 -14 d s 1535 873 m -14 -14 d s 1535 897 m -14
 -14 d s 1535 922 m -14 -14 d s 1535 946 m -14 -14 d s 1535 971 m -14 -14 d s
 1535 995 m -14 -14 d s 1535 1020 m -14 -14 d s 1535 1044 m -14 -13 d s 1535
 1069 m -14 -14 d s 1535 1093 m -14 -13 d s 1535 1118 m -14 -14 d s 1535 1143 m
 -14 -14 d s 1534 1166 m -13 -13 d s 1383 1474 318 227 C 1521 1164 m 2 Y 14 X s
 1928 1928 0 0 C 1549 837 m -2 -1 d s 1549 862 m -14 -14 d s 1549 886 m -14 -13
 d s 1549 911 m -14 -14 d s 1549 935 m -14 -13 d s 1549 960 m -14 -14 d s 1549
 985 m -14 -14 d s 1549 1009 m -14 -14 d s 1549 1034 m -14 -14 d s 1549 1058 m
 -14 -14 d s 1549 1083 m -14 -14 d s 1549 1107 m -14 -14 d s 1549 1132 m -14 -14
 d s 1549 1156 m -14 -13 d s 1536 1168 m -1 -1 d s 1383 1474 318 227 C 1535 1166
 m 2 Y 14 X s 1928 1928 0 0 C 1563 851 m -14 -14 d s 1563 876 m -14 -14 d s 1563
 900 m -14 -14 d s 1563 925 m -14 -14 d s 1563 949 m -14 -14 d s 1563 974 m -14
 -14 d s 1563 998 m -14 -13 d s 1563 1023 m -14 -14 d s 1563 1047 m -14 -13 d s
 1563 1072 m -14 -14 d s 1563 1097 m -14 -14 d s 1563 1121 m -14 -14 d s 1563
 1146 m -14 -14 d s 1562 1169 m -13 -13 d s 1383 1474 318 227 C 1549 1168 m 1 Y
 14 X s 1928 1928 0 0 C 1577 840 m -2 -1 d s 1577 865 m -14 -14 d s 1577 890 m
 -14 -14 d s 1577 914 m -14 -14 d s 1577 939 m -14 -14 d s 1577 963 m -14 -14 d
 s 1577 988 m -14 -14 d s 1577 1012 m -14 -14 d s 1577 1037 m -14 -14 d s 1577
 1061 m -14 -14 d s 1577 1086 m -14 -14 d s 1577 1110 m -14 -13 d s 1577 1135 m
 -14 -14 d s 1577 1159 m -14 -13 d s 1564 1171 m -1 -1 d s 1383 1474 318 227 C
 1563 1169 m 2 Y 14 X s 1928 1928 0 0 C 1590 854 m -13 -14 d s 1590 879 m -13
 -14 d s 1590 903 m -13 -13 d s 1590 928 m -13 -14 d s 1590 952 m -13 -13 d s
 1590 977 m -13 -14 d s 1590 1002 m -13 -14 d s 1590 1026 m -13 -14 d s 1590
 1051 m -13 -14 d s 1590 1075 m -13 -14 d s 1590 1100 m -13 -14 d s 1590 1124 m
 -13 -14 d s 1590 1149 m -13 -14 d s 1590 1173 m -13 -14 d s 1383 1474 318 227 C
 1577 1171 m 2 Y 13 X s 1928 1928 0 0 C 1604 844 m -2 -2 d s 1604 868 m -14 -14
 d s 1604 893 m -14 -14 d s 1604 917 m -14 -14 d s 1604 942 m -14 -14 d s 1604
 966 m -14 -14 d s 1604 991 m -14 -14 d s 1604 1015 m -14 -13 d s 1604 1040 m
 -14 -14 d s 1604 1064 m -14 -13 d s 1604 1089 m -14 -14 d s 1604 1114 m -14 -14
 d s 1604 1138 m -14 -14 d s 1604 1163 m -14 -14 d s 1592 1175 m -2 -2 d s 1383
 1474 318 227 C 1590 1173 m 2 Y 14 X s 1928 1928 0 0 C 1618 857 m -14 -13 d s
 1618 882 m -14 -14 d s 1618 907 m -14 -14 d s 1618 931 m -14 -14 d s 1618 956 m
 -14 -14 d s 1618 980 m -14 -14 d s 1618 1005 m -14 -14 d s 1618 1029 m -14 -14
 d s 1618 1054 m -14 -14 d s 1618 1078 m -14 -14 d s 1618 1103 m -14 -14 d s
 1618 1127 m -14 -13 d s 1618 1152 m -14 -14 d s 1618 1176 m -14 -13 d s 1383
 1474 318 227 C 1604 1175 m 2 Y 14 X s 1928 1928 0 0 C 1632 847 m -2 -3 d s 1632
 871 m -14 -14 d s 1632 896 m -14 -14 d s 1632 920 m -14 -13 d s 1632 945 m -14
 -14 d s 1632 969 m -14 -13 d s 1632 994 m -14 -14 d s 1632 1019 m -14 -14 d s
 1632 1043 m -14 -14 d s 1632 1068 m -14 -14 d s 1632 1092 m -14 -14 d s 1632
 1117 m -14 -14 d s 1632 1141 m -14 -14 d s 1632 1166 m -14 -14 d s 1620 1179 m
 -2 -3 d s 1383 1474 318 227 C 1618 1177 m 2 Y 14 X s 1928 1928 0 0 C 1646 861 m
 -14 -14 d s 1646 885 m -14 -14 d s 1646 910 m -14 -14 d s 1646 934 m -14 -14 d
 s 1646 959 m -14 -14 d s 1646 983 m -14 -14 d s 1646 1008 m -14 -14 d s 1646
 1032 m -14 -13 d s 1646 1057 m -14 -14 d s 1646 1081 m -14 -13 d s 1646 1106 m
 -14 -14 d s 1646 1131 m -14 -14 d s 1646 1155 m -14 -14 d s 1646 1180 m -14 -14
 d s 1383 1474 318 227 C 1632 1179 m 1 Y 14 X s 1928 1928 0 0 C 1660 850 m -3 -3
 d s 1660 874 m -14 -13 d s 1660 899 m -14 -14 d s 1660 923 m -14 -13 d s 1660
 948 m -14 -14 d s 1660 973 m -14 -14 d s 1660 997 m -14 -14 d s 1660 1022 m -14
 -14 d s 1660 1046 m -14 -14 d s 1660 1071 m -14 -14 d s 1660 1095 m -14 -14 d s
 1660 1120 m -14 -14 d s 1660 1144 m -14 -13 d s 1660 1169 m -14 -14 d s 1648
 1182 m -2 -2 d s 1383 1474 318 227 C 1646 1180 m 2 Y 14 X s 1928 1928 0 0 C
 1674 864 m -14 -14 d s 1674 888 m -14 -14 d s 1674 913 m -14 -14 d s 1674 937 m
 -14 -14 d s 1674 962 m -14 -14 d s 1674 986 m -14 -13 d s 1674 1011 m -14 -14 d
 s 1674 1035 m -14 -13 d s 1674 1060 m -14 -14 d s 1674 1085 m -14 -14 d s 1674
 1109 m -14 -14 d s 1674 1134 m -14 -14 d s 1674 1158 m -14 -14 d s 1674 1183 m
 -14 -14 d s 1383 1474 318 227 C 1660 1182 m 2 Y 14 X s 1928 1928 0 0 C 1687 853
 m -3 -3 d s 1687 878 m -13 -14 d s 1687 902 m -13 -14 d s 1687 927 m -13 -14 d
 s 1687 951 m -13 -14 d s 1687 976 m -13 -14 d s 1687 1000 m -13 -14 d s 1687
 1025 m -13 -14 d s 1687 1049 m -13 -14 d s 1687 1074 m -13 -14 d s 1687 1098 m
 -13 -13 d s 1687 1123 m -13 -14 d s 1687 1147 m -13 -13 d s 1687 1172 m -13 -14
 d s 1676 1185 m -2 -2 d s 1383 1474 318 227 C 1674 1184 m 1 Y 13 X s 1928 1928
 0 0 C 1701 867 m -14 -14 d s 1701 891 m -14 -13 d s 1701 916 m -14 -14 d s 1701
 940 m -14 -13 d s 1701 965 m -14 -14 d s 1701 990 m -14 -14 d s 1701 1014 m -14
 -14 d s 1701 1039 m -14 -14 d s 1701 1063 m -14 -14 d s 1701 1088 m -14 -14 d s
 1701 1112 m -14 -14 d s 1701 1137 m -14 -14 d s 1701 1161 m -14 -14 d s 1701
 1186 m -14 -14 d s 1383 1474 318 227 C 1687 1185 m 2 Y 14 X -336 Y s
 [12 12] 0 sd 2 lw 324 760 m 14 6 d 14 5 d 14 5 d 14 5 d 14 5 d 13 5 d 14 5 d 14
 5 d 14 5 d 14 5 d 14 5 d 14 5 d 13 5 d 14 4 d 14 5 d 14 5 d 14 4 d 14 5 d 13 5
 d 14 4 d 14 5 d 14 4 d 14 4 d 14 5 d 13 4 d 14 4 d 14 5 d 14 4 d 14 4 d 14 4 d
 13 4 d 14 4 d 14 4 d 14 4 d 14 4 d 14 4 d 13 4 d 14 4 d 14 4 d 14 3 d 14 4 d 14
 4 d 13 3 d 14 4 d 14 3 d 14 4 d 14 3 d 14 4 d 13 3 d s 1002 972 m 14 4 d 14 3 d
 14 3 d 14 3 d 14 4 d 13 3 d 14 3 d 14 3 d 14 3 d 14 3 d 14 3 d 13 3 d 14 3 d 14
 3 d 14 2 d 14 3 d 14 3 d 13 3 d 14 2 d 14 3 d 14 2 d 14 3 d 14 2 d 14 3 d 13 2
 d 14 3 d 14 2 d 14 2 d 14 3 d 14 2 d 13 2 d 14 2 d 14 2 d 14 2 d 14 2 d 14 2 d
 13 2 d 14 2 d 14 2 d 14 2 d 14 2 d 14 1 d 13 2 d 14 2 d 14 2 d 14 1 d 14 2 d 14
 1 d 13 2 d s 1680 1091 m 14 1 d s 1928 1928 0 0 C [] 0 sd 1 lw 318 845 m 13 -5
 d s 318 826 m 13 -5 d s 318 808 m 13 -5 d s 318 789 m 13 -5 d s 318 771 m 13 -5
 d s 1383 1474 318 227 C 318 760 m 90 Y 13 X s 1928 1928 0 0 C 339 855 m 6 -2 d
 s 331 840 m 14 -5 d s 331 821 m 14 -5 d s 331 803 m 14 -5 d s 331 784 m 14 -5 d
 s 331 766 m 1 X s 1383 1474 318 227 C 331 850 m 5 Y 14 X s 1928 1928 0 0 C 345
 853 m 14 -5 d s 345 835 m 14 -5 d s 345 816 m 14 -5 d s 345 798 m 14 -5 d s 345
 779 m 14 -5 d s 1383 1474 318 227 C 345 855 m 6 Y 14 X s 1928 1928 0 0 C 360
 866 m 13 -5 d s 359 848 m 14 -5 d s 359 830 m 14 -6 d s 359 811 m 14 -5 d s 359
 793 m 14 -5 d s 1383 1474 318 227 C 359 861 m 5 Y 14 X s 1928 1928 0 0 C 373
 861 m 14 -5 d s 373 843 m 14 -5 d s 373 824 m 14 -5 d s 373 806 m 14 -5 d s 373
 788 m 14 -5 d s 1383 1474 318 227 C 373 866 m 5 Y 14 X s 1928 1928 0 0 C 387
 875 m 14 -5 d s 387 856 m 14 -5 d s 387 838 m 14 -5 d s 387 819 m 14 -5 d s 387
 801 m 14 -5 d s 1383 1474 318 227 C 387 871 m 6 Y 14 X s 1928 1928 0 0 C 401
 870 m 13 -5 d s 401 851 m 13 -5 d s 401 833 m 13 -5 d s 401 814 m 13 -5 d s 401
 796 m 12 -5 d s 1383 1474 318 227 C 401 877 m 5 Y 13 X s 1928 1928 0 0 C 414
 883 m 14 -5 d s 414 865 m 14 -5 d s 414 846 m 14 -5 d s 414 828 m 14 -5 d s 414
 809 m 14 -5 d s 1383 1474 318 227 C 414 882 m 5 Y 14 X s 1928 1928 0 0 C 439
 893 m 3 -1 d s 428 878 m 14 -5 d s 428 860 m 14 -5 d s 428 841 m 14 -5 d s 428
 823 m 14 -5 d s 428 804 m 9 -3 d s 1383 1474 318 227 C 428 887 m 6 Y 14 X s
 1928 1928 0 0 C 442 892 m 14 -5 d s 442 873 m 14 -5 d s 442 855 m 14 -5 d s 442
 836 m 14 -5 d s 442 818 m 14 -5 d s 1383 1474 318 227 C 442 893 m 5 Y 14 X s
 1928 1928 0 0 C 462 903 m 8 -3 d s 456 887 m 14 -5 d s 456 868 m 14 -5 d s 456
 850 m 14 -5 d s 456 831 m 14 -5 d s 456 813 m 4 -2 d s 1383 1474 318 227 C 456
 898 m 5 Y 14 X s 1928 1928 0 0 C 470 900 m 14 -5 d s 470 882 m 14 -5 d s 470
 863 m 14 -5 d s 470 845 m 14 -5 d s 470 826 m 14 -5 d s 1383 1474 318 227 C 470
 903 m 5 Y 14 X s 1928 1928 0 0 C 484 913 m 13 -5 d s 484 895 m 13 -5 d s 484
 877 m 13 -6 d s 484 858 m 13 -5 d s 484 840 m 13 -5 d s 484 821 m s 1383 1474
 318 227 C 484 908 m 5 Y 13 X s 1928 1928 0 0 C 497 908 m 14 -5 d s 497 890 m 14
 -5 d s 497 871 m 14 -5 d s 497 853 m 14 -5 d s 497 835 m 14 -5 d s 1383 1474
 318 227 C 497 913 m 5 Y 14 X s 1928 1928 0 0 C 511 922 m 14 -5 d s 511 903 m 14
 -5 d s 511 885 m 14 -5 d s 511 866 m 14 -5 d s 511 848 m 14 -5 d s 1383 1474
 318 227 C 511 918 m 5 Y 14 X s 1928 1928 0 0 C 525 917 m 14 -5 d s 525 898 m 14
 -5 d s 525 880 m 14 -5 d s 525 861 m 14 -5 d s 525 843 m 14 -5 d s 1383 1474
 318 227 C 525 923 m 5 Y 14 X s 1928 1928 0 0 C 539 930 m 14 -5 d s 539 912 m 14
 -5 d s 539 893 m 14 -5 d s 539 875 m 14 -5 d s 539 856 m 14 -5 d s 1383 1474
 318 227 C 539 928 m 5 Y 14 X s 1928 1928 0 0 C 553 925 m 14 -5 d s 553 907 m 14
 -5 d s 553 888 m 14 -5 d s 553 870 m 14 -5 d s 553 851 m 14 -5 d s 1383 1474
 318 227 C 553 933 m 5 Y 14 X s 1928 1928 0 0 C 567 939 m 13 -5 d s 567 920 m 13
 -5 d s 567 902 m 13 -5 d s 567 883 m 13 -5 d s 567 865 m 13 -5 d s 1383 1474
 318 227 C 567 938 m 5 Y 13 X s 1928 1928 0 0 C 593 948 m 1 -1 d s 580 934 m 14
 -5 d s 580 915 m 14 -5 d s 580 897 m 14 -5 d s 580 878 m 14 -5 d s 580 860 m 14
 -5 d s 1383 1474 318 227 C 580 943 m 5 Y 14 X s 1928 1928 0 0 C 594 947 m 14 -5
 d s 594 929 m 14 -5 d s 594 910 m 14 -5 d s 594 892 m 14 -5 d s 594 873 m 14 -5
 d s 1383 1474 318 227 C 594 948 m 4 Y 14 X s 1928 1928 0 0 C 617 957 m 5 -2 d s
 608 942 m 14 -5 d s 608 924 m 14 -6 d s 608 905 m 14 -5 d s 608 887 m 14 -5 d s
 608 868 m 14 -5 d s 1383 1474 318 227 C 608 952 m 5 Y 14 X s 1928 1928 0 0 C
 622 955 m 14 -5 d s 622 937 m 14 -5 d s 622 918 m 14 -5 d s 622 900 m 14 -5 d s
 622 882 m 14 -5 d s 1383 1474 318 227 C 622 957 m 5 Y 14 X s 1928 1928 0 0 C
 643 966 m 7 -2 d s 636 950 m 14 -5 d s 636 932 m 14 -5 d s 636 913 m 14 -5 d s
 636 895 m 14 -5 d s 636 877 m 14 -6 d s 1383 1474 318 227 C 636 962 m 4 Y 14 X
 s 1928 1928 0 0 C 650 964 m 13 -5 d s 650 945 m 13 -5 d s 650 927 m 13 -5 d s
 650 908 m 13 -5 d s 650 890 m 13 -5 d s 1383 1474 318 227 C 650 966 m 5 Y 13 X
 s 1928 1928 0 0 C 668 976 m 9 -4 d s 663 959 m 14 -5 d s 663 940 m 14 -5 d s
 663 922 m 14 -5 d s 663 903 m 14 -5 d s 663 885 m 14 -5 d s 1383 1474 318 227 C
 663 971 m 5 Y 14 X s 1928 1928 0 0 C 677 972 m 14 -5 d s 677 954 m 14 -5 d s
 677 935 m 14 -5 d s 677 917 m 14 -5 d s 677 898 m 14 -5 d s 1383 1474 318 227 C
 677 976 m 4 Y 14 X s 1928 1928 0 0 C 694 985 m 11 -4 d s 691 967 m 14 -5 d s
 691 949 m 14 -5 d s 691 930 m 14 -5 d s 691 912 m 14 -5 d s 691 893 m 13 -4 d s
 1383 1474 318 227 C 691 980 m 5 Y 14 X s 1928 1928 0 0 C 705 981 m 14 -5 d s
 705 962 m 14 -5 d s 705 944 m 14 -5 d s 705 925 m 14 -5 d s 705 907 m 14 -5 d s
 1383 1474 318 227 C 705 985 m 4 Y 14 X s 1928 1928 0 0 C 721 993 m 12 -4 d s
 719 976 m 14 -5 d s 719 957 m 14 -5 d s 719 939 m 14 -5 d s 719 920 m 14 -5 d s
 719 902 m 13 -5 d s 1383 1474 318 227 C 719 989 m 4 Y 14 X s 1928 1928 0 0 C
 733 989 m 13 -5 d s 733 971 m 13 -5 d s 733 952 m 13 -5 d s 733 934 m 13 -5 d s
 733 915 m 13 -5 d s 1383 1474 318 227 C 733 993 m 5 Y 13 X s 1928 1928 0 0 C
 748 1002 m 12 -5 d s 746 984 m 14 -5 d s 746 966 m 14 -6 d s 746 947 m 14 -5 d
 s 746 929 m 14 -5 d s 746 910 m 14 -5 d s 1383 1474 318 227 C 746 998 m 4 Y 14
 X s 1928 1928 0 0 C 760 997 m 14 -5 d s 760 979 m 14 -5 d s 760 960 m 14 -5 d s
 760 942 m 14 -5 d s 760 924 m 14 -6 d s 1383 1474 318 227 C 760 1002 m 4 Y 14 X
 s 1928 1928 0 0 C 775 1011 m 13 -5 d s 774 992 m 14 -5 d s 774 974 m 14 -5 d s
 774 955 m 14 -5 d s 774 937 m 14 -5 d s 774 918 m 14 -5 d s 1383 1474 318 227 C
 774 1006 m 5 Y 14 X s 1928 1928 0 0 C 788 1006 m 14 -5 d s 788 987 m 14 -5 d s
 788 969 m 14 -5 d s 788 950 m 14 -5 d s 788 932 m 14 -5 d s 1383 1474 318 227 C
 788 1011 m 4 Y 14 X s 1928 1928 0 0 C 803 1019 m 13 -5 d s 802 1001 m 14 -5 d s
 802 982 m 14 -5 d s 802 964 m 14 -5 d s 802 945 m 14 -5 d s 802 927 m 14 -5 d s
 1383 1474 318 227 C 802 1015 m 4 Y 14 X s 1928 1928 0 0 C 816 1014 m 13 -5 d s
 816 996 m 13 -5 d s 816 977 m 13 -5 d s 816 959 m 13 -5 d s 816 940 m 13 -5 d s
 1383 1474 318 227 C 816 1019 m 4 Y 13 X s 1928 1928 0 0 C 831 1027 m 12 -4 d s
 829 1009 m 14 -5 d s 829 991 m 14 -5 d s 829 972 m 14 -5 d s 829 954 m 14 -5 d
 s 829 935 m 14 -5 d s 1383 1474 318 227 C 829 1023 m 4 Y 14 X s 1928 1928 0 0 C
 843 1023 m 14 -5 d s 843 1004 m 14 -5 d s 843 986 m 14 -5 d s 843 967 m 14 -5 d
 s 843 949 m 14 -5 d s 1383 1474 318 227 C 843 1027 m 4 Y 14 X s 1928 1928 0 0 C
 860 1035 m 11 -4 d s 857 1018 m 14 -5 d s 857 999 m 14 -5 d s 857 981 m 14 -5 d
 s 857 962 m 14 -5 d s 857 944 m 14 -5 d s 1383 1474 318 227 C 857 1031 m 4 Y 14
 X s 1928 1928 0 0 C 871 1031 m 14 -5 d s 871 1013 m 14 -6 d s 871 994 m 14 -5 d
 s 871 976 m 14 -5 d s 871 957 m 14 -5 d s 1383 1474 318 227 C 871 1035 m 4 Y 14
 X s 1928 1928 0 0 C 889 1043 m 10 -4 d s 885 1026 m 14 -5 d s 885 1007 m 14 -5
 d s 885 989 m 14 -5 d s 885 971 m 14 -5 d s 885 952 m 14 -5 d s 1383 1474 318
 227 C 885 1039 m 4 Y 14 X s 1928 1928 0 0 C 899 1039 m 14 -5 d s 899 1021 m 14
 -5 d s 899 1002 m 14 -5 d s 899 984 m 14 -5 d s 899 966 m 14 -6 d s 1383 1474
 318 227 C 899 1043 m 4 Y 14 X s 1928 1928 0 0 C 918 1051 m 8 -3 d s 913 1034 m
 13 -5 d s 913 1016 m 13 -5 d s 913 997 m 13 -5 d s 913 979 m 13 -5 d s 913 960
 m 13 -5 d s 1383 1474 318 227 C 913 1047 m 4 Y 13 X s 1928 1928 0 0 C 926 1048
 m 14 -5 d s 926 1029 m 14 -5 d s 926 1011 m 14 -5 d s 926 992 m 14 -5 d s 926
 974 m 14 -5 d s 926 955 m 2 X s 1383 1474 318 227 C 926 1051 m 4 Y 14 X s 1928
 1928 0 0 C 948 1058 m 6 -2 d s 940 1043 m 14 -5 d s 940 1024 m 14 -5 d s 940
 1006 m 14 -5 d s 940 987 m 14 -5 d s 940 969 m 14 -5 d s 1383 1474 318 227 C
 940 1055 m 3 Y 14 X s 1928 1928 0 0 C 954 1056 m 14 -5 d s 954 1038 m 14 -5 d s
 954 1019 m 14 -5 d s 954 1001 m 14 -5 d s 954 982 m 14 -5 d s 954 964 m 5 -2 d
 s 1383 1474 318 227 C 954 1058 m 4 Y 14 X s 1928 1928 0 0 C 978 1066 m 4 -1 d s
 968 1051 m 14 -5 d s 968 1033 m 14 -5 d s 968 1014 m 14 -5 d s 968 996 m 14 -5
 d s 968 977 m 14 -5 d s 1383 1474 318 227 C 968 1062 m 4 Y 14 X s 1928 1928 0 0
 C 982 1065 m 14 -5 d s 982 1046 m 14 -5 d s 982 1028 m 14 -5 d s 982 1009 m 14
 -5 d s 982 991 m 14 -5 d s 982 972 m 9 -3 d s 1383 1474 318 227 C 982 1066 m 3
 Y 14 X s 1928 1928 0 0 C 1009 1073 m s 996 1060 m 13 -6 d s 996 1041 m 13 -5 d
 s 996 1023 m 13 -5 d s 996 1004 m 13 -5 d s 996 986 m 13 -5 d s 1383 1474 318
 227 C 996 1069 m 4 Y 13 X s 1928 1928 0 0 C 1009 1073 m 14 -5 d s 1009 1054 m
 14 -5 d s 1009 1036 m 14 -5 d s 1009 1018 m 14 -5 d s 1009 999 m 14 -5 d s 1009
 981 m 14 -5 d s 1383 1474 318 227 C 1009 1073 m 4 Y 14 X s 1928 1928 0 0 C 1023
 1068 m 14 -5 d s 1023 1049 m 14 -5 d s 1023 1031 m 14 -5 d s 1023 1013 m 14 -6
 d s 1023 994 m 14 -5 d s 1383 1474 318 227 C 1023 1077 m 3 Y 14 X s 1928 1928 0
 0 C 1037 1081 m 14 -5 d s 1037 1063 m 14 -5 d s 1037 1044 m 14 -5 d s 1037 1026
 m 14 -5 d s 1037 1007 m 14 -5 d s 1037 989 m 14 -5 d s 1383 1474 318 227 C 1037
 1080 m 4 Y 14 X s 1928 1928 0 0 C 1051 1076 m 14 -5 d s 1051 1058 m 14 -5 d s
 1051 1039 m 14 -5 d s 1051 1021 m 14 -5 d s 1051 1002 m 14 -5 d s 1383 1474 318
 227 C 1051 1084 m 3 Y 14 X s 1928 1928 0 0 C 1065 1090 m 14 -5 d s 1065 1071 m
 14 -5 d s 1065 1053 m 14 -5 d s 1065 1034 m 14 -5 d s 1065 1016 m 14 -5 d s
 1065 997 m 14 -5 d s 1383 1474 318 227 C 1065 1087 m 3 Y 14 X s 1928 1928 0 0 C
 1079 1085 m 13 -5 d s 1079 1066 m 13 -5 d s 1079 1048 m 13 -5 d s 1079 1029 m
 13 -5 d s 1079 1011 m 13 -5 d s 1079 992 m 1 X s 1383 1474 318 227 C 1079 1090
 m 4 Y 13 X s 1928 1928 0 0 C 1095 1097 m 11 -4 d s 1092 1080 m 14 -5 d s 1092
 1061 m 14 -5 d s 1092 1043 m 14 -5 d s 1092 1024 m 14 -5 d s 1092 1006 m 14 -5
 d s 1383 1474 318 227 C 1092 1094 m 3 Y 14 X s 1928 1928 0 0 C 1106 1093 m 14
 -5 d s 1106 1075 m 14 -5 d s 1106 1056 m 14 -5 d s 1106 1038 m 14 -5 d s 1106
 1019 m 14 -5 d s 1106 1001 m 8 -3 d s 1383 1474 318 227 C 1106 1097 m 3 Y 14 X
 s 1928 1928 0 0 C 1128 1104 m 6 -3 d s 1120 1088 m 14 -5 d s 1120 1070 m 14 -5
 d s 1120 1051 m 14 -5 d s 1120 1033 m 14 -5 d s 1120 1014 m 14 -5 d s 1383 1474
 318 227 C 1120 1100 m 4 Y 14 X s 1928 1928 0 0 C 1134 1101 m 14 -5 d s 1134
 1083 m 14 -5 d s 1134 1065 m 14 -5 d s 1134 1046 m 14 -5 d s 1134 1028 m 14 -5
 d s 1134 1009 m 14 -5 d s 1383 1474 318 227 C 1134 1104 m 3 Y 14 X s 1928 1928
 0 0 C 1161 1110 m 1 X s 1148 1096 m 14 -5 d s 1148 1078 m 14 -5 d s 1148 1060 m
 14 -6 d s 1148 1041 m 14 -5 d s 1148 1023 m 14 -5 d s 1383 1474 318 227 C 1148
 1107 m 3 Y 14 X s 1928 1928 0 0 C 1162 1110 m 13 -5 d s 1162 1091 m 13 -5 d s
 1162 1073 m 13 -5 d s 1162 1054 m 13 -5 d s 1162 1036 m 13 -5 d s 1162 1018 m
 13 -5 d s 1383 1474 318 227 C 1162 1110 m 3 Y 13 X s 1928 1928 0 0 C 1175 1105
 m 14 -5 d s 1175 1086 m 14 -5 d s 1175 1068 m 14 -5 d s 1175 1049 m 14 -5 d s
 1175 1031 m 14 -5 d s 1383 1474 318 227 C 1175 1113 m 3 Y 14 X s 1928 1928 0 0
 C 1189 1118 m 14 -5 d s 1189 1100 m 14 -5 d s 1189 1081 m 14 -5 d s 1189 1063 m
 14 -5 d s 1189 1044 m 14 -5 d s 1189 1026 m 14 -5 d s 1383 1474 318 227 C 1189
 1116 m 3 Y 14 X s 1928 1928 0 0 C 1203 1113 m 14 -5 d s 1203 1095 m 14 -5 d s
 1203 1076 m 14 -5 d s 1203 1058 m 14 -5 d s 1203 1039 m 14 -5 d s 1203 1021 m 7
 -3 d s 1383 1474 318 227 C 1203 1119 m 3 Y 14 X s 1928 1928 0 0 C 1221 1125 m
 10 -3 d s 1217 1108 m 14 -5 d s 1217 1090 m 14 -5 d s 1217 1071 m 14 -5 d s
 1217 1053 m 14 -5 d s 1217 1034 m 14 -5 d s 1383 1474 318 227 C 1217 1122 m 3 Y
 14 X s 1928 1928 0 0 C 1231 1122 m 14 -5 d s 1231 1103 m 14 -5 d s 1231 1085 m
 14 -5 d s 1231 1066 m 14 -5 d s 1231 1048 m 14 -5 d s 1231 1029 m 14 -5 d s
 1383 1474 318 227 C 1231 1125 m 3 Y 14 X s 1928 1928 0 0 C 1256 1131 m 2 -1 d s
 1245 1117 m 13 -5 d s 1245 1098 m 13 -5 d s 1245 1080 m 13 -5 d s 1245 1061 m
 13 -5 d s 1245 1043 m 13 -5 d s 1383 1474 318 227 C 1245 1128 m 3 Y 13 X s 1928
 1928 0 0 C 1258 1130 m 14 -5 d s 1258 1112 m 14 -5 d s 1258 1093 m 14 -5 d s
 1258 1075 m 14 -5 d s 1258 1056 m 14 -5 d s 1258 1038 m 14 -5 d s 1383 1474 318
 227 C 1258 1131 m 3 Y 14 X s 1928 1928 0 0 C 1272 1125 m 14 -5 d s 1272 1107 m
 14 -6 d s 1272 1088 m 14 -5 d s 1272 1070 m 14 -5 d s 1272 1051 m 14 -5 d s
 1272 1033 m 3 -1 d s 1383 1474 318 227 C 1272 1134 m 3 Y 14 X s 1928 1928 0 0 C
 1286 1138 m 14 -5 d s 1286 1120 m 14 -5 d s 1286 1101 m 14 -5 d s 1286 1083 m
 14 -5 d s 1286 1065 m 14 -5 d s 1286 1046 m 14 -5 d s 1383 1474 318 227 C 1286
 1137 m 2 Y 14 X s 1928 1928 0 0 C 1300 1133 m 14 -5 d s 1300 1115 m 14 -5 d s
 1300 1096 m 14 -5 d s 1300 1078 m 14 -5 d s 1300 1060 m 14 -6 d s 1300 1041 m
 11 -4 d s 1383 1474 318 227 C 1300 1139 m 3 Y 14 X s 1928 1928 0 0 C 1319 1145
 m 9 -3 d s 1314 1128 m 14 -5 d s 1314 1110 m 14 -5 d s 1314 1091 m 14 -5 d s
 1314 1073 m 14 -5 d s 1314 1054 m 14 -5 d s 1383 1474 318 227 C 1314 1142 m 3 Y
 14 X s 1928 1928 0 0 C 1328 1142 m 13 -5 d s 1328 1123 m 13 -5 d s 1328 1105 m
 13 -5 d s 1328 1086 m 13 -5 d s 1328 1068 m 13 -5 d s 1328 1049 m 13 -5 d s
 1383 1474 318 227 C 1328 1145 m 2 Y 13 X s 1928 1928 0 0 C 1341 1137 m 14 -5 d
 s 1341 1118 m 14 -5 d s 1341 1100 m 14 -5 d s 1341 1081 m 14 -5 d s 1341 1063 m
 14 -5 d s 1341 1044 m 1 X s 1383 1474 318 227 C 1341 1147 m 3 Y 14 X s 1928
 1928 0 0 C 1355 1150 m 14 -5 d s 1355 1132 m 14 -5 d s 1355 1113 m 14 -5 d s
 1355 1095 m 14 -5 d s 1355 1076 m 14 -5 d s 1355 1058 m 14 -5 d s 1383 1474 318
 227 C 1355 1150 m 3 Y 14 X s 1928 1928 0 0 C 1369 1145 m 14 -5 d s 1369 1127 m
 14 -5 d s 1369 1108 m 14 -5 d s 1369 1090 m 14 -5 d s 1369 1071 m 14 -5 d s
 1369 1053 m 10 -4 d s 1383 1474 318 227 C 1369 1153 m 2 Y 14 X s 1928 1928 0 0
 C 1386 1158 m 11 -4 d s 1383 1140 m 14 -5 d s 1383 1122 m 14 -5 d s 1383 1103 m
 14 -5 d s 1383 1085 m 14 -5 d s 1383 1066 m 14 -5 d s 1383 1474 318 227 C 1383
 1155 m 3 Y 14 X s 1928 1928 0 0 C 1397 1154 m 14 -6 d s 1397 1135 m 14 -5 d s
 1397 1117 m 14 -5 d s 1397 1098 m 14 -5 d s 1397 1080 m 14 -5 d s 1397 1061 m
 14 -5 d s 1383 1474 318 227 C 1397 1158 m 2 Y 14 X s 1928 1928 0 0 C 1423 1162
 m 1 X s 1411 1148 m 13 -5 d s 1411 1130 m 13 -5 d s 1411 1112 m 13 -5 d s 1411
 1093 m 13 -5 d s 1411 1075 m 13 -5 d s 1411 1056 m 1 X s 1383 1474 318 227 C
 1411 1160 m 2 Y 13 X s 1928 1928 0 0 C 1424 1162 m 14 -5 d s 1424 1143 m 14 -5
 d s 1424 1125 m 14 -5 d s 1424 1107 m 14 -6 d s 1424 1088 m 14 -5 d s 1424 1070
 m 14 -5 d s 1383 1474 318 227 C 1424 1162 m 3 Y 14 X s 1928 1928 0 0 C 1438
 1157 m 14 -5 d s 1438 1138 m 14 -5 d s 1438 1120 m 14 -5 d s 1438 1101 m 14 -5
 d s 1438 1083 m 14 -5 d s 1438 1065 m 12 -5 d s 1383 1474 318 227 C 1438 1165 m
 2 Y 14 X s 1928 1928 0 0 C 1454 1169 m 12 -4 d s 1452 1152 m 14 -5 d s 1452
 1133 m 14 -5 d s 1452 1115 m 14 -5 d s 1452 1096 m 14 -5 d s 1452 1078 m 14 -5
 d s 1383 1474 318 227 C 1452 1167 m 2 Y 14 X s 1928 1928 0 0 C 1466 1165 m 14
 -5 d s 1466 1147 m 14 -5 d s 1466 1128 m 14 -5 d s 1466 1110 m 14 -5 d s 1466
 1091 m 14 -5 d s 1466 1073 m 14 -5 d s 1383 1474 318 227 C 1466 1169 m 3 Y 14 X
 s 1928 1928 0 0 C 1493 1174 m 1 X s 1480 1160 m 14 -5 d s 1480 1142 m 14 -5 d s
 1480 1123 m 14 -5 d s 1480 1105 m 14 -5 d s 1480 1086 m 14 -5 d s 1480 1068 m 4
 -2 d s 1383 1474 318 227 C 1480 1172 m 2 Y 14 X s 1928 1928 0 0 C 1494 1174 m
 13 -5 d s 1494 1155 m 13 -5 d s 1494 1137 m 13 -5 d s 1494 1118 m 13 -5 d s
 1494 1100 m 13 -5 d s 1494 1081 m 13 -5 d s 1383 1474 318 227 C 1494 1174 m 2 Y
 13 X s 1928 1928 0 0 C 1507 1169 m 14 -5 d s 1507 1150 m 14 -5 d s 1507 1132 m
 14 -5 d s 1507 1113 m 14 -5 d s 1507 1095 m 14 -5 d s 1507 1076 m 14 -5 d s
 1383 1474 318 227 C 1507 1176 m 2 Y 14 X s 1928 1928 0 0 C 1526 1180 m 9 -3 d s
 1521 1164 m 14 -5 d s 1521 1145 m 14 -5 d s 1521 1127 m 14 -5 d s 1521 1108 m
 14 -5 d s 1521 1090 m 14 -5 d s 1383 1474 318 227 C 1521 1178 m 2 Y 14 X s 1928
 1928 0 0 C 1535 1177 m 14 -5 d s 1535 1159 m 14 -5 d s 1535 1140 m 14 -5 d s
 1535 1122 m 14 -5 d s 1535 1103 m 14 -5 d s 1535 1085 m 14 -5 d s 1383 1474 318
 227 C 1535 1180 m 2 Y 14 X s 1928 1928 0 0 C 1549 1172 m 14 -5 d s 1549 1154 m
 14 -6 d s 1549 1135 m 14 -5 d s 1549 1117 m 14 -5 d s 1549 1098 m 14 -5 d s
 1549 1080 m 10 -4 d s 1383 1474 318 227 C 1549 1182 m 2 Y 14 X s 1928 1928 0 0
 C 1563 1185 m 14 -5 d s 1563 1167 m 14 -5 d s 1563 1148 m 14 -5 d s 1563 1130 m
 14 -5 d s 1563 1112 m 14 -5 d s 1563 1093 m 14 -5 d s 1383 1474 318 227 C 1563
 1184 m 2 Y 14 X s 1928 1928 0 0 C 1577 1180 m 13 -5 d s 1577 1162 m 13 -5 d s
 1577 1143 m 13 -5 d s 1577 1125 m 13 -5 d s 1577 1107 m 13 -6 d s 1577 1088 m
 13 -5 d s 1383 1474 318 227 C 1577 1186 m 2 Y 13 X s 1928 1928 0 0 C 1601 1190
 m 3 -1 d s 1590 1175 m 14 -5 d s 1590 1157 m 14 -5 d s 1590 1138 m 14 -5 d s
 1590 1120 m 14 -5 d s 1590 1101 m 14 -5 d s 1590 1083 m 6 -2 d s 1383 1474 318
 227 C 1590 1188 m 2 Y 14 X s 1928 1928 0 0 C 1604 1189 m 14 -5 d s 1604 1170 m
 14 -5 d s 1604 1152 m 14 -5 d s 1604 1133 m 14 -5 d s 1604 1115 m 14 -5 d s
 1604 1096 m 14 -5 d s 1383 1474 318 227 C 1604 1190 m 2 Y 14 X s 1928 1928 0 0
 C 1618 1184 m 14 -5 d s 1618 1165 m 14 -5 d s 1618 1147 m 14 -5 d s 1618 1128 m
 14 -5 d s 1618 1110 m 14 -5 d s 1618 1091 m 14 -5 d s 1383 1474 318 227 C 1618
 1192 m 2 Y 14 X s 1928 1928 0 0 C 1636 1196 m 10 -4 d s 1632 1179 m 14 -5 d s
 1632 1160 m 14 -5 d s 1632 1142 m 14 -5 d s 1632 1123 m 14 -5 d s 1632 1105 m
 14 -5 d s 1632 1086 m 1 X s 1383 1474 318 227 C 1632 1194 m 2 Y 14 X s 1928
 1928 0 0 C 1646 1192 m 14 -5 d s 1646 1174 m 14 -5 d s 1646 1155 m 14 -5 d s
 1646 1137 m 14 -5 d s 1646 1118 m 14 -5 d s 1646 1100 m 14 -5 d s 1383 1474 318
 227 C 1646 1196 m 1 Y 14 X s 1928 1928 0 0 C 1660 1187 m 14 -5 d s 1660 1169 m
 14 -5 d s 1660 1150 m 14 -5 d s 1660 1132 m 14 -5 d s 1660 1113 m 14 -5 d s
 1660 1095 m 14 -5 d s 1383 1474 318 227 C 1660 1197 m 2 Y 14 X s 1928 1928 0 0
 C 1674 1201 m 13 -6 d s 1674 1182 m 13 -5 d s 1674 1164 m 13 -5 d s 1674 1145 m
 13 -5 d s 1674 1127 m 13 -5 d s 1674 1108 m 13 -5 d s 1383 1474 318 227 C 1674
 1199 m 2 Y 13 X s 1928 1928 0 0 C 1687 1195 m 14 -5 d s 1687 1177 m 14 -5 d s
 1687 1159 m 14 -5 d s 1687 1140 m 14 -5 d s 1687 1122 m 14 -5 d s 1687 1103 m
 14 -5 d s 1383 1474 318 227 C 1687 1201 m 1 Y 14 X -110 Y s [12 12] 0 sd 6 lw
 324 760 m 14 6 d 14 5 d 14 5 d 14 5 d 14 5 d 13 5 d 14 5 d 14 5 d 14 5 d 14 5 d
 14 5 d 14 5 d 13 5 d 14 4 d 14 5 d 14 5 d 14 4 d 14 5 d 13 5 d 14 4 d 14 5 d 14
 4 d 14 4 d 14 5 d 13 4 d 14 4 d 14 5 d 14 4 d 14 4 d 14 4 d 13 4 d 14 4 d 14 4
 d 14 4 d 14 4 d 14 4 d 13 4 d 14 4 d 14 4 d 14 3 d 14 4 d 14 4 d 13 3 d 14 4 d
 14 3 d 14 4 d 14 3 d 14 4 d 13 3 d s 1002 972 m 14 4 d 14 3 d 14 3 d 14 3 d 14
 4 d 13 3 d 14 3 d 14 3 d 14 3 d 14 3 d 14 3 d 13 3 d 14 3 d 14 3 d 14 2 d 14 3
 d 14 3 d 13 3 d 14 2 d 14 3 d 14 2 d 14 3 d 14 2 d 14 3 d 13 2 d 14 3 d 14 2 d
 14 2 d 14 3 d 14 2 d 13 2 d 14 2 d 14 2 d 14 2 d 14 2 d 14 2 d 13 2 d 14 2 d 14
 2 d 14 2 d 14 2 d 14 1 d 13 2 d 14 2 d 14 2 d 14 1 d 14 2 d 14 1 d 13 2 d s
 1680 1091 m 14 1 d s [] 0 sd 1 lw 669 515 m 222 Y s 669 769 m 221 Y s /w 32
 def /w2 {w 2 div} def /w3 {w 3 div} def 669 753 m20 835 711 m 117 Y s 835 860 m
 116 Y s 835 844 m20 1081 799 m 115 Y s 1081 946 m 115 Y s 1081 930 m20 1322 807
 m 139 Y s 1322 978 m 139 Y s 1322 962 m20 1928 1928 0 0 C
 /xs 0 def 
(R)
 /Special    103 stwn 
(s \(GeV\))
 /Times-Italic    103 stwn 
 gsave  1701 45
 t   0 r  xs neg 0 t 0 0 m
 /Special findfont  103 sf 0    0 m 
(R)
 show 
 currentpoint pop 0 t 
 /Times-Italic findfont  103 sf 0    0 m 
(s \(GeV\))
 show 
 gr 
 /xs 0 def 
(s)
 /Symbol    103 stwn 
(\(ee)
 /Times-Italic    103 stwn 
(5)
 /Special    103 stwn 
(ee)
 /Times-Italic    103 stwn 
(tt)
 /Symbol    103 stwn 
(\) \(pb\))
 /Times-Italic    103 stwn 
 gsave  113 1701
 t  90 r  xs neg 0 t 0 0 m
 /Symbol findfont  103 sf 0    0 m 
(s)
 show 
 currentpoint pop 0 t 
 /Times-Italic findfont  103 sf 0    0 m 
(\(ee)
 show 
 currentpoint pop 0 t 
 /Special findfont  103 sf 0    0 m 
(5)
 show 
 currentpoint pop 0 t 
 /Times-Italic findfont  103 sf 0    0 m 
(ee)
 show 
 currentpoint pop 0 t 
 /Symbol findfont  103 sf 0    0 m 
(tt)
 show 
 currentpoint pop 0 t 
 /Times-Italic findfont  103 sf 0    0 m 
(\) \(pb\))
 show 
 gr  1383 1474 318 227 C 1928 1928 0 0 C 1383 1474 318 227 C 1928 1928 0 0 C 6
 lw 456 1603 m20
 gsave  519 1569
 t   0 r 0 0 m
 /Times-Italic findfont  103 sf 0    0 m 
(Measurements)
 show 
 gr  1383 1474 318 227 C 1928 1928 0 0 C 1383 1474 318 227 C 1928 1928 0 0 C 456
 1480 m21
 gsave  519 1446
 t   0 r 0 0 m
 /Times-Italic findfont  103 sf 0    0 m 
(Mean)
 show 
 gr  1383 1474 318 227 C 1928 1928 0 0 C 1383 1474 318 227 C 1928 1928 0 0 C
 [12 12] 0 sd 456 1357 m -113 X s
 gsave  519 1323
 t   0 r 0 0 m
 /Times-Italic findfont  103 sf 0    0 m 
(Standard Model)
 show 
 gr  1383 1474 318 227 C [] 0 sd 4 lw 1059 807 m 70 Y s 1059 908 m 70 Y s 1059
 892 m21 1928 1928 0 0 C 1383 1474 318 227 C 1928 1928 0 0 C 1 lw 733 389 m -7
 -6 d s 733 414 m -31 -31 d s 733 438 m -56 -55 d s 733 463 m -80 -80 d s 710
 464 m -82 -81 d s 685 464 m -66 -66 d s 661 464 m -42 -41 d s 636 464 m -17 -17
 d s 114 81 619 383 bl
 gsave  796 389
 t   0 r 0 0 m
 /Times-Italic findfont  103 sf 0    0 m 
(a)
 show 
 currentpoint pop 0 t 
 /Symbol findfont   72 sf 0  -34 m 
(t)
 show 
 currentpoint pop 0 t 
 /Times-Italic findfont  103 sf 0    0 m 
( allowed \(95% CL\))
 show 
 gr  1383 1474 318 227 C 1928 1928 0 0 C 1383 1474 318 227 C 1928 1928 0 0 C 720
 366 m 13 -5 d s 669 366 m 64 -23 d s 619 366 m 114 -42 d s 619 347 m 114 -41 d
 s 619 329 m 114 -42 d s 619 310 m 71 -26 d s 619 292 m 20 -8 d s 114 82 619 284
 bl
 gsave  796 291
 t   0 r 0 0 m
 /Times-Italic findfont  103 sf 0    0 m 
(d)
 show 
 currentpoint pop 0 t 
 /Symbol findfont   72 sf 0  -34 m 
(t)
 show 
 currentpoint pop 0 t 
 /Times-Italic findfont  103 sf 0    0 m 
( allowed \(95% CL\))
 show 
 gr  1383 1474 318 227 C
 gr  gr 
showpage
end
%%EOF
